% This file was created by tikzplotlib v0.9.4.
\begin{tikzpicture}

\definecolor{color0}{rgb}{0.12156862745098,0.466666666666667,0.705882352941177}
\definecolor{color1}{rgb}{1,0.498039215686275,0.0549019607843137}
\definecolor{color2}{rgb}{0.172549019607843,0.627450980392157,0.172549019607843}
\definecolor{color3}{rgb}{0.83921568627451,0.152941176470588,0.156862745098039}
\definecolor{color4}{rgb}{0.580392156862745,0.403921568627451,0.741176470588235}

\begin{axis}[
height=4.3cm,
legend cell align={left},
legend columns=2,
legend style={fill opacity=1, draw opacity=1, text opacity=1, at={(1,1.05)}, anchor=south east, draw=white!80!black},
tick align=outside,
tick pos=left,
width=5.7cm,
x grid style={white!69.0196078431373!black},
xlabel={\(\displaystyle N_{\textup{СВ}}\)},
xmajorgrids,
xmin=2.4, xmax=15.6,
xtick style={color=black},
y grid style={white!69.0196078431373!black},
ylabel={\(\displaystyle |S_{11}|\), дБ},
ymajorgrids,
ymin=-26.175, ymax=-11.325,
ytick style={color=black}
]
\addplot [semithick, color0, mark=*, mark size=1.5, mark options={solid}]
table {%
3 -25.2
4 -22.2
5 -21.5
6 -20.2
7 -19.2
8 -18.2
9 -18
10 -17.4
11 -16.6
12 -16.2
13 -16.2
14 -15.6
15 -15.4
};
\addlegendentry{$I_{\textup{п}}$ = 0,1 A}
\addplot [semithick, color1, mark=triangle*, mark size=1.5, mark options={solid,rotate=180}]
table {%
3 -25.5
4 -22.4
5 -20.5
6 -20.2
7 -18.9
8 -17.6
9 -17.2
10 -16.3
11 -16.2
12 -15.9
13 -15.1
14 -15
15 -14.3
};
\addlegendentry{$I_{\textup{п}}$ = 0,2 A}
\addplot [semithick, color2, mark=square*, mark size=1.5, mark options={solid}]
table {%
3 -23.6
4 -20.2
5 -19.2
6 -17.5
7 -16.2
8 -15.7
9 -14.7
10 -14.6
11 -13.8
12 -13.1
13 -13.1
14 -12.6
15 -12
};
\addlegendentry{$I_{\textup{п}}$ = 0,3 A}
\addplot [semithick, color3, mark=diamond*, mark size=1.5, mark options={solid}]
table {%
3 -23.8
4 -20.6
5 -19.7
6 -18.1
7 -16.8
8 -15.6
9 -15.7
10 -14.7
11 -13.9
12 nan
13 nan
14 nan
15 nan
};
\addlegendentry{$I_{\textup{п}}$ = 0,4 A}
\addplot [semithick, color4, mark=triangle*, mark size=1.5, mark options={solid}]
table {%
3 -22.7
4 -19.6
5 -17.6
6 -17.4
7 -16
8 -14.9
9 -13.8
10 nan
11 nan
12 nan
13 nan
14 nan
15 nan
};
\addlegendentry{$I_{\textup{п}}$ = 0,5 A}
\addplot [semithick, red, forget plot]
table {%
2.532 -20.8278537031645
15.468 -20.8278537031645
};
\end{axis}

\end{tikzpicture}

