N,"$I_п$ = 0,1 A","$I_п$ = 0,2 A","$I_п$ = 0,3 A","$I_п$ = 0,4 A","$I_п$ = 0,5 A"
3,-25.2,-25.5,-23.6,-23.8,-22.7
4,-22.2,-22.4,-20.2,-20.6,-19.6
5,-21.5,-20.5,-19.2,-19.7,-17.6
6,-20.2,-20.2,-17.5,-18.1,-17.4
7,-19.2,-18.9,-16.2,-16.8,-16.0
8,-18.2,-17.6,-15.7,-15.6,-14.9
9,-18.0,-17.2,-14.7,-15.7,-13.8
10,-17.4,-16.3,-14.6,-14.7,
11,-16.6,-16.2,-13.8,-13.9,
12,-16.2,-15.9,-13.1,
13,-16.2,-15.1,-13.1,
14,-15.6,-15.0,-12.6,
15,-15.4,-14.3,-12.0,
