% This file was created by tikzplotlib v0.9.4.
\begin{tikzpicture}
\tikzstyle{every node}=[font=\scriptsize]

\definecolor{color0}{rgb}{0.12156862745098,0.466666666666667,0.705882352941177}

\begin{axis}[
height=3cm,
tick align=outside,
tick pos=left,
width=4.8cm,
x grid style={white!69.0196078431373!black},
xlabel={n},
xmajorgrids,
xmin=0.66, xmax=21.34,
xtick style={color=black},
y grid style={white!69.0196078431373!black},
ylabel={\(\displaystyle |E|, \si{\MV\per\m}\)},
ymajorgrids,
ymin=0, ymax=2.80848792258849,
ytick style={color=black}
]
\draw[draw=none,fill=color0] (axis cs:1.6,0) rectangle (axis cs:2.4,2.25187265929285);
\draw[draw=none,fill=color0] (axis cs:2.6,0) rectangle (axis cs:3.4,2.28387434696618);
\draw[draw=none,fill=color0] (axis cs:3.6,0) rectangle (axis cs:4.4,2.25278638704802);
\draw[draw=none,fill=color0] (axis cs:4.6,0) rectangle (axis cs:5.4,2.31731082230542);
\draw[draw=none,fill=color0] (axis cs:5.6,0) rectangle (axis cs:6.4,2.3496519248231);
\draw[draw=none,fill=color0] (axis cs:6.6,0) rectangle (axis cs:7.4,2.32072810111537);
\draw[draw=none,fill=color0] (axis cs:7.6,0) rectangle (axis cs:8.4,2.38468883988219);
\draw[draw=none,fill=color0] (axis cs:8.6,0) rectangle (axis cs:9.4,2.4173964136026);
\draw[draw=none,fill=color0] (axis cs:9.6,0) rectangle (axis cs:10.4,2.39061161325852);
\draw[draw=none,fill=color0] (axis cs:10.6,0) rectangle (axis cs:11.4,2.45406298592429);
\draw[draw=none,fill=color0] (axis cs:11.6,0) rectangle (axis cs:12.4,2.48716442198921);
\draw[draw=none,fill=color0] (axis cs:12.6,0) rectangle (axis cs:13.4,2.46249538700674);
\draw[draw=none,fill=color0] (axis cs:13.6,0) rectangle (axis cs:14.4,2.52549121302925);
\draw[draw=none,fill=color0] (axis cs:14.6,0) rectangle (axis cs:15.4,2.55901425710993);
\draw[draw=none,fill=color0] (axis cs:15.6,0) rectangle (axis cs:16.4,2.53643955989922);
\draw[draw=none,fill=color0] (axis cs:16.6,0) rectangle (axis cs:17.4,2.59903320026828);
\draw[draw=none,fill=color0] (axis cs:17.6,0) rectangle (axis cs:18.4,2.63300597289869);
\draw[draw=none,fill=color0] (axis cs:18.6,0) rectangle (axis cs:19.4,2.61250599376342);
\draw[draw=none,fill=color0] (axis cs:19.6,0) rectangle (axis cs:20.4,2.67475040246523);
\end{axis}

\end{tikzpicture}

