% This file was created by tikzplotlib v0.9.4.
\begin{tikzpicture}

\definecolor{color0}{rgb}{0.12156862745098,0.466666666666667,0.705882352941177}
\definecolor{color1}{rgb}{1,0.498039215686275,0.0549019607843137}
\definecolor{color2}{rgb}{0.172549019607843,0.627450980392157,0.172549019607843}
\definecolor{color3}{rgb}{0.83921568627451,0.152941176470588,0.156862745098039}
\definecolor{color4}{rgb}{0.580392156862745,0.403921568627451,0.741176470588235}

\begin{axis}[
height=7cm,
legend cell align={left},
legend columns=2,
legend style={fill opacity=1, draw opacity=1, text opacity=1, at={(1,1.05)}, anchor=south east, draw=white!80!black},
tick align=outside,
tick pos=left,
width=10cm,
x grid style={white!69.0196078431373!black},
xlabel={\(\displaystyle N_{\textup{СВ}}\)},
xmajorgrids,
xmin=4.75, xmax=32.25,
xtick style={color=black},
y grid style={white!69.0196078431373!black},
ylabel={\(\displaystyle \chi\)},
ymajorgrids,
ymin=1.43930656800903, ymax=5.37130982430812,
ytick style={color=black}
]
\addplot [semithick, color0, mark=*, mark size=3, mark options={solid}]
table {%
6 1.61803398874989
7 1.61803398874989
8 1.61803398874989
9 1.61803398874989
10 1.61803398874989
11 1.61803398874989
12 1.61803398874989
13 1.61803398874989
14 1.61803398874989
15 1.61803398874989
16 1.61803398874989
17 1.61803398874989
18 nan
19 nan
20 nan
21 nan
22 nan
23 nan
24 nan
25 nan
26 nan
27 nan
28 nan
29 nan
30 nan
31 nan
32 nan
33 nan
34 nan
35 nan
36 nan
37 nan
38 nan
39 nan
40 nan
41 nan
42 nan
43 nan
44 nan
45 nan
46 nan
47 nan
48 nan
49 nan
50 nan
51 nan
52 nan
53 nan
54 nan
55 nan
56 nan
57 nan
58 nan
59 nan
60 nan
61 nan
62 nan
63 nan
64 nan
65 nan
66 nan
67 nan
68 nan
69 nan
70 nan
71 nan
72 nan
73 nan
74 nan
75 nan
76 nan
77 nan
78 nan
79 nan
80 nan
81 nan
82 nan
83 nan
84 nan
85 nan
86 nan
87 nan
88 nan
89 nan
90 nan
91 nan
92 nan
93 nan
94 nan
95 nan
96 nan
97 nan
98 nan
99 nan
};
\addlegendentry{$I_{\textup{п}}$ = 0,1 А}
\addplot [semithick, color1, mark=triangle*, mark size=3, mark options={solid,rotate=180}]
table {%
6 2.4142135623731
7 2.4142135623731
8 2.4142135623731
9 2.4142135623731
10 2.4142135623731
11 2.4142135623731
12 2.4142135623731
13 2.4142135623731
14 2.4142135623731
15 2.4142135623731
16 2.4142135623731
17 2.4142135623731
18 2.4142135623731
19 2.4142135623731
20 2.4142135623731
21 2.4142135623731
22 2.4142135623731
23 nan
24 nan
25 nan
26 nan
27 nan
28 nan
29 nan
30 nan
31 nan
32 nan
33 nan
34 nan
35 nan
36 nan
37 nan
38 nan
39 nan
40 nan
41 nan
42 nan
43 nan
44 nan
45 nan
46 nan
47 nan
48 nan
49 nan
50 nan
51 nan
52 nan
53 nan
54 nan
55 nan
56 nan
57 nan
58 nan
59 nan
60 nan
61 nan
62 nan
63 nan
64 nan
65 nan
66 nan
67 nan
68 nan
69 nan
70 nan
71 nan
72 nan
73 nan
74 nan
75 nan
76 nan
77 nan
78 nan
79 nan
80 nan
81 nan
82 nan
83 nan
84 nan
85 nan
86 nan
87 nan
88 nan
89 nan
90 nan
91 nan
92 nan
93 nan
94 nan
95 nan
96 nan
97 nan
98 nan
99 nan
};
\addlegendentry{$I_{\textup{п}}$ = 0,2 А}
\addplot [semithick, color2, mark=square*, mark size=3, mark options={solid}]
table {%
6 3.30277563773199
7 3.30277563773199
8 3.30277563773199
9 3.30277563773199
10 3.30277563773199
11 3.30277563773199
12 3.30277563773199
13 3.30277563773199
14 3.30277563773199
15 3.30277563773199
16 3.30277563773199
17 3.30277563773199
18 3.30277563773199
19 3.30277563773199
20 3.30277563773199
21 3.30277563773199
22 3.30277563773199
23 3.30277563773199
24 3.30277563773199
25 3.30277563773199
26 nan
27 nan
28 nan
29 nan
30 nan
31 nan
32 nan
33 nan
34 nan
35 nan
36 nan
37 nan
38 nan
39 nan
40 nan
41 nan
42 nan
43 nan
44 nan
45 nan
46 nan
47 nan
48 nan
49 nan
50 nan
51 nan
52 nan
53 nan
54 nan
55 nan
56 nan
57 nan
58 nan
59 nan
60 nan
61 nan
62 nan
63 nan
64 nan
65 nan
66 nan
67 nan
68 nan
69 nan
70 nan
71 nan
72 nan
73 nan
74 nan
75 nan
76 nan
77 nan
78 nan
79 nan
80 nan
81 nan
82 nan
83 nan
84 nan
85 nan
86 nan
87 nan
88 nan
89 nan
90 nan
91 nan
92 nan
93 nan
94 nan
95 nan
96 nan
97 nan
98 nan
99 nan
};
\addlegendentry{$I_{\textup{п}}$ = 0,3 А}
\addplot [semithick, color3, mark=diamond*, mark size=3, mark options={solid}]
table {%
6 4.23606797749979
7 4.23606797749979
8 4.23606797749979
9 4.23606797749979
10 4.23606797749979
11 4.23606797749979
12 4.23606797749979
13 4.23606797749979
14 4.23606797749979
15 4.23606797749979
16 4.23606797749979
17 4.23606797749979
18 4.23606797749979
19 4.23606797749979
20 4.23606797749979
21 4.23606797749979
22 4.23606797749979
23 4.23606797749979
24 4.23606797749979
25 4.23606797749979
26 4.23606797749979
27 4.23606797749979
28 4.23606797749979
29 4.23606797749979
30 4.23606797749979
31 nan
32 nan
33 nan
34 nan
35 nan
36 nan
37 nan
38 nan
39 nan
40 nan
41 nan
42 nan
43 nan
44 nan
45 nan
46 nan
47 nan
48 nan
49 nan
50 nan
51 nan
52 nan
53 nan
54 nan
55 nan
56 nan
57 nan
58 nan
59 nan
60 nan
61 nan
62 nan
63 nan
64 nan
65 nan
66 nan
67 nan
68 nan
69 nan
70 nan
71 nan
72 nan
73 nan
74 nan
75 nan
76 nan
77 nan
78 nan
79 nan
80 nan
81 nan
82 nan
83 nan
84 nan
85 nan
86 nan
87 nan
88 nan
89 nan
90 nan
91 nan
92 nan
93 nan
94 nan
95 nan
96 nan
97 nan
98 nan
99 nan
};
\addlegendentry{$I_{\textup{п}}$ = 0,4 А}
\addplot [semithick, color4, mark=triangle*, mark size=3, mark options={solid}]
table {%
6 5.19258240356725
7 5.19258240356725
8 5.19258240356725
9 5.19258240356725
10 5.19258240356725
11 5.19258240356725
12 5.19258240356725
13 5.19258240356725
14 5.19258240356725
15 5.19258240356725
16 5.19258240356725
17 5.19258240356725
18 5.19258240356725
19 5.19258240356725
20 5.19258240356725
21 5.19258240356725
22 5.19258240356725
23 5.19258240356725
24 5.19258240356725
25 5.19258240356725
26 5.19258240356725
27 5.19258240356725
28 5.19258240356725
29 5.19258240356725
30 5.19258240356725
31 5.19258240356725
32 nan
33 nan
34 nan
35 nan
36 nan
37 nan
38 nan
39 nan
40 nan
41 nan
42 nan
43 nan
44 nan
45 nan
46 nan
47 nan
48 nan
49 nan
50 nan
51 nan
52 nan
53 nan
54 nan
55 nan
56 nan
57 nan
58 nan
59 nan
60 nan
61 nan
62 nan
63 nan
64 nan
65 nan
66 nan
67 nan
68 nan
69 nan
70 nan
71 nan
72 nan
73 nan
74 nan
75 nan
76 nan
77 nan
78 nan
79 nan
80 nan
81 nan
82 nan
83 nan
84 nan
85 nan
86 nan
87 nan
88 nan
89 nan
90 nan
91 nan
92 nan
93 nan
94 nan
95 nan
96 nan
97 nan
98 nan
99 nan
};
\addlegendentry{$I_{\textup{п}}$ = 0,5 А}
\end{axis}

\end{tikzpicture}

