% This file was created by tikzplotlib v0.9.4.
\begin{tikzpicture}
\tikzstyle{every node}=[font=\footnotesize]

\definecolor{color0}{rgb}{0.12156862745098,0.466666666666667,0.705882352941177}
\definecolor{color1}{rgb}{1,0.498039215686275,0.0549019607843137}
\definecolor{color2}{rgb}{0.172549019607843,0.627450980392157,0.172549019607843}
\definecolor{color3}{rgb}{0.83921568627451,0.152941176470588,0.156862745098039}
\definecolor{color4}{rgb}{0.580392156862745,0.403921568627451,0.741176470588235}

\begin{axis}[
height=3.8cm,
tick align=outside,
tick pos=left,
width=4.8cm,
x grid style={white!69.0196078431373!black},
xlabel={\(\displaystyle N_{\textup{СВ}}\)},
xmajorgrids,
xmin=2.3, xmax=17.7,
xtick style={color=black},
y grid style={white!69.0196078431373!black},
ylabel={\(\displaystyle {P_{\textup{ВХ}}^{\textup{СВ}}}/{P_{\textup{ВЫХ}}^{\textup{БВ}}}, \si{\dB}\)},
ymajorgrids,
ymin=0.726849909855836, ymax=5.78417290034207,
ytick style={color=black}
]
\addplot [semithick, color0, mark=*, mark size=1.5, mark options={solid}]
table {%
3 3.75257750656428
4 2.96885340324044
5 2.43653150394453
6 2.05679626669478
7 1.77804186933406
8 1.57017730660015
9 1.41427200522914
10 1.29773238332518
11 1.21181269387207
12 0.993466108835026
13 0.95672822760521
14 nan
15 nan
16 nan
17 nan
18 nan
19 nan
20 nan
21 nan
22 nan
23 nan
24 nan
25 nan
};
\addplot [semithick, color1, mark=triangle*, mark size=1.5, mark options={solid,rotate=180}]
table {%
3 4.21536130997388
4 3.31217845938668
5 2.98333312657059
6 2.77451771465279
7 2.37863930750196
8 2.06186280224205
9 2.04888342935937
10 1.82823060757717
11 1.6438536019262
12 1.7051051881004
13 1.56800505689868
14 1.45118989942083
15 1.35145663828716
16 nan
17 nan
18 nan
19 nan
20 nan
21 nan
22 nan
23 nan
24 nan
25 nan
};
\addplot [semithick, color2, mark=square*, mark size=1.5, mark options={solid}]
table {%
3 4.47180376225545
4 3.64984215600422
5 3.08032054617013
6 3.01892312122971
7 2.68595429958555
8 2.42633917036642
9 2.22067457758801
10 2.05599397307594
11 1.9232532384175
12 1.8159259952788
13 1.72917039155694
14 1.65931053724171
15 1.6035007644234
16 1.55950094308827
17 nan
18 nan
19 nan
20 nan
21 nan
22 nan
23 nan
24 nan
25 nan
};
\addplot [semithick, color3, mark=diamond*, mark size=1.5, mark options={solid}]
table {%
3 5.55429458259269
4 4.74494467194699
5 4.18687572021967
6 3.7811931051678
7 3.47623347908521
8 3.24186319043752
9 3.05911953744931
10 2.9153843968977
11 2.80189305005962
12 2.71234591421175
13 2.36472485161963
14 2.32024043226307
15 2.28796326376563
16 2.26586675466982
17 2.00257736744632
18 nan
19 nan
20 nan
21 nan
22 nan
23 nan
24 nan
25 nan
};
\addplot [semithick, color4, mark=triangle*, mark size=1.5, mark options={solid}]
table {%
3 5.55351806006005
4 4.79659277113007
5 4.2837915804962
6 3.91773944325894
7 3.64788145105921
8 3.06796198128234
9 2.9333868591331
10 2.83292535899613
11 2.75859153145366
12 2.70470313476101
13 2.35708207216889
14 2.34525357455479
15 2.34303275797434
16 2.0627455219719
17 2.085435062885
18 nan
19 nan
20 nan
21 nan
22 nan
23 nan
24 nan
25 nan
};
\end{axis}

\end{tikzpicture}

