% This file was created by tikzplotlib v0.9.4.
\begin{tikzpicture}

\definecolor{color0}{rgb}{0.12156862745098,0.466666666666667,0.705882352941177}
\definecolor{color1}{rgb}{1,0.498039215686275,0.0549019607843137}
\definecolor{color2}{rgb}{0.172549019607843,0.627450980392157,0.172549019607843}
\definecolor{color3}{rgb}{0.83921568627451,0.152941176470588,0.156862745098039}
\definecolor{color4}{rgb}{0.580392156862745,0.403921568627451,0.741176470588235}

\begin{axis}[
height=7cm,
legend cell align={left},
legend columns=2,
legend style={fill opacity=1, draw opacity=1, text opacity=1, at={(1,1.05)}, anchor=south east, draw=white!80!black},
tick align=outside,
tick pos=left,
width=10cm,
x grid style={white!69.0196078431373!black},
xlabel={L, \si{\m}},
xmajorgrids,
xmin=-0.197, xmax=5.237,
xtick style={color=black},
y grid style={white!69.0196078431373!black},
ylabel={\(\displaystyle \eta, \si{\percent}\)},
ymajorgrids,
ymin=1.48929365733122, ymax=79.5396423818051,
ytick style={color=black}
]
\addplot [semithick, color0]
table {%
0.12 5.03703678117094
0.13 5.44261072325116
0.14 5.84603367160897
0.15 6.24731206955571
0.16 6.64645234110183
0.17 7.04346089101453
0.18 7.43834410487559
0.19 7.83110834913869
0.2 8.22175997118678
0.21 8.61030529938922
0.22 8.99675064315869
0.23 9.38110229300799
0.24 9.7633665206067
0.25 10.1435495788375
0.26 10.5216577018527
0.27 10.89769710513
0.28 11.2716739855286
0.29 11.6435945213452
0.3 12.0134648723692
0.31 12.3812911799383
0.32 12.7470795669939
0.33 13.1108361381361
0.34 13.4725669796785
0.35 13.8322781597033
0.36 14.1899757281157
0.37 14.5456657166983
0.38 14.8993541391655
0.39 15.2510469912176
0.4 15.6007502505947
0.41 15.9484698771307
0.42 16.2942118128066
0.43 16.6379819818044
0.44 16.9797862905599
0.45 17.3196306278164
0.46 17.6575208646772
0.47 17.993462854659
0.48 18.327462433744
0.49 18.6595254204328
0.5 18.9896576157966
0.51 19.3178648035295
0.52 19.6441527500006
0.53 19.9685272043056
0.54 20.2909938983189
0.55 20.6115585467451
0.56 20.9302268471703
0.57 21.2470044801134
0.58 21.5618971090775
0.59 21.8749103806003
0.6 22.1860499243056
0.61 22.4953213529534
0.62 22.8027302624908
0.63 23.1082822321023
0.64 23.4119828242596
0.65 23.7138375847722
0.66 24.0138520428372
0.67 24.3120317110889
0.68 24.6083820856483
0.69 24.9029086461729
0.7 25.195616855906
0.71 25.4865121617253
0.72 25.7755999941929
0.73 26.0628857676031
0.74 26.3483748800321
0.75 26.6320727133859
0.76 26.913984633449
0.77 27.1941159899327
0.78 27.4724721165232
0.79 27.7490583309296
0.8 28.0238799349319
0.81 28.2969422144285
0.82 28.5682504394837
0.83 28.8378098643756
0.84 29.105625727643
0.85 29.3717032521325
0.86 29.6360476450457
0.87 29.8986640979861
0.88 30.1595577870056
0.89 30.4187338726514
0.9 30.6761975000119
0.91 30.9319537987638
0.92 31.1860078832176
0.93 31.4383648523637
0.94 31.6890297899189
0.95 31.9380077643713
0.96 32.1853038290264
0.97 32.4309230220527
0.98 32.6748703665266
0.99 32.917150870478
1 33.1577695269351
1.01 33.3967313139697
1.02 33.6340411947415
1.03 33.8697041175432
1.04 34.1037250158447
1.05 34.3361088083379
1.06 34.5668603989805
1.07 34.7959846770405
1.08 35.0234865171402
1.09 35.2493707792996
1.1 35.4736423089808
1.11 35.6963059371312
1.12 35.917366480227
1.13 36.1368287403168
1.14 36.3546975050644
1.15 36.5709775477924
1.16 36.7856736275246
1.17 36.9987904890294
1.18 37.2103328628621
1.19 37.4203054654075
1.2 37.6287129989227
1.21 37.8355601515788
1.22 38.0408515975039
1.23 38.2445919968244
1.24 38.4467859957074
1.25 38.6474382264023
1.26 38.8465533072827
1.27 39.0441358428878
1.28 39.2401904239639
1.29 39.4347216275056
1.3 39.6277340167971
1.31 39.8192321414534
1.32 40.009220537461
1.33 40.1977037272189
1.34 40.3846862195791
1.35 40.5701725098875
1.36 40.7541670800239
1.37 40.936674398443
1.38 41.1176989202139
1.39 41.2972450870607
1.4 41.4753173274021
1.41 41.6519200563916
1.42 41.8270576759571
1.43 42.0007345748405
1.44 42.1729551286372
1.45 42.3437236998353
1.46 42.5130446378553
1.47 42.680922279089
1.48 42.8473609469382
1.49 43.0123649518543
1.5 43.1759385913765
1.51 43.3380861501708
1.52 43.4988119000683
1.53 43.6581201001042
1.54 43.8160149965553
1.55 43.9725008229789
1.56 44.1275818002506
1.57 44.2812621366024
1.58 44.4335460276603
1.59 44.5844376564827
1.6 44.7339411935972
1.61 44.8820607970388
1.62 45.0288006123871
1.63 45.1741647728034
1.64 45.3181573990684
1.65 45.4607825996188
1.66 45.6020444705843
1.67 45.741947095825
1.68 45.8804945469675
1.69 46.0176908834419
1.7 46.1535401525183
1.71 46.2880463893431
1.72 46.4212136169754
1.73 46.5530458464234
1.74 46.6835470766801
1.75 46.8127212947596
1.76 46.9405724757327
1.77 47.0671045827631
1.78 47.1923215671428
1.79 47.3162273683276
1.8 47.4388259139725
1.81 47.5601211199674
1.82 47.6801168904722
1.83 47.7988171179516
1.84 47.9162256832108
1.85 48.0323464554295
1.86 48.1471832921977
1.87 48.2607400395498
1.88 48.3730205319993
1.89 48.4840285925737
1.9 48.5937680328483
1.91 48.7022426529808
1.92 48.8094562417458
1.93 48.9154125765684
1.94 49.0201154235583
1.95 49.1235685375441
1.96 49.2257756621065
1.97 49.3267405296125
1.98 49.4264668612488
1.99 49.5249583670549
2 49.6222187459574
2.01 49.7182516858023
2.02 49.8130608633889
2.03 49.9066499445025
2.04 49.9990225839476
2.05 50.0901824255808
2.06 50.1801331023431
2.07 50.2688782362936
2.08 50.356421438641
2.09 50.442766309777
2.1 50.5279164393081
2.11 50.611875406088
2.12 50.6946467782502
2.13 50.7762341132398
2.14 50.8566409578453
2.15 50.935870848231
2.16 51.0139273099686
2.17 51.0908138580689
2.18 51.1665339970135
2.19 51.2410912207861
2.2 51.3144890129045
2.21 51.3867308464513
2.22 51.4578201841058
2.23 51.5277604781744
2.24 51.5965551706224
2.25 51.6642076931047
2.26 51.7307214669965
2.27 51.7960999034243
2.28 51.8603464032966
2.29 51.9234643573344
2.3 51.985457146102
2.31 52.0463281400368
2.32 52.1060806994803
2.33 52.1647181747082
2.34 52.2222439059602
2.35 52.2786612234703
2.36 52.3339734474969
2.37 52.3881838883526
2.38 52.4412958464337
2.39 52.4933126122504
2.4 52.5442374664559
2.41 52.5940736798765
2.42 52.6428245135405
2.43 52.6904932187079
2.44 52.7370830368994
2.45 52.7825971999258
2.46 52.827038929917
2.47 52.8704114393509
2.48 52.9127179310827
2.49 52.953961598373
2.5 52.9941456249173
2.51 53.0332731848742
2.52 53.0713474428941
2.53 53.1083715541478
2.54 53.1443486643544
2.55 53.1792819098105
2.56 53.2131744174175
2.57 53.2460293047104
2.58 53.2778496798855
2.59 53.3086386418285
2.6 53.3383992801423
2.61 53.367134675175
2.62 53.3948478980475
2.63 53.4215420106811
2.64 53.4472200658251
2.65 53.4718851070842
2.66 53.4955401689461
2.67 53.5181882768086
2.68 53.539832447007
2.69 53.5604756868411
2.7 53.5801209946022
2.71 53.5987713596004
2.72 53.6164297621911
2.73 53.6330991738024
2.74 53.6487825569609
2.75 53.6634828653195
2.76 53.6772030436831
2.77 53.6899460280356
2.78 53.7017147455659
2.79 53.7125121146948
2.8 53.7223410451006
2.81 53.7312044377461
2.82 53.7391051849038
2.83 53.7460461701827
2.84 53.7520302685538
2.85 53.757060346376
2.86 53.7611392614224
2.87 53.7642698629053
2.88 53.766454991502
2.89 53.7676974793811
2.9 53.7680001502269
2.91 53.7673658192657
2.92 53.7657972932905
2.93 53.7632973706867
2.94 53.7598688414572
2.95 53.7555144872472
2.96 53.7502370813695
2.97 53.7440393888297
2.98 53.7369241663506
2.99 53.7288941623973
3 53.7199521172016
3.01 53.7101007627874
3.02 53.6993428229945
3.03 53.6876810135034
3.04 53.6751180418598
3.05 53.6616566074991
3.06 53.6472994017703
3.07 53.6320491079607
3.08 53.6159084013196
3.09 53.5988799490826
3.1 53.5809664104956
3.11 53.5621704368388
3.12 53.5424946714504
3.13 53.5219417497506
3.14 53.5005142992649
3.15 53.4782149396484
3.16 53.4550462827086
3.17 53.4310109324296
3.18 53.4061114849953
3.19 53.3803505288126
3.2 53.3537306445347
3.21 53.3262544050847
3.22 53.2979243756783
3.23 53.2687431138472
3.24 53.238713169462
3.25 53.207837084755
3.26 53.1761173943433
3.27 53.1435566252518
3.28 53.1101572969352
3.29 53.0759219213017
3.3 53.0408530027346
3.31 53.0049530381155
3.32 52.9682245168467
3.33 52.9306699208733
3.34 52.8922917247059
3.35 52.8530923954424
3.36 52.8130743927908
3.37 52.7722401690909
3.38 52.7305921693365
3.39 52.6881328311974
3.4 52.6448645850415
3.41 52.6007898539563
3.42 52.5559110537711
3.43 52.5102305930784
3.44 52.4637508732559
3.45 52.416474288488
3.46 52.3684032257872
3.47 52.3195400650156
3.48 52.2698871789066
3.49 52.219446933086
3.5 52.1682216860935
3.51 52.1162137894034
3.52 52.0634255874465
3.53 52.0098594176307
3.54 51.9555176103624
3.55 51.9004024890668
3.56 51.8445163702097
3.57 51.7878615633178
3.58 51.7304403709995
3.59 51.6722550889657
3.6 51.6133080060508
3.61 51.5536014042325
3.62 51.4931375586533
3.63 51.4319187376403
3.64 51.3699472027256
3.65 51.3072252086673
3.66 51.243755003469
3.67 51.1795388284005
3.68 51.114578918018
3.69 51.0488775001841
3.7 50.9824367960875
3.71 50.9152590202635
3.72 50.8473463806139
3.73 50.7787010784266
3.74 50.7093253083954
3.75 50.6392212586401
3.76 50.568391110726
3.77 50.4968370396832
3.78 50.4245612140267
3.79 50.3515657957758
3.8 50.2778529404734
3.81 50.2034247972052
3.82 50.1282835086196
3.83 50.0524312109468
3.84 49.9758700340174
3.85 49.8986021012827
3.86 49.8206295298327
3.87 49.7419544304159
3.88 49.6625789074579
3.89 49.5825050590808
3.9 49.5017349771213
3.91 49.4202707471503
3.92 49.3381144484913
3.93 49.2552681542392
3.94 49.1717339312788
3.95 49.0875138403037
3.96 49.0026099358347
3.97 48.9170242662381
3.98 48.8307588737444
3.99 48.7438157944666
4 48.6561970584186
4.01 48.5679046895332
4.02 48.4789407056806
4.03 48.3893071186865
4.04 48.2990059343501
4.05 48.2080391524622
4.06 48.1164087668233
4.07 48.0241167652614
4.08 47.93116512965
4.09 47.8375558359259
4.1 47.7432908541068
4.11 47.6483721483094
4.12 47.5528016767669
4.13 47.4565813918465
4.14 47.359713240067
4.15 47.2621991621165
4.16 47.1640410928698
4.17 47.0652409614057
4.18 46.9658006910245
4.19 46.8657221992652
4.2 46.7650073979227
4.21 46.6636581930654
4.22 46.5616764850518
4.23 46.4590641685479
4.24 46.3558231325442
4.25 46.251955260373
4.26 46.1474624297247
4.27 46.0423465126653
4.28 45.9366093756529
4.29 45.8302528795547
4.3 45.7232788796637
4.31 45.6156892257151
4.32 45.5074857619035
4.33 45.3986703268991
4.34 45.2892447538644
4.35 45.1792108704705
4.36 45.068570498914
4.37 44.9573254559328
4.38 44.8454775528228
4.39 44.7330285954543
4.4 44.6199803842881
4.41 44.5063347143915
4.42 44.3920933754551
4.43 44.2772581518078
4.44 44.1618308224342
4.45 44.0458131609895
4.46 43.9292069358162
4.47 43.8120139099596
4.48 43.6942358411837
4.49 43.5758744819872
4.5 43.4569315796192
4.51 43.3374088760949
4.52 43.2173081082112
4.53 43.0966310075626
4.54 42.9753793005564
4.55 42.8535547084287
4.56 42.7311589472592
4.57 42.6081937279875
4.58 42.4846607564279
4.59 42.3605617332848
4.6 42.2358983541684
4.61 42.1106723096095
4.62 41.984885285075
4.63 41.8585389609829
4.64 41.7316350127175
4.65 41.6041751106446
4.66 41.4761609201264
4.67 41.3475941015362
4.68 41.2184763102741
4.69 41.0888091967811
4.7 40.9585944065544
4.71 40.8278335801622
4.72 40.6965283532582
4.73 40.5646803565967
4.74 40.4322912160468
4.75 40.2993625526076
4.76 40.1658959824222
4.77 40.0318931167928
4.78 39.8973555621947
4.79 39.7622849202912
4.8 39.6266827879477
4.81 39.4905507572461
4.82 39.3538904154995
4.83 39.2167033452659
4.84 39.0789911243628
4.85 38.9407553258816
4.86 38.8019975182011
4.87 38.6627192650022
4.88 38.5229221252818
4.89 38.382607653367
4.9 38.2417773989284
4.91 38.1004329069951
4.92 37.9585757179678
4.93 37.816207367633
4.94 37.6733293871765
4.95 37.5299433031977
4.96 37.3860506377231
4.97 37.2416529082197
4.98 37.0967516276091
4.99 36.951348304281
};
\addlegendentry{$I_{\textup{п}}$ = 0,1 А}
\addplot [semithick, color1]
table {%
0.08 5.56760932052295
0.09 6.24278006511964
0.1 6.91337896718587
0.11 7.57941972169647
0.12 8.24091598260293
0.13 8.89788136295635
0.14 9.55032943502976
0.15 10.1982737304403
0.16 10.8417277402715
0.17 11.4807049151937
0.18 12.1152186655862
0.19 12.7452823616572
0.2 13.3709093335643
0.21 13.9921128715349
0.22 14.6089062259851
0.23 15.2213026076395
0.24 15.82931518765
0.25 16.4329570977139
0.26 17.0322414301929
0.27 17.6271812382301
0.28 18.217789535868
0.29 18.8040792981657
0.3 19.3860634613149
0.31 19.9637549227575
0.32 20.5371665413005
0.33 21.1063111372328
0.34 21.6712014924398
0.35 22.2318503505185
0.36 22.7882704168927
0.37 23.3404743589271
0.38 23.8884748060411
0.39 24.4322843498224
0.4 24.9719155441411
0.41 25.5073809052616
0.42 26.038692911956
0.43 26.5658640056163
0.44 27.0889065903659
0.45 27.607833033172
0.46 28.1226556639561
0.47 28.6333867757058
0.48 29.1400386245845
0.49 29.6426234300427
0.5 30.1411533749272
0.51 30.635640605591
0.52 31.1260972320028
0.53 31.6125353278557
0.54 32.0949669306761
0.55 32.5734040419319
0.56 33.0478586271406
0.57 33.5183426159768
0.58 33.9848679023797
0.59 34.4474463446605
0.6 34.9060897656082
0.61 35.3608099525972
0.62 35.8116186576923
0.63 36.258527597755
0.64 36.7015484545492
0.65 37.1406928748457
0.66 37.5759724705275
0.67 38.0073988186942
0.68 38.4349834617658
0.69 38.8587379075875
0.7 39.2786736295322
0.71 39.6948020666044
0.72 40.1071346235432
0.73 40.5156826709245
0.74 40.9204575452637
0.75 41.3214705491177
0.76 41.7187329511864
0.77 42.1122559864143
0.78 42.5020508560916
0.79 42.888128727955
0.8 43.2705007362881
0.81 43.6491779820219
0.82 44.0241715328342
0.83 44.3954924232499
0.84 44.7631516547395
0.85 45.127160195819
0.86 45.4875289821478
0.87 45.8442689166276
0.88 46.1973908695006
0.89 46.5469056784468
0.9 46.8928241486822
0.91 47.2351570530554
0.92 47.5739151321452
0.93 47.9091090943567
0.94 48.2407496160182
0.95 48.5688473414768
0.96 48.8934128831944
0.97 49.2144568218432
0.98 49.5319897064011
0.99 49.8460220542465
1 50.1565643512528
1.01 50.463627051883
1.02 50.7672205792837
1.03 51.0673553253788
1.04 51.3640416509633
1.05 51.6572898857965
1.06 51.9471103286945
1.07 52.2335132476236
1.08 52.5165088797921
1.09 52.7961074317429
1.1 53.072319079445
1.11 53.3451539683853
1.12 53.6146222136601
1.13 53.8807339000652
1.14 54.1434990821882
1.15 54.4029277844974
1.16 54.6590300014334
1.17 54.9118156974978
1.18 55.1612948073439
1.19 55.4074772358657
1.2 55.6503728582868
1.21 55.8899915202496
1.22 56.126343037904
1.23 56.3594371979956
1.24 56.5892837579533
1.25 56.815892445978
1.26 57.0392729611299
1.27 57.2594349734151
1.28 57.4763881238734
1.29 57.6901420246649
1.3 57.9007062591564
1.31 58.1080903820076
1.32 58.3123039192573
1.33 58.5133563684087
1.34 58.7112571985157
1.35 58.9060158502671
1.36 59.0976417360724
1.37 59.286144240146
1.38 59.4715327185921
1.39 59.6538164994883
1.4 59.8330048829701
1.41 60.0091071413144
1.42 60.1821325190229
1.43 60.3520902329055
1.44 60.5189894721627
1.45 60.6828393984693
1.46 60.8436491460558
1.47 61.0014278217913
1.48 61.1561845052651
1.49 61.3079282488686
1.5 61.4566680778768
1.51 61.6024129905293
1.52 61.7451719581115
1.53 61.8849539250354
1.54 62.0217678089198
1.55 62.1556225006707
1.56 62.2865268645616
1.57 62.4144897383127
1.58 62.5395199331711
1.59 62.6616262339896
1.6 62.7808173993058
1.61 62.8971021614213
1.62 63.01048922648
1.63 63.1209872745464
1.64 63.2286049596838
1.65 63.3333509100326
1.66 63.435233727887
1.67 63.5342619897732
1.68 63.6304442465268
1.69 63.7237890233686
1.7 63.8143048199827
1.71 63.9020001105919
1.72 63.9868833440347
1.73 64.068962943841
1.74 64.148247308308
1.75 64.2247448105757
1.76 64.2984637987023
1.77 64.3694125957393
1.78 64.4375994998069
1.79 64.5030327841677
1.8 64.5657206973018
1.81 64.6256714629812
1.82 64.6828932803435
1.83 64.7373943239655
1.84 64.7891827439372
1.85 64.8382666659349
1.86 64.8846541912945
1.87 64.9283533970843
1.88 64.9693723361776
1.89 65.0077190373254
1.9 65.0434015052284
1.91 65.0764277206093
1.92 65.1068056402845
1.93 65.1345431972356
1.94 65.1596483006812
1.95 65.1821288361474
1.96 65.2019926655395
1.97 65.2192476272123
1.98 65.2339015360408
1.99 65.2459621834904
2 65.2554373376874
2.01 65.2623347434882
2.02 65.26666212255
2.03 65.2684271733992
2.04 65.2676375715017
2.05 65.2643009693312
2.06 65.2584249964384
2.07 65.2500172595198
2.08 65.2390853424858
2.09 65.2256368065296
2.1 65.2096791901941
2.11 65.191220009441
2.12 65.170266757718
2.13 65.1468269060257
2.14 65.1209079029854
2.15 65.0925171749062
2.16 65.0616621258517
2.17 65.0283501377062
2.18 64.992588570242
2.19 64.9543847611849
2.2 64.9137460262806
2.21 64.8706796593604
2.22 64.8251929324068
2.23 64.7772930956194
2.24 64.7269873774794
2.25 64.6742829848153
2.26 64.6191871028673
2.27 64.5617068953524
2.28 64.5018495045286
2.29 64.439622051259
2.3 64.3750316350766
2.31 64.3080853342471
2.32 64.2387902058338
2.33 64.1671532857603
2.34 64.0931815888738
2.35 64.016882109009
2.36 63.9382618190501
2.37 63.8573276709944
2.38 63.774086596014
2.39 63.688545504519
2.4 63.600711286219
2.41 63.5105908101861
2.42 63.4181909249152
2.43 63.3235184583871
2.44 63.2265802181291
2.45 63.1273829912767
2.46 63.0259335446344
2.47 62.9222386247365
2.48 62.8163049579085
2.49 62.7081392503267
2.5 62.5977481880794
2.51 62.4851384372263
2.52 62.3703166438593
2.53 62.2532894341616
2.54 62.1340634144676
2.55 62.0126451713228
2.56 61.8890412715422
2.57 61.7632582622702
2.58 61.635302671039
2.59 61.5051810058276
2.6 61.3728997551205
2.61 61.2384653879656
2.62 61.101884354033
2.63 60.9631630836727
2.64 60.8223079879724
2.65 60.6793254588156
2.66 60.5342218689389
2.67 60.387003571989
2.68 60.2376769025806
2.69 60.0862481763528
2.7 59.9327236900264
2.71 59.77710972146
2.72 59.6194125297071
2.73 59.4596383550722
2.74 59.2977934191668
2.75 59.1338839249657
2.76 58.9679160568624
2.77 58.7998959807253
2.78 58.6298298439527
2.79 58.4577237755285
2.8 58.2835838860771
2.81 58.1074162679185
2.82 57.9292269951233
2.83 57.749022123567
2.84 57.5668076909846
2.85 57.3825897170254
2.86 57.1963742033064
2.87 57.0081671334672
2.88 56.8179744732228
2.89 56.6258021704184
2.9 56.4316561550821
2.91 56.2355423394788
2.92 56.0374666181629
2.93 55.8374348680318
2.94 55.6354529483787
2.95 55.4315267009451
2.96 55.2256619499735
2.97 55.0178645022602
2.98 54.8081401472069
2.99 54.5964946568731
3 54.3829337860283
3.01 54.1674632722033
3.02 53.9500888357424
3.03 53.7308161798543
3.04 53.5096509906638
3.05 53.2865989372629
3.06 53.0616656717621
3.07 52.8348568293404
3.08 52.6061780282971
3.09 52.3756348701014
3.1 52.1432329394438
3.11 51.9089778042854
3.12 51.6728750159087
3.13 51.4349301089673
3.14 51.1951486015354
3.15 50.9535359951584
3.16 50.710097774901
3.17 50.464839409398
3.18 50.2177663509027
3.19 49.968884035336
3.2 49.7181978823358
3.21 49.4657132953051
3.22 49.211435661461
3.23 48.9553703518835
3.24 48.6975227215633
3.25 48.43789810945
3.26 48.1765018385007
3.27 47.9133392157275
3.28 47.648415532245
3.29 47.3817360633186
3.3 47.1133060684116
3.31 46.8431307912322
3.32 46.5712154597814
3.33 46.2975652863998
3.34 46.0221854678138
3.35 45.7450811851837
3.36 45.4662576041493
3.37 45.1857198748765
3.38 44.9034731321042
3.39 44.61952249519
3.4 44.3338730681564
3.41 44.046529939737
3.42 43.7574981834217
3.43 43.4667828575031
3.44 43.1743890051215
3.45 42.8803216543105
3.46 42.5845858180421
3.47 42.2871864942719
3.48 41.9881286659844
3.49 41.6874173012372
3.5 41.3850573532063
3.51 41.0810537602302
3.52 40.7754114458549
3.53 40.4681353188775
3.54 40.1592302733912
3.55 39.8487011888287
3.56 39.5365529300063
3.57 39.2227903471676
3.58 38.9074182760278
3.59 38.5904415378161
3.6 38.27186493932
3.61 37.9516932729281
3.62 37.6299313166736
3.63 37.3065838342769
3.64 36.9816555751886
3.65 36.6551512746325
3.66 36.3270756536477
3.67 35.9974334191318
3.68 35.6662292638826
3.69 35.3334678666408
3.7 34.9991538921317
3.71 34.6632919911074
3.72 34.3258868003889
3.73 33.9869429429072
3.74 33.6464650277459
3.75 33.3044576501812
3.76 32.9609253917249
3.77 32.6158728201645
3.78 32.2693044896047
3.79 31.9212249405085
3.8 31.5716386997378
3.81 31.2205502805941
3.82 30.8679641828596
3.83 30.5138848928374
3.84 30.1583168833916
3.85 29.8012646139878
3.86 29.4427325307335
3.87 29.0827250664178
3.88 28.7212466405511
3.89 28.3583016594056
3.9 27.9938945160541
3.91 27.62802959041
3.92 27.2607112492668
3.93 26.8919438463372
3.94 26.5217317222922
3.95 26.1500792048004
3.96 25.776990608567
3.97 25.4024702353721
3.98 25.0265223741101
3.99 24.6491513008281
4 24.2703612787638
4.01 23.890156558385
4.02 23.5085413774266
4.03 23.1255199609297
4.04 22.7410965212792
4.05 22.3552752582419
4.06 21.9680603590036
4.07 21.5794559982082
4.08 21.1894663379939
4.09 20.7980955280314
4.1 20.405347705561
4.11 20.0112269954297
4.12 19.6157375101288
4.13 19.2188833498305
4.14 18.8206686024248
4.15 18.4210973435565
4.16 18.0201736366618
4.17 17.6179015330049
4.18 17.2142850717143
4.19 16.8093282798194
4.2 16.4030351722865
4.21 15.9954097520552
4.22 15.586456010074
4.23 15.1761779253367
4.24 14.7645794649182
4.25 14.3516645840097
4.26 13.9374372259545
4.27 13.521901322284
4.28 13.1050607927523
4.29 12.6869195453723
4.3 12.2674814764499
4.31 11.84675047062
4.32 11.4247304008809
4.33 11.0014251286294
4.34 10.5768385036953
4.35 10.1509743643762
4.36 9.72383653747244
4.37 9.29542883832088
4.38 8.86575507082941
4.39 8.43481902751149
4.4 8.00262448952003
4.41 7.5691752266815
4.42 7.1344749975299
4.43 6.69852754934022
4.44 6.26133661816293
4.45 5.82290592885681
4.46 5.38323919512291
};
\addlegendentry{$I_{\textup{п}}$ = 0,2 А}
\addplot [semithick, color2]
table {%
0.06 5.47152543544161
0.07 6.35872837425998
0.08 7.23892537970666
0.09 8.11213743808662
0.1 8.97838547284025
0.11 9.83769034473157
0.12 10.6900728520362
0.13 11.5355537307284
0.14 12.3741536546677
0.15 13.2058932357849
0.16 14.030793024268
0.17 14.8488735087464
0.18 15.6601551164759
0.19 16.4646582135226
0.2 17.2624031049454
0.21 18.0534100349799
0.22 18.8376991872197
0.23 19.6152906847982
0.24 20.3862045905703
0.25 21.1504609072921
0.26 21.9080795778016
0.27 22.659080485198
0.28 23.4034834530202
0.29 24.1413082454262
0.3 24.8725745673697
0.31 25.5973020647786
0.32 26.3155103247312
0.33 27.0272188756327
0.34 27.7324471873907
0.35 28.4312146715907
0.36 29.1235406816707
0.37 29.8094445130954
0.38 30.4889454035299
0.39 31.1620625330125
0.4 31.8288150241282
0.41 32.4892219421795
0.42 33.1433022953592
0.43 33.7910750349209
0.44 34.4325590553495
0.45 35.0677731945313
0.46 35.696736233924
0.47 36.319466898725
0.48 36.9359838580404
0.49 37.5463057250529
0.5 38.1504510571894
0.51 38.748438356288
0.52 39.3402860687642
0.53 39.9260125857773
0.54 40.505636243396
0.55 41.079175322763
0.56 41.6466480502597
0.57 42.2080725976706
0.58 42.7634670823462
0.59 43.3128495673666
0.6 43.8562380617037
0.61 44.3936505203837
0.62 44.9251048446482
0.63 45.4506188821156
0.64 45.9702104269418
0.65 46.48389721998
0.66 46.9916969489408
0.67 47.4936272485513
0.68 47.9897057007132
0.69 48.4799498346621
0.7 48.9643771271243
0.71 49.4430050024746
0.72 49.9158508328932
0.73 50.3829319385216
0.74 50.8442655876188
0.75 51.2998689967166
0.76 51.7497593307749
0.77 52.1939537033355
0.78 52.6324691766769
0.79 53.0653227619669
0.8 53.4925314194169
0.81 53.9141120584336
0.82 54.3300815377714
0.83 54.7404566656843
0.84 55.1452542000775
0.85 55.544490848657
0.86 55.9381832690816
0.87 56.3263480691115
0.88 56.7090018067586
0.89 57.0861609904348
0.9 57.4578420791015
0.91 57.8240614824167
0.92 58.1848355608837
0.93 58.5401806259973
0.94 58.8901129403915
0.95 59.2346487179855
0.96 59.5738041241296
0.97 59.9075952757504
0.98 60.2360382414966
0.99 60.5591490418832
1 60.8769436494352
1.01 61.1894379888323
1.02 61.4966479370518
1.03 61.7985893235108
1.04 62.0952779302101
1.05 62.3867294918749
1.06 62.6729596960972
1.07 62.9539841834767
1.08 63.2298185477617
1.09 63.5004783359891
1.1 63.7659790486249
1.11 64.0263361397031
1.12 64.2815650169654
1.13 64.531681041999
1.14 64.7766995303761
1.15 65.0166357517905
1.16 65.2515049301958
1.17 65.4813222439421
1.18 65.7061028259127
1.19 65.9258617636602
1.2 66.1406140995427
1.21 66.3503748308582
1.22 66.5551589099809
1.23 66.754981244495
1.24 66.9498566973284
1.25 67.1398000868875
1.26 67.3248261871902
1.27 67.5049497279985
1.28 67.6801853949513
1.29 67.8505478296969
1.3 68.0160516300241
1.31 68.1767113499943
1.32 68.3325415000719
1.33 68.4835565472552
1.34 68.6297709152067
1.35 68.7711989843825
1.36 68.9078550921622
1.37 69.0397535329775
1.38 69.1669085584414
1.39 69.2893343774758
1.4 69.4070451564397
1.41 69.520055019257
1.42 69.628378047543
1.43 69.7320282807318
1.44 69.8310197162019
1.45 69.925366309403
1.46 70.0150819739811
1.47 70.1001805819034
1.48 70.1806759635841
1.49 70.2565819080081
1.5 70.3279121628552
1.51 70.3946804346242
1.52 70.4569003887559
1.53 70.5145856497562
1.54 70.5677498013189
1.55 70.6164063864475
1.56 70.6605689075776
1.57 70.7002508266981
1.58 70.7354655654725
1.59 70.7662265053596
1.6 70.7925469877339
1.61 70.814440314006
1.62 70.8319197457417
1.63 70.8449985047822
1.64 70.8536897733621
1.65 70.858006694229
1.66 70.857962370761
1.67 70.8535698670851
1.68 70.8448422081949
1.69 70.831792380067
1.7 70.8144333297791
1.71 70.7927779656253
1.72 70.7668391572334
1.73 70.7366297356796
1.74 70.702162493605
1.75 70.6634501853299
1.76 70.6205055269695
1.77 70.5733411965471
1.78 70.5219698341098
1.79 70.4664040418408
1.8 70.4066563841732
1.81 70.3427393879039
1.82 70.2746655423054
1.83 70.2024472992385
1.84 70.1260970732645
1.85 70.0456272417567
1.86 69.9610501450121
1.87 69.872378086362
1.88 69.7796233322835
1.89 69.6827981125089
1.9 69.5819146201365
1.91 69.4769850117402
1.92 69.3680214074787
1.93 69.2550358912048
1.94 69.1380405105739
1.95 69.0170472771529
1.96 68.8920681665276
1.97 68.7631151184112
1.98 68.6302000367514
1.99 68.4933347898373
2 68.3525312104069
2.01 68.2078010957527
2.02 68.0591562078289
2.03 67.9066082733562
2.04 67.7501689839282
2.05 67.5898499961163
2.06 67.4256629315742
2.07 67.2576193771432
2.08 67.0857308849562
2.09 66.9100089725415
2.1 66.7304651229266
2.11 66.5471107847416
2.12 66.3599573723222
2.13 66.1690162658122
2.14 65.9742988112663
2.15 65.7758163207523
2.16 65.573580072452
2.17 65.3676013107639
2.18 65.1578912464037
2.19 64.9444610565053
2.2 64.7273218847216
2.21 64.5064848413242
2.22 64.2819610033044
2.23 64.0537614144721
2.24 63.8218970855551
2.25 63.5863789942993
2.26 63.3472180855657
2.27 63.1044252714308
2.28 62.8580114312833
2.29 62.607987411923
2.3 62.3543640276581
2.31 62.0971520604022
2.32 61.8363622597717
2.33 61.5720053431828
2.34 61.3040919959474
2.35 61.0326328713692
2.36 60.7576385908403
2.37 60.4791197439366
2.38 60.1970868885119
2.39 59.911550550795
2.4 59.6225212254826
2.41 59.330009375835
2.42 59.0340254337693
2.43 58.734579799954
2.44 58.4316828439023
2.45 58.1253449040654
2.46 57.815576287926
2.47 57.5023872720901
2.48 57.1857881023804
2.49 56.8657889939283
2.5 56.5424001312654
2.51 56.2156316684159
2.52 55.8854937289872
2.53 55.5519964062617
2.54 55.2151497632868
2.55 54.8749638329669
2.56 54.5314486181519
2.57 54.1846140917285
2.58 53.8344701967097
2.59 53.4810268463238
2.6 53.1242939241045
2.61 52.7642812839786
2.62 52.4009987503562
2.63 52.0344561182179
2.64 51.6646631532033
2.65 51.2916295916993
2.66 50.9153651409271
2.67 50.5358794790302
2.68 50.1531822551609
2.69 49.7672830895676
2.7 49.3781915736812
2.71 48.9859172702012
2.72 48.5904697131822
2.73 48.1918584081195
2.74 47.7900928320344
2.75 47.3851824335603
2.76 46.9771366330264
2.77 46.5659648225439
2.78 46.1516763660896
2.79 45.7342805995906
2.8 45.313786831008
2.81 44.890204340421
2.82 44.4635423801103
2.83 44.0338101746414
2.84 43.6010169209471
2.85 43.1651717884116
2.86 42.7262839189513
2.87 42.2843624270987
2.88 41.8394164000829
2.89 41.3914548979129
2.9 40.940486953458
2.91 40.4865215725296
2.92 40.0295677339621
2.93 39.5696343896939
2.94 39.1067304648475
2.95 38.6408648578106
2.96 38.1720464403152
2.97 37.7002840575187
2.98 37.2255865280823
2.99 36.7479626442508
3 36.267421171932
3.01 35.7839708507754
3.02 35.2976203942509
3.03 34.8083784897267
3.04 34.3162537985485
3.05 33.8212549561166
3.06 33.3233905719642
3.07 32.8226692298342
3.08 32.3190994877571
3.09 31.8126898781279
3.1 31.3034489077824
3.11 30.7913850580744
3.12 30.2765067849518
3.13 29.7588225190326
3.14 29.238340665681
3.15 28.7150696050825
3.16 28.1890176923199
3.17 27.6601932574484
3.18 27.1286046055706
3.19 26.5942600169108
3.2 26.0571677468902
3.21 25.5173360262006
3.22 24.9747730608786
3.23 24.4294870323801
3.24 23.881486097653
3.25 23.330778389211
3.26 22.7773720152068
3.27 22.2212750595057
3.28 21.6624955817568
3.29 21.1010416174672
3.3 20.5369211780734
3.31 19.9701422510134
3.32 19.4007127997989
3.33 18.8286407640873
3.34 18.2539340597519
3.35 17.6766005789547
3.36 17.0966481902163
3.37 16.5140847384871
3.38 15.9289180452182
3.39 15.3411559084314
3.4 14.7508061027891
3.41 14.1578763796655
3.42 13.5623744672145
3.43 12.9643080704411
3.44 12.3636848712696
3.45 11.760512528613
3.46 11.154798678442
3.47 10.5465509338539
3.48 9.93577688514094
3.49 9.32248409985819
3.5 8.7066801228926
3.51 8.08837247653005
3.52 7.46756866052358
3.53 6.84427615216026
3.54 6.21850240632971
3.55 5.5902548555897
};
\addlegendentry{$I_{\textup{п}}$ = 0,3 А}
\addplot [semithick, color3]
table {%
0.05 5.20379854805271
0.06 6.21834220337209
0.07 7.22420819191055
0.08 8.22142250765771
0.09 9.21001106673842
0.1 10.1899997076456
0.11 11.1614141914727
0.12 12.1242802021458
0.13 13.0786233466549
0.14 14.0244691552838
0.15 14.9618430818401
0.16 15.890770503885
0.17 16.8112767229605
0.18 17.7233869648182
0.19 18.6271263796454
0.2 19.5225200422921
0.21 20.4095929524966
0.22 21.2883700351102
0.23 22.1588761403218
0.24 23.0211360438814
0.25 23.875174447323
0.26 24.7210159781873
0.27 25.5586851902429
0.28 26.3882065637076
0.29 27.2096045054686
0.3 28.0229033493018
0.31 28.8281273560918
0.32 29.6253007140491
0.33 30.4144475389285
0.34 31.195591874246
0.35 31.9687576914949
0.36 32.7339688903622
0.37 33.4912492989428
0.38 34.2406226739548
0.39 34.9821127009527
0.4 35.7157429945411
0.41 36.4415370985865
0.42 37.1595184864302
0.43 37.8697105610986
0.44 38.5721366555143
0.45 39.266820032706
0.46 39.9537838860181
0.47 40.6330513393191
0.48 41.3046454472098
0.49 41.9685891952309
0.5 42.6249055000697
0.51 43.2736172097666
0.52 43.9147471039206
0.53 44.5483178938941
0.54 45.1743522230179
0.55 45.7928726667941
0.56 46.4039017331003
0.57 47.0074618623913
0.58 47.6035754279014
0.59 48.1922647358461
0.6 48.7735520256221
0.61 49.3474594700082
0.62 49.9140091753645
0.63 50.4732231818313
0.64 51.0251234635276
0.65 51.5697319287488
0.66 52.1070704201641
0.67 52.6371607150126
0.68 53.1600245252997
0.69 53.6756834979924
0.7 54.1841592152143
0.71 54.6854731944391
0.72 55.1796468886855
0.73 55.6667016867091
0.74 56.1466589131956
0.75 56.6195398289524
0.76 57.0853656311001
0.77 57.5441574532634
0.78 57.9959363657608
0.79 58.4407233757948
0.8 58.8785394276407
0.81 59.3094054028351
0.82 59.7333421203638
0.83 60.1503703368493
0.84 60.5605107467376
0.85 60.9637839824842
0.86 61.3602106147403
0.87 61.7498111525374
0.88 62.1326060434721
0.89 62.5086156738901
0.9 62.8778603690699
0.91 63.2403603934054
0.92 63.5961359505885
0.93 63.9452071837907
0.94 64.2875941758446
0.95 64.6233169494248
0.96 64.9523954672276
0.97 65.2748496321509
0.98 65.5906992874737
0.99 65.8999642170343
1 66.2026641454082
1.01 66.4988187380859
1.02 66.7884476016502
1.03 67.0715702839516
1.04 67.3482062742856
1.05 67.6183750035671
1.06 67.8820958445056
1.07 68.1393881117798
1.08 68.3902710622109
1.09 68.6347638949361
1.1 68.8728857515822
1.11 69.1046557164363
1.12 69.3300928166191
1.13 69.5492160222549
1.14 69.7620442466434
1.15 69.9685963464293
1.16 70.1688911217719
1.17 70.3629473165148
1.18 70.5507836183542
1.19 70.7324186590073
1.2 70.9078710143799
1.21 71.0771592047333
1.22 71.2403016948519
1.23 71.3973168942082
1.24 71.5482231571293
1.25 71.6930387829616
1.26 71.8317820162361
1.27 71.9644710468319
1.28 72.0911240101403
1.29 72.2117589872282
1.3 72.3263940050002
1.31 72.4350470363614
1.32 72.5377360003791
1.33 72.6344787624437
1.34 72.7252931344301
1.35 72.8101968748573
1.36 72.8892076890486
1.37 72.9623432292913
1.38 73.0296210949949
1.39 73.0910588328497
1.4 73.1466739369848
1.41 73.196483849126
1.42 73.2405059587518
1.43 73.2787576032508
1.44 73.311256068077
1.45 73.3380185869062
1.46 73.3590623417905
1.47 73.3744044633128
1.48 73.3840620307416
1.49 73.3880520721842
1.5 73.3863915647402
1.51 73.3790974346542
1.52 73.366186557468
1.53 73.347675758173
1.54 73.3235818113611
1.55 73.2939214413755
1.56 73.2587113224622
1.57 73.2179680789188
1.58 73.1717082852451
1.59 73.1199484662919
1.6 73.0627050974095
1.61 72.9999946045966
1.62 72.9318333646472
1.63 72.8582377052992
1.64 72.77922390538
1.65 72.6948081949543
1.66 72.6050067554693
1.67 72.5098357199004
1.68 72.4093111728971
1.69 72.3034491509268
1.7 72.1922656424198
1.71 72.0757765879128
1.72 71.9539978801931
1.73 71.8269453644402
1.74 71.6946348383702
1.75 71.5570820523764
1.76 71.414302709672
1.77 71.2663124664311
1.78 71.1131269319299
1.79 70.9547616686866
1.8 70.7912321926019
1.81 70.6225539730984
1.82 70.4487424332606
1.83 70.2698129499723
1.84 70.0857808540564
1.85 69.8966614304117
1.86 69.7024699181513
1.87 69.5032215107396
1.88 69.2989313561288
1.89 69.0896145568951
1.9 68.8752861703753
1.91 68.6559612088015
1.92 68.4316546394368
1.93 68.2023813847098
1.94 67.9681563223486
1.95 67.7289942855154
1.96 67.4849100629395
1.97 67.2359183990503
1.98 66.9820339941105
1.99 66.7232715043476
2 66.459645542087
2.01 66.191170675882
2.02 65.9178614306466
2.03 65.6397322877847
2.04 65.3567976853213
2.05 65.0690720180324
2.06 64.776569637574
2.07 64.4793048526121
2.08 64.1772919289507
2.09 63.8705450896606
2.1 63.5590785152074
2.11 63.242906343579
2.12 62.9220426704129
2.13 62.596501549123
2.14 62.2662969910262
2.15 61.9314429654686
2.16 61.5919533999506
2.17 61.2478421802532
2.18 60.8991231505621
2.19 60.5458101135931
2.2 60.1879168307155
2.21 59.8254570220765
2.22 59.4584443667246
2.23 59.0868925027326
2.24 58.7108150273203
2.25 58.3302254969773
2.26 57.9451374275841
2.27 57.5555642945351
2.28 57.1615195328581
2.29 56.7630165373372
2.3 56.3600686626317
2.31 55.9526892233973
2.32 55.5408914944054
2.33 55.1246887106629
2.34 54.7040940675311
2.35 54.2791207208443
2.36 53.8497817870291
2.37 53.4160903432213
2.38 52.9780594273838
2.39 52.535702038425
2.4 52.0890311363142
2.41 51.6380596421999
2.42 51.1828004385244
2.43 50.7232663691412
2.44 50.2594702394296
2.45 49.7914248164105
2.46 49.3191428288613
2.47 48.8426369674297
2.48 48.3619198847494
2.49 47.8770041955521
2.5 47.3879024767829
2.51 46.894627267712
2.52 46.3971910700485
2.53 45.8956063480523
2.54 45.3898855286466
2.55 44.8800410015301
2.56 44.3660851192877
2.57 43.8480301975019
2.58 43.3258885148643
2.59 42.7996723132854
2.6 42.2693937980051
2.61 41.7350651377021
2.62 41.1966984646043
2.63 40.6543058745971
2.64 40.1078994273326
2.65 39.5574911463383
2.66 39.0030930191251
2.67 38.4447169972956
2.68 37.8823749966505
2.69 37.3160788972975
2.7 36.7458405437572
2.71 36.1716717450694
2.72 35.5935842749003
2.73 35.0115898716481
2.74 34.4257002385483
2.75 33.8359270437795
2.76 33.242281920568
2.77 32.644776467293
2.78 32.0434222475904
2.79 31.4382307904576
2.8 30.8292135903562
2.81 30.216382107317
2.82 29.5997477670412
2.83 28.979321961005
2.84 28.355116046561
2.85 27.7271413470411
2.86 27.0954091518578
2.87 26.4599307166063
2.88 25.8207172631655
2.89 25.1777799797994
2.9 24.531130021257
2.91 23.8807785088737
2.92 23.2267365306706
2.93 22.5690151414547
2.94 21.9076253629182
2.95 21.2425781837377
2.96 20.5738845596733
2.97 19.9015554136672
2.98 19.2256016359418
2.99 18.5460340840974
3 17.8628635832107
3.01 17.176100925932
3.02 16.4857568725817
3.03 15.791842151248
3.04 15.0943674578825
3.05 14.3933434563979
3.06 13.6887807787625
3.07 12.9806900250966
3.08 12.2690817637678
3.09 11.5539665314861
3.1 10.8353548333987
3.11 10.1132571431847
3.12 9.38768390314917
3.13 8.65864552431739
3.14 7.92615238652798
3.15 7.19021483852726
3.16 6.45084319806117
3.17 5.70804775196909
};
\addlegendentry{$I_{\textup{п}}$ = 0,4 А}
\addplot [semithick, color4]
table {%
0.05 5.98474220282021
0.06 7.14853441144658
0.07 8.30135171403747
0.08 9.44322698597299
0.09 10.5741930041553
0.1 11.694282447303
0.11 12.8035278962456
0.12 13.9019618342164
0.13 14.9896166471452
0.14 16.0665246239497
0.15 17.1327179568254
0.16 18.1882287415368
0.17 19.2330889777047
0.18 20.2673305690953
0.19 21.2909853239068
0.2 22.3040849550556
0.21 23.3066610804622
0.22 24.2987452233354
0.23 25.280368812456
0.24 26.2515631824598
0.25 27.2123595741197
0.26 28.1627891346263
0.27 29.1028829178692
0.28 30.0326718847156
0.29 30.9521869032893
0.3 31.8614587492486
0.31 32.7605181060631
0.32 33.6493955652898
0.33 34.5281216268491
0.34 35.3967266992981
0.35 36.2552411001051
0.36 37.1036950559226
0.37 37.9421187028586
0.38 38.7705420867487
0.39 39.5889951634255
0.4 40.3975077989894
0.41 41.1961097700762
0.42 41.9848307641262
0.43 42.7637003796503
0.44 43.5327481264973
0.45 44.2920034261188
0.46 45.0414956118346
0.47 45.7812539290965
0.48 46.511307535751
0.49 47.2316855023023
0.5 47.9424168121741
0.51 48.6435303619697
0.52 49.3350549617326
0.53 50.0170193352058
0.54 50.6894521200903
0.55 51.3523818683023
0.56 52.005837046231
0.57 52.6498460349945
0.58 53.2844371306946
0.59 53.9096385446724
0.6 54.5254784037618
0.61 55.1319847505425
0.62 55.7291855435927
0.63 56.3171086577402
0.64 56.8957818843142
0.65 57.4652329313942
0.66 58.0254894240606
0.67 58.5765789046424
0.68 59.1185288329654
0.69 59.6513665865996
0.7 60.1751194611055
0.71 60.6898146702789
0.72 61.1954793463973
0.73 61.692140540463
0.74 62.1798252224471
0.75 62.6585602815317
0.76 63.1283725263526
0.77 63.58928868524
0.78 64.0413354064594
0.79 64.484539258451
0.8 64.9189267300695
0.81 65.344524230822
0.82 65.7613580911057
0.83 66.1694545624449
0.84 66.5688398177277
0.85 66.9595399514406
0.86 67.3415809799048
0.87 67.7149888415087
0.88 68.0797893969426
0.89 68.4360084294306
0.9 68.7836716449635
0.91 69.1228046725294
0.92 69.4534330643448
0.93 69.775582296084
0.94 70.0892777671095
0.95 70.3945448006994
0.96 70.6914086442761
0.97 70.9798944696327
0.98 71.2600273731607
0.99 71.5318323760751
1 71.7953344246393
1.01 72.0505583903907
1.02 72.2975290703635
1.03 72.5362711873123
1.04 72.7668093899346
1.05 72.9891682530929
1.06 73.203372278035
1.07 73.4094458926158
1.08 73.6074134515158
1.09 73.7972992364613
1.1 73.9791274564427
1.11 74.1529222479319
1.12 74.3187076751003
1.13 74.4765077300343
1.14 74.6263463329528
1.15 74.7682473324209
1.16 74.9022345055655
1.17 75.0283315582887
1.18 75.146562125482
1.19 75.2569497712381
1.2 75.3595179890634
1.21 75.4542902020893
1.22 75.5412897632834
1.23 75.6205399556594
1.24 75.692063992486
1.25 75.7558850174971
1.26 75.8120261050992
1.27 75.8605102605795
1.28 75.9013604203124
1.29 75.9345994519666
1.3 75.9602501547105
1.31 75.9783352594173
1.32 75.9888774288702
1.33 75.9918992579654
1.34 75.9874232739164
1.35 75.9754719364562
1.36 75.9560676380395
1.37 75.9292327040444
1.38 75.8949893929733
1.39 75.8533598966529
1.4 75.8043663404343
1.41 75.7480307833921
1.42 75.6843752185227
1.43 75.6134215729427
1.44 75.5351917080853
1.45 75.4497074198984
1.46 75.3569904390396
1.47 75.2570624310723
1.48 75.1499449966607
1.49 75.0356596717639
1.5 74.9142279278301
1.51 74.7856711719899
1.52 74.6500107472481
1.53 74.5072679326772
1.54 74.3574639436077
1.55 74.2006199318193
1.56 74.0367569857321
1.57 73.8658961305951
1.58 73.6880583286763
1.59 73.5032644794515
1.6 73.3115354197913
1.61 73.1128919241499
1.62 72.9073547047512
1.63 72.694944411776
1.64 72.4756816335469
1.65 72.2495868967145
1.66 72.0166806664412
1.67 71.7769833465865
1.68 71.5305152798897
1.69 71.2772967481534
1.7 71.017347972426
1.71 70.7506891131834
1.72 70.4773402705114
1.73 70.1973214842851
1.74 69.9106527343506
1.75 69.6173539407039
1.76 69.317444963671
1.77 69.0109456040856
1.78 68.6978756034686
1.79 68.3782546442048
1.8 68.0521023497199
1.81 67.7194382846581
1.82 67.3802819550577
1.83 67.034652808526
1.84 66.6825702344154
1.85 66.3240535639971
1.86 65.9591220706356
1.87 65.5877949699618
1.88 65.2100914200463
1.89 64.8260305215714
1.9 64.4356313180032
1.91 64.0389127957633
1.92 63.6358938843991
1.93 63.2265934567546
1.94 62.8110303291398
1.95 62.389223261501
1.96 61.9611909575885
1.97 61.5269520651254
1.98 61.0865251759757
1.99 60.6399288263113
2 60.1871814967791
2.01 59.7283016126665
2.02 59.2633075440689
2.03 58.7922176060528
2.04 58.3150500588231
2.05 57.8318231078851
2.06 57.3425549042099
2.07 56.8472635443974
2.08 56.3459670708386
2.09 55.8386834718791
2.1 55.3254306819796
2.11 54.8062265818787
2.12 54.2810889987528
2.13 53.7500357063769
2.14 53.2130844252846
2.15 52.6702528229279
2.16 52.1215585138353
2.17 51.5670190597713
2.18 51.0066519698938
2.19 50.4404747009124
2.2 49.8685046572446
2.21 49.2907591911729
2.22 48.7072556030011
2.23 48.1180111412099
2.24 47.523043002612
2.25 46.9223683325072
2.26 46.316004224836
2.27 45.7039677223345
2.28 45.0862758166867
2.29 44.4629454486782
2.3 43.8339935083485
2.31 43.1994368351424
2.32 42.5592922180629
2.33 41.9135763958207
2.34 41.2623060569862
2.35 40.6054978401383
2.36 39.943168334016
2.37 39.2753340776661
2.38 38.6020115605923
2.39 37.9232172229047
2.4 37.2389674554661
2.41 36.5492786000414
2.42 35.8541669494426
2.43 35.1536487476774
2.44 34.447740190094
2.45 33.7364574235273
2.46 33.0198165464449
2.47 32.2978336090906
2.48 31.57052461363
2.49 30.8379055142943
2.5 30.0999922175234
2.51 29.3568005821093
2.52 28.6083464193396
2.53 27.8546454931385
2.54 27.095713520209
2.55 26.3315661701758
2.56 25.5622190657242
2.57 24.7876877827417
2.58 24.0079878504587
2.59 23.2231347515871
2.6 22.433143922461
2.61 21.6380307531741
2.62 20.8378105877197
2.63 20.0324987241277
2.64 19.2221104146026
2.65 18.4066608656611
2.66 17.5861652382686
2.67 16.7606386479761
2.68 15.930096165055
2.69 15.0945528146348
2.7 14.2540235768364
2.71 13.4085233869077
2.72 12.5580671353583
2.73 11.702669668093
2.74 10.8423457865456
2.75 9.97711024781265
2.76 9.1069777647848
2.77 8.23196300628108
2.78 7.3520805971794
2.79 6.46734511854925
2.8 5.57777110778197
};
\addlegendentry{$I_{\textup{п}}$ = 0,5 А}
\end{axis}

\end{tikzpicture}

