% This file was created by tikzplotlib v0.9.4.
\begin{tikzpicture}

\definecolor{color0}{rgb}{0.12156862745098,0.466666666666667,0.705882352941177}
\definecolor{color1}{rgb}{1,0.498039215686275,0.0549019607843137}
\definecolor{color2}{rgb}{0.172549019607843,0.627450980392157,0.172549019607843}
\definecolor{color3}{rgb}{0.83921568627451,0.152941176470588,0.156862745098039}
\definecolor{color4}{rgb}{0.580392156862745,0.403921568627451,0.741176470588235}

\begin{axis}[
height=7cm,
legend cell align={left},
legend style={fill opacity=1, draw opacity=1, text opacity=1, at={(1.02,0)}, anchor=south west, draw=white!80!black},
tick align=outside,
tick pos=left,
width=10cm,
x grid style={white!69.0196078431373!black},
xlabel={\(\displaystyle N_{\textup{СВ}}\)},
xmajorgrids,
xmin=8.6, xmax=17.4,
xtick style={color=black},
y grid style={white!69.0196078431373!black},
ylabel={\(\displaystyle \eta, \si{\percent}\)},
ymajorgrids,
ymin=31.5150293481161, ymax=89.5328041766129,
ytick style={color=black}
]
\addplot [semithick, color0, mark=*, mark size=3, mark options={solid}]
table {%
9 34.3254105590996
10 34.1522009312296
11 35.2426765544936
12 34.922474043637
13 34.5018226826603
14 nan
15 nan
16 nan
17 nan
18 nan
};
\addlegendentry{$I_{\textup{п}}$ = 0,1 А}
\addplot [semithick, color1, mark=triangle*, mark size=3, mark options={solid,rotate=180}]
table {%
9 52.4455011581508
10 53.6079260774736
11 52.5287962059443
12 53.5239421266423
13 54.4622151952859
14 52.9280690618535
15 53.6923059748194
16 nan
17 nan
18 nan
};
\addlegendentry{$I_{\textup{п}}$ = 0,2 А}
\addplot [semithick, color2, mark=square*, mark size=3, mark options={solid}]
table {%
9 62.2380840374515
10 63.1493834013961
11 63.9729497968835
12 64.7079103539485
13 62.3665576998211
14 62.8303762456699
15 63.2020097616202
16 63.480541083404
17 nan
18 nan
};
\addlegendentry{$I_{\textup{п}}$ = 0,3 А}
\addplot [semithick, color3, mark=diamond*, mark size=3, mark options={solid}]
table {%
9 67.7879975773815
10 68.362940438558
11 68.8203870757665
12 69.1591684994387
13 69.3781040895345
14 69.4760014798269
15 69.4516564410387
16 69.303852762814
17 69.0313621345171
18 nan
};
\addlegendentry{$I_{\textup{п}}$ = 0,4 А}
\addplot [semithick, color4, mark=triangle*, mark size=3, mark options={solid}]
table {%
9 68.9765334694328
10 69.1251062477942
11 69.1253135317301
12 68.9756792081426
13 72.5782718855854
14 72.2773051552797
15 71.8235003868513
16 71.2153369691169
17 70.4512791620787
18 nan
};
\addlegendentry{$I_{\textup{п}}$ = 0,5 А}
\addplot [semithick, color0, dashed, forget plot]
table {%
9.04 56.6767987533668
16.96 56.6767987533668
};
\addplot [semithick, color1, dashed, forget plot]
table {%
9.04 75
16.96 75
};
\addplot [semithick, color2, dashed, forget plot]
table {%
9.04 82.7511515935112
16.96 82.7511515935112
};
\addplot [semithick, color3, dashed, forget plot]
table {%
9.04 86.8956325934994
16.96 86.8956325934994
};
\addplot [semithick, color4, dashed, forget plot]
table {%
9.04 89.4520107490539
16.96 89.4520107490539
};
\end{axis}

\end{tikzpicture}

