% This file was created by tikzplotlib v0.9.4.
\begin{tikzpicture}

\definecolor{color0}{rgb}{0.12156862745098,0.466666666666667,0.705882352941177}
\definecolor{color1}{rgb}{1,0.498039215686275,0.0549019607843137}
\definecolor{color2}{rgb}{0.172549019607843,0.627450980392157,0.172549019607843}
\definecolor{color3}{rgb}{0.83921568627451,0.152941176470588,0.156862745098039}
\definecolor{color4}{rgb}{0.580392156862745,0.403921568627451,0.741176470588235}

\begin{axis}[
height=7cm,
legend cell align={left},
legend style={fill opacity=1, draw opacity=1, text opacity=1, at={(1.02,1)}, anchor=north west, draw=white!80!black},
tick align=outside,
tick pos=left,
width=10cm,
x grid style={white!69.0196078431373!black},
xlabel={\(\displaystyle N_{\textup{СВ}}\)},
xmajorgrids,
xmin=2.3, xmax=17.7,
xtick style={color=black},
y grid style={white!69.0196078431373!black},
ylabel={\(\displaystyle \eta, \si{\percent}\)},
ymajorgrids,
ymin=21.5134203698681, ymax=54.5880205824388,
ytick style={color=black}
]
\addplot [semithick, color0, mark=*, mark size=3, mark options={solid}]
table {%
3 31.5894566481477
4 31.8148711024489
5 31.9595643642048
6 32.0219222258841
7 32.0002982001311
8 31.8930128742548
9 31.6983532518114
10 31.4145720810184
11 31.0398871697403
12 31.9176466274388
13 31.4031863402329
14 nan
15 nan
16 nan
17 nan
18 nan
19 nan
20 nan
21 nan
22 nan
23 nan
24 nan
25 nan
};
\addlegendentry{$I_{\textup{п}}$ = 0,1 А}
\addplot [semithick, color1, mark=triangle*, mark size=3, mark options={solid,rotate=180}]
table {%
3 42.4847739734246
4 43.5662837979448
5 42.9813923645725
6 42.220130320948
7 43.0811606767909
8 43.8967703004145
9 42.7721156882653
10 43.4487336957137
11 44.07809622167
12 42.5753699678452
13 43.060126376181
14 43.4957184399118
15 43.8816570147569
16 nan
17 nan
18 nan
19 nan
20 nan
21 nan
22 nan
23 nan
24 nan
25 nan
};
\addlegendentry{$I_{\textup{п}}$ = 0,2 А}
\addplot [semithick, color2, mark=square*, mark size=3, mark options={solid}]
table {%
3 48.0357538740574
4 48.8176796696068
5 49.5324433202484
6 48.0156721167634
7 48.5249134296879
8 48.9642796142166
9 49.3330754710197
10 49.6305988841133
11 49.8561407520437
12 50.008984918389
13 50.0884081015669
14 50.093679823946
15 50.0240623402508
16 49.8788105652547
17 nan
18 nan
19 nan
20 nan
21 nan
22 nan
23 nan
24 nan
25 nan
};
\addlegendentry{$I_{\textup{п}}$ = 0,3 А}
\addplot [semithick, color3, mark=diamond*, mark size=3, mark options={solid}]
table {%
3 47.6811639294052
4 47.9202566464802
5 48.0747518358408
6 48.1438078225461
7 48.1265745576902
8 48.0221935350891
9 47.8297977071372
10 47.5485113998268
11 47.1774502269241
12 46.7157210032881
13 49.2460248631111
14 48.6927255171529
15 48.0469450024224
16 47.3077632083165
17 49.8380670681396
18 nan
19 nan
20 nan
21 nan
22 nan
23 nan
24 nan
25 nan
};
\addlegendentry{$I_{\textup{п}}$ = 0,4 А}
\addplot [semithick, color4, mark=triangle*, mark size=3, mark options={solid}]
table {%
3 50.4678560716834
4 50.4507606010269
5 50.3256076024011
6 50.0913219934017
7 49.7468179954504
8 52.3406847232092
9 51.8848657551349
10 51.3166243256968
11 50.6348419250396
12 49.8383889150654
13 52.4322556428242
14 51.5199911464777
15 50.4907629359268
16 53.0846296636856
17 51.9372740473912
18 nan
19 nan
20 nan
21 nan
22 nan
23 nan
24 nan
25 nan
};
\addlegendentry{$I_{\textup{п}}$ = 0,5 А}
\addplot [semithick, color0, dashed, forget plot]
table {%
3.07 23.0168112886213
16.93 23.0168112886213
};
\addplot [semithick, color1, dashed, forget plot]
table {%
3.07 33.0950855063313
16.93 33.0950855063313
};
\addplot [semithick, color2, dashed, forget plot]
table {%
3.07 37.8491493003149
16.93 37.8491493003149
};
\addplot [semithick, color3, dashed, forget plot]
table {%
3.07 37.7990412071878
16.93 37.7990412071878
};
\addplot [semithick, color4, dashed, forget plot]
table {%
3.07 40.0752936899918
16.93 40.0752936899918
};
\end{axis}

\end{tikzpicture}

