% This file was created by tikzplotlib v0.9.4.
\begin{tikzpicture}

\begin{axis}[
xtick distance=3,
height=5cm,
tick align=outside,
tick pos=left,
width=7cm,
x grid style={white!69.0196078431373!black},
xlabel={\(\displaystyle f, \si{\MHz}\)},
xmajorgrids,
xmin=2850.5, xmax=2861.5,
xtick style={color=black},
y grid style={white!69.0196078431373!black},
ylabel={\(\displaystyle |S_{11}|, \si{\dB}\)},
ymajorgrids,
ymin=-45.3187611308139, ymax=-2.34002801096532,
ytick style={color=black}
]
\path [draw=red, fill=red]
(axis cs:2851,-8.8430583583214)
--(axis cs:2851,-10.8188511193971)
--(axis cs:2851.02,-10.6765535808216)
--(axis cs:2851.04,-9.96285342110029)
--(axis cs:2851.06,-9.01185991642276)
--(axis cs:2851.08,-8.0884795444063)
--(axis cs:2851.1,-7.34764252124384)
--(axis cs:2851.12,-6.72511097073142)
--(axis cs:2851.14,-6.22368637691428)
--(axis cs:2851.16,-5.83332592223306)
--(axis cs:2851.18,-5.54078646313688)
--(axis cs:2851.2,-5.33357957709653)
--(axis cs:2851.22,-5.20136832166175)
--(axis cs:2851.24,-5.13629625547185)
--(axis cs:2851.26,-5.13290784948769)
--(axis cs:2851.28,-5.18796111997246)
--(axis cs:2851.3,-5.3002516318483)
--(axis cs:2851.32,-5.47049682907843)
--(axis cs:2851.34,-5.70130010669579)
--(axis cs:2851.36,-5.99721073351905)
--(axis cs:2851.38,-6.36488514544886)
--(axis cs:2851.4,-6.81338267744913)
--(axis cs:2851.42,-7.35462545559006)
--(axis cs:2851.44,-8.00409156429055)
--(axis cs:2851.46,-8.78186561609395)
--(axis cs:2851.48,-9.71418488820927)
--(axis cs:2851.5,-10.8357230769799)
--(axis cs:2851.52,-12.1925640707136)
--(axis cs:2851.54,-13.9018697392818)
--(axis cs:2851.56,-16.2210926694355)
--(axis cs:2851.58,-19.2629395551585)
--(axis cs:2851.6,-22.9331253882651)
--(axis cs:2851.62,-24.3077767035174)
--(axis cs:2851.64,-21.2519167310123)
--(axis cs:2851.66,-17.9736585741616)
--(axis cs:2851.68,-15.6267550325726)
--(axis cs:2851.7,-13.8450416358394)
--(axis cs:2851.72,-12.4393776607127)
--(axis cs:2851.74,-11.3077596226785)
--(axis cs:2851.76,-10.4040890433237)
--(axis cs:2851.78,-9.66869051308473)
--(axis cs:2851.8,-9.06492236569544)
--(axis cs:2851.82,-8.570021088464)
--(axis cs:2851.84,-8.16661036681176)
--(axis cs:2851.86,-7.84127103716803)
--(axis cs:2851.88,-7.58357999326257)
--(axis cs:2851.9,-7.38541637376516)
--(axis cs:2851.92,-7.24047165445554)
--(axis cs:2851.94,-7.14390439718171)
--(axis cs:2851.96,-7.09207406747201)
--(axis cs:2851.98,-7.08235983305643)
--(axis cs:2852,-7.11301826988338)
--(axis cs:2852.02,-7.18308905749408)
--(axis cs:2852.04,-7.29232377278866)
--(axis cs:2852.06,-7.44116020501529)
--(axis cs:2852.08,-7.63069990486231)
--(axis cs:2852.1,-7.86273484386713)
--(axis cs:2852.12,-8.1397704213863)
--(axis cs:2852.14,-8.46511486373002)
--(axis cs:2852.16,-8.84297691256766)
--(axis cs:2852.18,-9.27864562985552)
--(axis cs:2852.2,-9.7787109376517)
--(axis cs:2852.22,-10.3514255477544)
--(axis cs:2852.24,-11.007197541134)
--(axis cs:2852.26,-11.7593664917301)
--(axis cs:2852.28,-12.6253264821841)
--(axis cs:2852.3,-13.6283649242033)
--(axis cs:2852.32,-14.8005766056075)
--(axis cs:2852.34,-16.1876973666229)
--(axis cs:2852.36,-17.8571856664343)
--(axis cs:2852.38,-19.91071329249)
--(axis cs:2852.4,-22.6365965880759)
--(axis cs:2852.42,-26.9429307872797)
--(axis cs:2852.44,-37.0576436382336)
--(axis cs:2852.46,-39.3244079676687)
--(axis cs:2852.48,-27.2895221050957)
--(axis cs:2852.5,-22.7781612916872)
--(axis cs:2852.52,-19.9997596417275)
--(axis cs:2852.54,-18.1585112339286)
--(axis cs:2852.56,-16.6893591817808)
--(axis cs:2852.58,-15.4890316441863)
--(axis cs:2852.6,-14.4915723650036)
--(axis cs:2852.62,-13.6529417328641)
--(axis cs:2852.64,-12.9424497034793)
--(axis cs:2852.66,-12.3379395395775)
--(axis cs:2852.68,-11.8230169436146)
--(axis cs:2852.7,-11.3852195737565)
--(axis cs:2852.72,-11.0149558613981)
--(axis cs:2852.74,-10.7048443175015)
--(axis cs:2852.76,-10.4491229153054)
--(axis cs:2852.78,-10.2434347793797)
--(axis cs:2852.8,-10.0845630089182)
--(axis cs:2852.82,-9.97035345755737)
--(axis cs:2852.84,-9.89959941706319)
--(axis cs:2852.86,-9.87213469416795)
--(axis cs:2852.88,-9.88870998701557)
--(axis cs:2852.9,-9.95126057266786)
--(axis cs:2852.92,-10.06267113433)
--(axis cs:2852.94,-10.2268398436463)
--(axis cs:2852.96,-10.4479497695975)
--(axis cs:2852.98,-10.7287946382488)
--(axis cs:2853,-11.067046304004)
--(axis cs:2853.02,-11.4485300409489)
--(axis cs:2853.04,-11.8383131393912)
--(axis cs:2853.06,-12.178158492434)
--(axis cs:2853.08,-12.4055224756159)
--(axis cs:2853.1,-12.4953013250895)
--(axis cs:2853.12,-12.48422137996)
--(axis cs:2853.14,-12.444354095628)
--(axis cs:2853.16,-12.4390065692633)
--(axis cs:2853.18,-12.5029881746195)
--(axis cs:2853.2,-12.6474146290224)
--(axis cs:2853.22,-12.8708192400841)
--(axis cs:2853.24,-13.1670154432914)
--(axis cs:2853.26,-13.5291846129518)
--(axis cs:2853.28,-13.9511291237545)
--(axis cs:2853.3,-14.4273568948075)
--(axis cs:2853.32,-14.9525221373201)
--(axis cs:2853.34,-15.5272636403726)
--(axis cs:2853.36,-16.1844143903759)
--(axis cs:2853.38,-16.9660482626859)
--(axis cs:2853.4,-18.0202242609528)
--(axis cs:2853.42,-19.1854039727087)
--(axis cs:2853.44,-20.7158549684102)
--(axis cs:2853.46,-22.44697083833)
--(axis cs:2853.48,-24.4509230471108)
--(axis cs:2853.5,-26.4310000315896)
--(axis cs:2853.52,-27.4328497409863)
--(axis cs:2853.54,-26.6822196995235)
--(axis cs:2853.56,-24.8945012003746)
--(axis cs:2853.58,-22.9678933971302)
--(axis cs:2853.6,-21.2424924606326)
--(axis cs:2853.62,-19.8323777334596)
--(axis cs:2853.64,-18.6139183745287)
--(axis cs:2853.66,-17.560768961163)
--(axis cs:2853.68,-16.6694984793819)
--(axis cs:2853.7,-15.9153141515172)
--(axis cs:2853.72,-15.4369554653028)
--(axis cs:2853.74,-15.0070312678002)
--(axis cs:2853.76,-14.6169240445891)
--(axis cs:2853.78,-14.2648189970982)
--(axis cs:2853.8,-13.982063068569)
--(axis cs:2853.82,-13.7348812999486)
--(axis cs:2853.84,-13.5159069832576)
--(axis cs:2853.86,-13.3238308745111)
--(axis cs:2853.88,-13.1573833047637)
--(axis cs:2853.9,-13.0153525809754)
--(axis cs:2853.92,-12.8966081750389)
--(axis cs:2853.94,-12.8000958643823)
--(axis cs:2853.96,-12.7248467581943)
--(axis cs:2853.98,-12.669963429053)
--(axis cs:2854,-12.6346262662801)
--(axis cs:2854.02,-12.6180711487625)
--(axis cs:2854.04,-12.619590364975)
--(axis cs:2854.06,-12.6385204186393)
--(axis cs:2854.08,-12.6742474736685)
--(axis cs:2854.1,-12.7261577090998)
--(axis cs:2854.12,-12.7936658512099)
--(axis cs:2854.14,-12.8761954280512)
--(axis cs:2854.16,-12.9731393685623)
--(axis cs:2854.18,-13.0838869940321)
--(axis cs:2854.2,-13.2077634847511)
--(axis cs:2854.22,-13.3440684688146)
--(axis cs:2854.24,-13.4920004316424)
--(axis cs:2854.26,-13.6506755595244)
--(axis cs:2854.28,-13.8191028826539)
--(axis cs:2854.3,-13.996166263455)
--(axis cs:2854.32,-14.1805867728138)
--(axis cs:2854.34,-14.3709405564584)
--(axis cs:2854.36,-14.5677799277537)
--(axis cs:2854.38,-14.7744257397575)
--(axis cs:2854.4,-14.9826152774598)
--(axis cs:2854.42,-15.1901510261609)
--(axis cs:2854.44,-15.3946825998509)
--(axis cs:2854.46,-15.60139419228)
--(axis cs:2854.48,-15.8557709866559)
--(axis cs:2854.5,-16.2287350514834)
--(axis cs:2854.52,-16.7271318744526)
--(axis cs:2854.54,-17.3253806683505)
--(axis cs:2854.56,-17.9493916779282)
--(axis cs:2854.58,-18.5911827693591)
--(axis cs:2854.6,-19.2375974630746)
--(axis cs:2854.62,-19.8686604103698)
--(axis cs:2854.64,-20.4557896691217)
--(axis cs:2854.66,-20.962302565076)
--(axis cs:2854.68,-21.3469395343399)
--(axis cs:2854.7,-21.5723096402322)
--(axis cs:2854.72,-21.6163118522559)
--(axis cs:2854.74,-21.4800128967929)
--(axis cs:2854.76,-21.1874710480837)
--(axis cs:2854.78,-20.7767329905762)
--(axis cs:2854.8,-20.2887670826504)
--(axis cs:2854.82,-19.7595939355473)
--(axis cs:2854.84,-19.2167857212756)
--(axis cs:2854.86,-18.6795041616545)
--(axis cs:2854.88,-18.1603208154801)
--(axis cs:2854.9,-17.7082754437755)
--(axis cs:2854.92,-17.2895502258594)
--(axis cs:2854.94,-16.8960135659536)
--(axis cs:2854.96,-16.5293692517426)
--(axis cs:2854.98,-16.2359952966734)
--(axis cs:2855,-16.1270266257691)
--(axis cs:2855.02,-16.0725920728626)
--(axis cs:2855.04,-16.027973096404)
--(axis cs:2855.06,-15.9934964112953)
--(axis cs:2855.08,-15.9695814048387)
--(axis cs:2855.1,-15.9563010493359)
--(axis cs:2855.12,-15.9784714268036)
--(axis cs:2855.14,-16.0331894467783)
--(axis cs:2855.16,-16.0977179434199)
--(axis cs:2855.18,-16.1717701979349)
--(axis cs:2855.2,-16.254830731855)
--(axis cs:2855.22,-16.3461983431658)
--(axis cs:2855.24,-16.445082157427)
--(axis cs:2855.26,-16.5505421159774)
--(axis cs:2855.28,-16.6615118202914)
--(axis cs:2855.3,-16.7768423428159)
--(axis cs:2855.32,-16.8949135595916)
--(axis cs:2855.34,-17.0143672695531)
--(axis cs:2855.36,-17.1332936551509)
--(axis cs:2855.38,-17.250068929695)
--(axis cs:2855.4,-17.3625607324068)
--(axis cs:2855.42,-17.4691314497911)
--(axis cs:2855.44,-17.5676035936716)
--(axis cs:2855.46,-17.6563966045473)
--(axis cs:2855.48,-17.7341418358475)
--(axis cs:2855.5,-17.7993257297546)
--(axis cs:2855.52,-17.8518627293181)
--(axis cs:2855.54,-17.8911352434881)
--(axis cs:2855.56,-17.9178681819265)
--(axis cs:2855.58,-17.932978768632)
--(axis cs:2855.6,-17.9390060116037)
--(axis cs:2855.62,-18.0827710451546)
--(axis cs:2855.64,-18.4321576844016)
--(axis cs:2855.66,-19.024306331929)
--(axis cs:2855.68,-19.6720488748193)
--(axis cs:2855.7,-20.3758950045753)
--(axis cs:2855.72,-21.2578178825819)
--(axis cs:2855.74,-22.2235710180315)
--(axis cs:2855.76,-23.242151726624)
--(axis cs:2855.78,-24.2511418472075)
--(axis cs:2855.8,-25.1253075538523)
--(axis cs:2855.82,-25.6754968357557)
--(axis cs:2855.84,-26.3848374884237)
--(axis cs:2855.86,-27.2536721308323)
--(axis cs:2855.88,-28.8522945562888)
--(axis cs:2855.9,-29.7400603046463)
--(axis cs:2855.92,-29.5607998179311)
--(axis cs:2855.94,-28.8048138569437)
--(axis cs:2855.96,-29.0827691729497)
--(axis cs:2855.98,-31.5234228158762)
--(axis cs:2856,-36.1155924774817)
--(axis cs:2856.02,-43.365182352639)
--(axis cs:2856.04,-34.1365048359144)
--(axis cs:2856.06,-29.7099814864066)
--(axis cs:2856.08,-26.416348040135)
--(axis cs:2856.1,-24.0221240034783)
--(axis cs:2856.12,-22.5045779287124)
--(axis cs:2856.14,-21.3650001911339)
--(axis cs:2856.16,-20.3761915255662)
--(axis cs:2856.18,-19.9267305390811)
--(axis cs:2856.2,-19.7290438210451)
--(axis cs:2856.22,-19.7041954702337)
--(axis cs:2856.24,-19.7487708114031)
--(axis cs:2856.26,-19.869131195314)
--(axis cs:2856.28,-19.9596912985607)
--(axis cs:2856.3,-20.0130542014806)
--(axis cs:2856.32,-20.0506837746124)
--(axis cs:2856.34,-20.0666062088917)
--(axis cs:2856.36,-20.0407729544911)
--(axis cs:2856.38,-19.9755043733287)
--(axis cs:2856.4,-19.8757602801158)
--(axis cs:2856.42,-19.7471104445934)
--(axis cs:2856.44,-19.5955191167769)
--(axis cs:2856.46,-19.4267004672887)
--(axis cs:2856.48,-19.2467032749458)
--(axis cs:2856.5,-19.0600789590669)
--(axis cs:2856.52,-18.8715237547572)
--(axis cs:2856.54,-18.6845963886115)
--(axis cs:2856.56,-18.5017264513045)
--(axis cs:2856.58,-18.3251468758866)
--(axis cs:2856.6,-18.1567853867491)
--(axis cs:2856.62,-17.9976235903622)
--(axis cs:2856.64,-17.8487513572521)
--(axis cs:2856.66,-17.7105287515033)
--(axis cs:2856.68,-17.5834596850929)
--(axis cs:2856.7,-17.5586986167202)
--(axis cs:2856.72,-17.5468140225591)
--(axis cs:2856.74,-17.690870540436)
--(axis cs:2856.76,-17.9461748978843)
--(axis cs:2856.78,-18.2220686037298)
--(axis cs:2856.8,-18.5276073559269)
--(axis cs:2856.82,-18.8453263243692)
--(axis cs:2856.84,-19.1727320641081)
--(axis cs:2856.86,-19.5177708692146)
--(axis cs:2856.88,-19.9041830888287)
--(axis cs:2856.9,-20.2919151346161)
--(axis cs:2856.92,-20.6735743400656)
--(axis cs:2856.94,-21.0396595495772)
--(axis cs:2856.96,-21.3786165927468)
--(axis cs:2856.98,-21.6773863012221)
--(axis cs:2857,-21.9220110227275)
--(axis cs:2857.02,-22.0990932386093)
--(axis cs:2857.04,-22.1977717946436)
--(axis cs:2857.06,-22.2111290428936)
--(axis cs:2857.08,-22.1382184125323)
--(axis cs:2857.1,-21.9835911146075)
--(axis cs:2857.12,-21.7566233691667)
--(axis cs:2857.14,-21.4699360425992)
--(axis cs:2857.16,-21.1373273434662)
--(axis cs:2857.18,-20.7723323998862)
--(axis cs:2857.2,-20.386946236596)
--(axis cs:2857.22,-19.9912961828702)
--(axis cs:2857.24,-19.5934738236379)
--(axis cs:2857.26,-19.2040227793359)
--(axis cs:2857.28,-18.8746444699456)
--(axis cs:2857.3,-18.5503360108912)
--(axis cs:2857.32,-18.2339837285155)
--(axis cs:2857.34,-17.9804115412202)
--(axis cs:2857.36,-17.834715960745)
--(axis cs:2857.38,-17.8362263969158)
--(axis cs:2857.4,-17.8329426096986)
--(axis cs:2857.42,-17.8250501478776)
--(axis cs:2857.44,-17.8128737520831)
--(axis cs:2857.46,-17.7967978188774)
--(axis cs:2857.48,-17.7772749544957)
--(axis cs:2857.5,-17.7595740998003)
--(axis cs:2857.52,-17.7594689764793)
--(axis cs:2857.54,-17.7563578427084)
--(axis cs:2857.56,-17.7506412768677)
--(axis cs:2857.58,-17.7427136010704)
--(axis cs:2857.6,-17.7330401480173)
--(axis cs:2857.62,-17.7220635443299)
--(axis cs:2857.64,-17.7103032603006)
--(axis cs:2857.66,-17.6982397914885)
--(axis cs:2857.68,-17.6863403534962)
--(axis cs:2857.7,-17.6751365734803)
--(axis cs:2857.72,-17.6651044472406)
--(axis cs:2857.74,-17.6566928625147)
--(axis cs:2857.76,-17.6503747748655)
--(axis cs:2857.78,-17.6465655371412)
--(axis cs:2857.8,-17.6456862010973)
--(axis cs:2857.82,-17.648137251564)
--(axis cs:2857.84,-17.6542568822648)
--(axis cs:2857.86,-17.6643898206415)
--(axis cs:2857.88,-17.678843522564)
--(axis cs:2857.9,-17.6978983878403)
--(axis cs:2857.92,-17.7218040729929)
--(axis cs:2857.94,-17.750800023054)
--(axis cs:2857.96,-17.7850649350834)
--(axis cs:2857.98,-17.8247643554914)
--(axis cs:2858,-17.8700426155006)
--(axis cs:2858.02,-17.9209950628063)
--(axis cs:2858.04,-17.9777057361271)
--(axis cs:2858.06,-18.0420066148725)
--(axis cs:2858.08,-18.1199619475264)
--(axis cs:2858.1,-18.2039383331469)
--(axis cs:2858.12,-18.2938497094828)
--(axis cs:2858.14,-18.4076391729261)
--(axis cs:2858.16,-18.5298855943415)
--(axis cs:2858.18,-18.659063632273)
--(axis cs:2858.2,-18.8310456528608)
--(axis cs:2858.22,-19.0486122712419)
--(axis cs:2858.24,-19.3178152135417)
--(axis cs:2858.26,-19.5992044026524)
--(axis cs:2858.28,-20.087805294321)
--(axis cs:2858.3,-20.6749195354846)
--(axis cs:2858.32,-21.3145935241231)
--(axis cs:2858.34,-22.0121169080238)
--(axis cs:2858.36,-22.7727692550939)
--(axis cs:2858.38,-23.6009674429166)
--(axis cs:2858.4,-24.4983569852736)
--(axis cs:2858.42,-25.4598661796138)
--(axis cs:2858.44,-26.536871976715)
--(axis cs:2858.46,-27.7140125419125)
--(axis cs:2858.48,-28.8544977009957)
--(axis cs:2858.5,-29.7802145733202)
--(axis cs:2858.52,-30.2365909043968)
--(axis cs:2858.54,-30.0445710229339)
--(axis cs:2858.56,-29.2746476425387)
--(axis cs:2858.58,-28.1733903924116)
--(axis cs:2858.6,-26.9654939861634)
--(axis cs:2858.62,-25.7795435895529)
--(axis cs:2858.64,-24.7027493880883)
--(axis cs:2858.66,-23.7995429046465)
--(axis cs:2858.68,-22.9678850641732)
--(axis cs:2858.7,-22.3142365839018)
--(axis cs:2858.72,-21.947961357593)
--(axis cs:2858.74,-21.6957766090884)
--(axis cs:2858.76,-21.7748628022555)
--(axis cs:2858.78,-21.9780840383218)
--(axis cs:2858.8,-22.2998953524833)
--(axis cs:2858.82,-22.7962576507835)
--(axis cs:2858.84,-23.5777749040399)
--(axis cs:2858.86,-24.8243527518689)
--(axis cs:2858.88,-26.6073958471663)
--(axis cs:2858.9,-28.9977802228244)
--(axis cs:2858.92,-31.3809288747089)
--(axis cs:2858.94,-31.8252127038652)
--(axis cs:2858.96,-29.376011305617)
--(axis cs:2858.98,-26.9332900289252)
--(axis cs:2859,-24.7683774639525)
--(axis cs:2859.02,-23.0929652031154)
--(axis cs:2859.04,-21.909654838219)
--(axis cs:2859.06,-21.0196568736512)
--(axis cs:2859.08,-20.3192923510411)
--(axis cs:2859.1,-19.7555058094755)
--(axis cs:2859.12,-19.2930675997155)
--(axis cs:2859.14,-18.907384289806)
--(axis cs:2859.16,-18.592543065767)
--(axis cs:2859.18,-18.3313351222352)
--(axis cs:2859.2,-18.106500113281)
--(axis cs:2859.22,-17.9119028318553)
--(axis cs:2859.24,-17.7428922810697)
--(axis cs:2859.26,-17.5961202134634)
--(axis cs:2859.28,-17.4692719812271)
--(axis cs:2859.3,-17.3659589823871)
--(axis cs:2859.32,-17.2780543634428)
--(axis cs:2859.34,-17.2044019956813)
--(axis cs:2859.36,-17.144071062579)
--(axis cs:2859.38,-17.0963285928261)
--(axis cs:2859.4,-17.0605662346218)
--(axis cs:2859.42,-17.0363397614947)
--(axis cs:2859.44,-17.0232564880754)
--(axis cs:2859.46,-17.0210551346041)
--(axis cs:2859.48,-17.029474500434)
--(axis cs:2859.5,-17.0483314718068)
--(axis cs:2859.52,-17.0775116602323)
--(axis cs:2859.54,-17.1169012655586)
--(axis cs:2859.56,-17.1663908809085)
--(axis cs:2859.58,-17.2259706745241)
--(axis cs:2859.6,-17.295574331482)
--(axis cs:2859.62,-17.3752233417948)
--(axis cs:2859.64,-17.4648671992836)
--(axis cs:2859.66,-17.5645280559902)
--(axis cs:2859.68,-17.6742099248544)
--(axis cs:2859.7,-17.7939315144027)
--(axis cs:2859.72,-17.9236695341833)
--(axis cs:2859.74,-18.0633931086107)
--(axis cs:2859.76,-18.2130935286768)
--(axis cs:2859.78,-18.3726924086949)
--(axis cs:2859.8,-18.5420745182555)
--(axis cs:2859.82,-18.721136289258)
--(axis cs:2859.84,-18.9110301374787)
--(axis cs:2859.86,-19.130390303794)
--(axis cs:2859.88,-19.3604517514968)
--(axis cs:2859.9,-19.6007533477251)
--(axis cs:2859.92,-19.8507250175398)
--(axis cs:2859.94,-20.1095451778944)
--(axis cs:2859.96,-20.3761541206231)
--(axis cs:2859.98,-20.7614002373042)
--(axis cs:2860,-21.2397936743573)
--(axis cs:2860.02,-21.839410657374)
--(axis cs:2860.04,-22.4866303729052)
--(axis cs:2860.06,-23.185082305419)
--(axis cs:2860.08,-24.0579811898946)
--(axis cs:2860.1,-25.1023090709383)
--(axis cs:2860.12,-26.3541515947869)
--(axis cs:2860.14,-27.8266954846814)
--(axis cs:2860.16,-29.5765491405253)
--(axis cs:2860.18,-31.6891176076456)
--(axis cs:2860.2,-34.2220859939067)
--(axis cs:2860.22,-36.8655575199549)
--(axis cs:2860.24,-38.8978770862254)
--(axis cs:2860.26,-37.4108744293501)
--(axis cs:2860.28,-34.3923102871973)
--(axis cs:2860.3,-31.7123420072413)
--(axis cs:2860.32,-29.5440689024928)
--(axis cs:2860.34,-27.771983429232)
--(axis cs:2860.36,-26.2905813857603)
--(axis cs:2860.38,-25.0659911453583)
--(axis cs:2860.4,-24.0272360356038)
--(axis cs:2860.42,-23.1042674939103)
--(axis cs:2860.44,-22.4186691334538)
--(axis cs:2860.46,-21.8180871104222)
--(axis cs:2860.48,-21.2552387111047)
--(axis cs:2860.5,-20.7959048732958)
--(axis cs:2860.52,-20.4396794891897)
--(axis cs:2860.54,-20.1432222354304)
--(axis cs:2860.56,-19.9051040155022)
--(axis cs:2860.58,-19.6726359381261)
--(axis cs:2860.6,-19.4468892288035)
--(axis cs:2860.62,-19.228661330982)
--(axis cs:2860.64,-19.0186051476316)
--(axis cs:2860.66,-18.8172242749175)
--(axis cs:2860.68,-18.6248799503255)
--(axis cs:2860.7,-18.4418609332254)
--(axis cs:2860.72,-18.2683624969036)
--(axis cs:2860.74,-18.1044960518915)
--(axis cs:2860.76,-17.9503718315867)
--(axis cs:2860.78,-17.8060068178057)
--(axis cs:2860.8,-17.6714345589695)
--(axis cs:2860.82,-17.5466445541145)
--(axis cs:2860.84,-17.4315950978894)
--(axis cs:2860.86,-17.3262707450806)
--(axis cs:2860.88,-17.2306280471739)
--(axis cs:2860.9,-17.1446133785262)
--(axis cs:2860.92,-17.0681826847224)
--(axis cs:2860.94,-17.0012923168652)
--(axis cs:2860.96,-16.9439087835382)
--(axis cs:2860.98,-16.8959902889587)
--(axis cs:2861,-16.8575076326011)
--(axis cs:2861,-12.0776097898037)
--(axis cs:2861,-12.0776097898037)
--(axis cs:2860.98,-12.114842464374)
--(axis cs:2860.96,-12.1632555837315)
--(axis cs:2860.94,-12.2229962804979)
--(axis cs:2860.92,-12.294250117242)
--(axis cs:2860.9,-12.3772333149362)
--(axis cs:2860.88,-12.4722042206846)
--(axis cs:2860.86,-12.5794608374154)
--(axis cs:2860.84,-12.69935120757)
--(axis cs:2860.82,-12.8322664055029)
--(axis cs:2860.8,-12.9786338569927)
--(axis cs:2860.78,-13.1389568690572)
--(axis cs:2860.76,-13.3137895494127)
--(axis cs:2860.74,-13.5037365594597)
--(axis cs:2860.72,-13.7094977766866)
--(axis cs:2860.7,-13.9318218362837)
--(axis cs:2860.68,-14.1715695737879)
--(axis cs:2860.66,-14.4296842436552)
--(axis cs:2860.64,-14.7072043853111)
--(axis cs:2860.62,-15.0053012774776)
--(axis cs:2860.6,-15.3252640818719)
--(axis cs:2860.58,-15.6685143167865)
--(axis cs:2860.56,-16.0366502867094)
--(axis cs:2860.54,-16.4314034543972)
--(axis cs:2860.52,-16.8546943184352)
--(axis cs:2860.5,-17.2019639425582)
--(axis cs:2860.48,-17.3666803977802)
--(axis cs:2860.46,-17.5292427915993)
--(axis cs:2860.44,-17.6881623911758)
--(axis cs:2860.42,-17.8418150341886)
--(axis cs:2860.4,-17.9884574329442)
--(axis cs:2860.38,-18.1262989458764)
--(axis cs:2860.36,-18.2534648936272)
--(axis cs:2860.34,-18.3681183667191)
--(axis cs:2860.32,-18.4684763484362)
--(axis cs:2860.3,-18.5528861282335)
--(axis cs:2860.28,-18.619893738904)
--(axis cs:2860.26,-18.668325413931)
--(axis cs:2860.24,-18.6972884302498)
--(axis cs:2860.22,-18.706298502695)
--(axis cs:2860.2,-18.6952708891821)
--(axis cs:2860.18,-18.6644908013531)
--(axis cs:2860.16,-18.614643370335)
--(axis cs:2860.14,-18.5467611605382)
--(axis cs:2860.12,-18.4621889409736)
--(axis cs:2860.1,-18.3624879261449)
--(axis cs:2860.08,-18.2493692859379)
--(axis cs:2860.06,-18.1246718144856)
--(axis cs:2860.04,-17.9902377047817)
--(axis cs:2860.02,-17.847937260193)
--(axis cs:2860,-17.6995160891314)
--(axis cs:2859.98,-17.5466892177121)
--(axis cs:2859.96,-17.3909892215203)
--(axis cs:2859.94,-17.2338775401384)
--(axis cs:2859.92,-16.9775256825211)
--(axis cs:2859.9,-16.55254566656)
--(axis cs:2859.88,-16.1567377298047)
--(axis cs:2859.86,-15.7881631292059)
--(axis cs:2859.84,-15.4450903608218)
--(axis cs:2859.82,-15.1259313124782)
--(axis cs:2859.8,-14.8292398344657)
--(axis cs:2859.78,-14.5537653858918)
--(axis cs:2859.76,-14.2983293914436)
--(axis cs:2859.74,-14.0619109215508)
--(axis cs:2859.72,-13.8436001425556)
--(axis cs:2859.7,-13.642563853337)
--(axis cs:2859.68,-13.4580856736158)
--(axis cs:2859.66,-13.2895381404341)
--(axis cs:2859.64,-13.1363489732648)
--(axis cs:2859.62,-12.9980329876968)
--(axis cs:2859.6,-12.874158584692)
--(axis cs:2859.58,-12.7644015215078)
--(axis cs:2859.56,-12.668452202954)
--(axis cs:2859.54,-12.5861060390383)
--(axis cs:2859.52,-12.5171786688714)
--(axis cs:2859.5,-12.4615929010573)
--(axis cs:2859.48,-12.4193221359672)
--(axis cs:2859.46,-12.3903933713636)
--(axis cs:2859.44,-12.3749196165706)
--(axis cs:2859.42,-12.37311280163)
--(axis cs:2859.4,-12.3852441903832)
--(axis cs:2859.38,-12.4117161302645)
--(axis cs:2859.36,-12.4530257204414)
--(axis cs:2859.34,-12.509847228344)
--(axis cs:2859.32,-12.5829990164989)
--(axis cs:2859.3,-12.673517568206)
--(axis cs:2859.28,-12.782676777905)
--(axis cs:2859.26,-12.9120884603392)
--(axis cs:2859.24,-13.0637680694531)
--(axis cs:2859.22,-13.24025824641)
--(axis cs:2859.2,-13.4447094144684)
--(axis cs:2859.18,-13.6812225824242)
--(axis cs:2859.16,-13.9549929329475)
--(axis cs:2859.14,-14.2727057292412)
--(axis cs:2859.12,-14.6430223734449)
--(axis cs:2859.1,-15.0768496243259)
--(axis cs:2859.08,-15.5879673681461)
--(axis cs:2859.06,-16.1921041212561)
--(axis cs:2859.04,-16.9050532553768)
--(axis cs:2859.02,-17.7329380289635)
--(axis cs:2859,-18.6504336521225)
--(axis cs:2858.98,-19.5546549632383)
--(axis cs:2858.96,-20.2202886534399)
--(axis cs:2858.94,-20.3804427384965)
--(axis cs:2858.92,-19.9943173640719)
--(axis cs:2858.9,-19.3248202789014)
--(axis cs:2858.88,-18.6684491043288)
--(axis cs:2858.86,-18.179913302047)
--(axis cs:2858.84,-17.8953068338722)
--(axis cs:2858.82,-17.7966743078044)
--(axis cs:2858.8,-17.8509444259854)
--(axis cs:2858.78,-18.0264827982487)
--(axis cs:2858.76,-18.0387351275095)
--(axis cs:2858.74,-17.8945430367625)
--(axis cs:2858.72,-17.7940367876283)
--(axis cs:2858.7,-17.7231638723189)
--(axis cs:2858.68,-17.656422111448)
--(axis cs:2858.66,-17.6038502140863)
--(axis cs:2858.64,-17.5598782140867)
--(axis cs:2858.62,-17.5203814978888)
--(axis cs:2858.6,-17.4823408221953)
--(axis cs:2858.58,-17.443547463823)
--(axis cs:2858.56,-17.4024437520226)
--(axis cs:2858.54,-17.3579693156507)
--(axis cs:2858.52,-17.3094688669708)
--(axis cs:2858.5,-17.2566051564785)
--(axis cs:2858.48,-17.1992971592778)
--(axis cs:2858.46,-17.1376657484245)
--(axis cs:2858.44,-17.0719874741234)
--(axis cs:2858.42,-17.0026597847586)
--(axis cs:2858.4,-16.930164503608)
--(axis cs:2858.38,-16.8550438672552)
--(axis cs:2858.36,-16.7771804397021)
--(axis cs:2858.34,-16.6845462140645)
--(axis cs:2858.32,-16.5904675471702)
--(axis cs:2858.3,-16.4956850341956)
--(axis cs:2858.28,-16.4009011656459)
--(axis cs:2858.26,-16.3067753304764)
--(axis cs:2858.24,-16.2139233659305)
--(axis cs:2858.22,-16.1229033848089)
--(axis cs:2858.2,-15.955830698097)
--(axis cs:2858.18,-15.6277589459857)
--(axis cs:2858.16,-15.3214525134798)
--(axis cs:2858.14,-15.0360000541445)
--(axis cs:2858.12,-14.7705085162398)
--(axis cs:2858.1,-14.5241243792086)
--(axis cs:2858.08,-14.2960354668832)
--(axis cs:2858.06,-14.08548899317)
--(axis cs:2858.04,-13.8917793861525)
--(axis cs:2858.02,-13.7142629635319)
--(axis cs:2858,-13.5523502941408)
--(axis cs:2857.98,-13.4054952581351)
--(axis cs:2857.96,-13.2732133804592)
--(axis cs:2857.94,-13.1550556563574)
--(axis cs:2857.92,-13.0506278121946)
--(axis cs:2857.9,-12.9595844569625)
--(axis cs:2857.88,-12.8816041703822)
--(axis cs:2857.86,-12.8164142066366)
--(axis cs:2857.84,-12.7637771775713)
--(axis cs:2857.82,-12.723490407505)
--(axis cs:2857.8,-12.6953784570361)
--(axis cs:2857.78,-12.6793151047383)
--(axis cs:2857.76,-12.6751840199912)
--(axis cs:2857.74,-12.682898161324)
--(axis cs:2857.72,-12.7024122127346)
--(axis cs:2857.7,-12.7336866188934)
--(axis cs:2857.68,-12.7767241761256)
--(axis cs:2857.66,-12.8315457318586)
--(axis cs:2857.64,-12.8981657640917)
--(axis cs:2857.62,-12.9766483396819)
--(axis cs:2857.6,-13.0670680895345)
--(axis cs:2857.58,-13.1694845157861)
--(axis cs:2857.56,-13.2839979395449)
--(axis cs:2857.54,-13.4106882026934)
--(axis cs:2857.52,-13.5496462773525)
--(axis cs:2857.5,-13.7009364346638)
--(axis cs:2857.48,-13.8646252672814)
--(axis cs:2857.46,-14.0407277155429)
--(axis cs:2857.44,-14.2292523745082)
--(axis cs:2857.42,-14.4300919817578)
--(axis cs:2857.4,-14.643085808975)
--(axis cs:2857.38,-14.8679440009203)
--(axis cs:2857.36,-15.1042706995645)
--(axis cs:2857.34,-15.3132129634687)
--(axis cs:2857.32,-15.3096281868212)
--(axis cs:2857.3,-15.3030703076281)
--(axis cs:2857.28,-15.2936298384664)
--(axis cs:2857.26,-15.281423773265)
--(axis cs:2857.24,-15.2666187325083)
--(axis cs:2857.22,-15.2377635275102)
--(axis cs:2857.2,-15.1998917039925)
--(axis cs:2857.18,-15.1612765959147)
--(axis cs:2857.16,-15.1223940802029)
--(axis cs:2857.14,-15.0837018187457)
--(axis cs:2857.12,-15.0456738985914)
--(axis cs:2857.1,-15.0088084633875)
--(axis cs:2857.08,-14.9735773914055)
--(axis cs:2857.06,-14.9405115322098)
--(axis cs:2857.04,-14.9101239886363)
--(axis cs:2857.02,-14.8828173640203)
--(axis cs:2857,-14.8591691160048)
--(axis cs:2856.98,-14.839624392762)
--(axis cs:2856.96,-14.8246426545208)
--(axis cs:2856.94,-14.8147031065771)
--(axis cs:2856.92,-14.8101921093638)
--(axis cs:2856.9,-14.8116209624427)
--(axis cs:2856.88,-14.8194063109138)
--(axis cs:2856.86,-14.8339050130095)
--(axis cs:2856.84,-14.8556105411101)
--(axis cs:2856.82,-14.8848202183457)
--(axis cs:2856.8,-14.9220353022497)
--(axis cs:2856.78,-14.9675196106332)
--(axis cs:2856.76,-15.0216439093774)
--(axis cs:2856.74,-15.0847704693015)
--(axis cs:2856.72,-15.1571902562683)
--(axis cs:2856.7,-15.2393161174083)
--(axis cs:2856.68,-15.3166778317815)
--(axis cs:2856.66,-15.1275892486087)
--(axis cs:2856.64,-14.953491716246)
--(axis cs:2856.62,-14.7948610404168)
--(axis cs:2856.6,-14.6525225513254)
--(axis cs:2856.58,-14.5268538460409)
--(axis cs:2856.56,-14.4186629176553)
--(axis cs:2856.54,-14.3283645566093)
--(axis cs:2856.52,-14.2566535812374)
--(axis cs:2856.5,-14.2045792384575)
--(axis cs:2856.48,-14.1730182701436)
--(axis cs:2856.46,-14.1628609053949)
--(axis cs:2856.44,-14.1756737240409)
--(axis cs:2856.42,-14.2128425360602)
--(axis cs:2856.4,-14.2764551165002)
--(axis cs:2856.38,-14.3689357583362)
--(axis cs:2856.36,-14.4931595981349)
--(axis cs:2856.34,-14.652400843107)
--(axis cs:2856.32,-14.8509853094407)
--(axis cs:2856.3,-15.0942052390349)
--(axis cs:2856.28,-15.3889469932123)
--(axis cs:2856.26,-15.742747576177)
--(axis cs:2856.24,-16.1661689293727)
--(axis cs:2856.22,-16.6726154391268)
--(axis cs:2856.2,-17.2791568844822)
--(axis cs:2856.18,-18.0073835936997)
--(axis cs:2856.16,-18.81104190796)
--(axis cs:2856.14,-18.7073008386012)
--(axis cs:2856.12,-18.6465495089567)
--(axis cs:2856.1,-18.6281357172723)
--(axis cs:2856.08,-18.6576866185316)
--(axis cs:2856.06,-18.7678505146145)
--(axis cs:2856.04,-18.9668210602996)
--(axis cs:2856.02,-19.2672776087149)
--(axis cs:2856,-19.6796222586787)
--(axis cs:2855.98,-20.210696633031)
--(axis cs:2855.96,-20.8664842952913)
--(axis cs:2855.94,-21.6473765736181)
--(axis cs:2855.92,-21.1866980225675)
--(axis cs:2855.9,-20.4336428471135)
--(axis cs:2855.88,-19.8189396787561)
--(axis cs:2855.86,-19.2131231634512)
--(axis cs:2855.84,-18.6537064302153)
--(axis cs:2855.82,-18.1641225493803)
--(axis cs:2855.8,-17.7552860927601)
--(axis cs:2855.78,-17.4266771479933)
--(axis cs:2855.76,-17.162432609287)
--(axis cs:2855.74,-16.949335947566)
--(axis cs:2855.72,-16.7763386977206)
--(axis cs:2855.7,-16.6342445482831)
--(axis cs:2855.68,-16.515898244161)
--(axis cs:2855.66,-16.3640465485595)
--(axis cs:2855.64,-15.8630080547824)
--(axis cs:2855.62,-15.4010832602898)
--(axis cs:2855.6,-14.9865213273952)
--(axis cs:2855.58,-14.6135868854074)
--(axis cs:2855.56,-14.2786209249279)
--(axis cs:2855.54,-13.9776899484197)
--(axis cs:2855.52,-13.7079866622516)
--(axis cs:2855.5,-13.4669363995968)
--(axis cs:2855.48,-13.2527379414205)
--(axis cs:2855.46,-13.0632342733243)
--(axis cs:2855.44,-12.8972573440785)
--(axis cs:2855.42,-12.7534558756101)
--(axis cs:2855.4,-12.6307388366137)
--(axis cs:2855.38,-12.5284219296963)
--(axis cs:2855.36,-12.4456695790768)
--(axis cs:2855.34,-12.3820466816126)
--(axis cs:2855.32,-12.3370254186212)
--(axis cs:2855.3,-12.3103978837164)
--(axis cs:2855.28,-12.3018368798594)
--(axis cs:2855.26,-12.3113461400122)
--(axis cs:2855.24,-12.3388398661548)
--(axis cs:2855.22,-12.3843622128511)
--(axis cs:2855.2,-12.4480471189593)
--(axis cs:2855.18,-12.5300964654562)
--(axis cs:2855.16,-12.6308149936012)
--(axis cs:2855.14,-12.7505212391473)
--(axis cs:2855.12,-12.8894949948941)
--(axis cs:2855.1,-13.0482607671153)
--(axis cs:2855.08,-13.2271494994961)
--(axis cs:2855.06,-13.4265730534766)
--(axis cs:2855.04,-13.646982983274)
--(axis cs:2855.02,-13.8885866622951)
--(axis cs:2855,-14.151604474229)
--(axis cs:2854.98,-14.2796977220135)
--(axis cs:2854.96,-14.3062584936639)
--(axis cs:2854.94,-14.3386911604497)
--(axis cs:2854.92,-14.3763389686665)
--(axis cs:2854.9,-14.4182104434962)
--(axis cs:2854.88,-14.4633897916203)
--(axis cs:2854.86,-14.5106300046759)
--(axis cs:2854.84,-14.5587035764746)
--(axis cs:2854.82,-14.6061013537852)
--(axis cs:2854.8,-14.651320841945)
--(axis cs:2854.78,-14.6926858243526)
--(axis cs:2854.76,-14.7284374065919)
--(axis cs:2854.74,-14.7568371144226)
--(axis cs:2854.72,-14.776149386069)
--(axis cs:2854.7,-14.7846822420723)
--(axis cs:2854.68,-14.7809415429887)
--(axis cs:2854.66,-14.7635680651172)
--(axis cs:2854.64,-14.7315487184633)
--(axis cs:2854.62,-14.6841681783746)
--(axis cs:2854.6,-14.6210618117847)
--(axis cs:2854.58,-14.5423155461246)
--(axis cs:2854.56,-14.4483128160769)
--(axis cs:2854.54,-14.3398982581833)
--(axis cs:2854.52,-14.2181960879549)
--(axis cs:2854.5,-14.0846231208889)
--(axis cs:2854.48,-13.933752627249)
--(axis cs:2854.46,-13.5544154938328)
--(axis cs:2854.44,-13.1796447648597)
--(axis cs:2854.42,-12.8246300404641)
--(axis cs:2854.4,-12.4901014808696)
--(axis cs:2854.38,-12.1763742437775)
--(axis cs:2854.36,-11.883519251589)
--(axis cs:2854.34,-11.6114219837382)
--(axis cs:2854.32,-11.359848471763)
--(axis cs:2854.3,-11.1267822640715)
--(axis cs:2854.28,-10.9107144748647)
--(axis cs:2854.26,-10.7149508010281)
--(axis cs:2854.24,-10.5390897444303)
--(axis cs:2854.22,-10.3827782966813)
--(axis cs:2854.2,-10.2457222594188)
--(axis cs:2854.18,-10.1276996295831)
--(axis cs:2854.16,-10.028541746956)
--(axis cs:2854.14,-9.94817995043634)
--(axis cs:2854.12,-9.88661495747509)
--(axis cs:2854.1,-9.84395392401258)
--(axis cs:2854.08,-9.82039024795909)
--(axis cs:2854.06,-9.81622895841802)
--(axis cs:2854.04,-9.83190063629469)
--(axis cs:2854.02,-9.86794551090639)
--(axis cs:2854,-9.92505123770952)
--(axis cs:2853.98,-10.0040568597642)
--(axis cs:2853.96,-10.1059721697272)
--(axis cs:2853.94,-10.2319909152657)
--(axis cs:2853.92,-10.3835246366837)
--(axis cs:2853.9,-10.5622235930757)
--(axis cs:2853.88,-10.7700184166683)
--(axis cs:2853.86,-11.0091547778506)
--(axis cs:2853.84,-11.2822501996089)
--(axis cs:2853.82,-11.5879435881974)
--(axis cs:2853.8,-11.9317438760336)
--(axis cs:2853.78,-12.318743885568)
--(axis cs:2853.76,-12.7533622260752)
--(axis cs:2853.74,-13.2279506137809)
--(axis cs:2853.72,-13.7524298528544)
--(axis cs:2853.7,-14.1246904033)
--(axis cs:2853.68,-14.4886587453951)
--(axis cs:2853.66,-14.8691425913645)
--(axis cs:2853.64,-15.2598378918122)
--(axis cs:2853.62,-15.6514750681807)
--(axis cs:2853.6,-16.0311272515977)
--(axis cs:2853.58,-16.3817888373206)
--(axis cs:2853.56,-16.6826684453957)
--(axis cs:2853.54,-16.9107197444282)
--(axis cs:2853.52,-17.0437680892056)
--(axis cs:2853.5,-17.0648667554599)
--(axis cs:2853.48,-16.9665120740504)
--(axis cs:2853.46,-16.7528140420865)
--(axis cs:2853.44,-16.4384897969534)
--(axis cs:2853.42,-16.045227593956)
--(axis cs:2853.4,-15.5972064066342)
--(axis cs:2853.38,-15.1174562263639)
--(axis cs:2853.36,-14.4696059899849)
--(axis cs:2853.34,-13.6713279014645)
--(axis cs:2853.32,-12.9597287742368)
--(axis cs:2853.3,-12.3290240993417)
--(axis cs:2853.28,-11.7741360130773)
--(axis cs:2853.26,-11.2916115914022)
--(axis cs:2853.24,-10.8797434033189)
--(axis cs:2853.22,-10.5385289779958)
--(axis cs:2853.2,-10.2692383840719)
--(axis cs:2853.18,-10.0731950798567)
--(axis cs:2853.16,-9.94859761940931)
--(axis cs:2853.14,-9.8849100867673)
--(axis cs:2853.12,-9.85554609540633)
--(axis cs:2853.1,-9.81555289036297)
--(axis cs:2853.08,-9.7154127614308)
--(axis cs:2853.06,-9.52924409489058)
--(axis cs:2853.04,-9.2715155422255)
--(axis cs:2853.02,-8.98250316714291)
--(axis cs:2853,-8.70179355659563)
--(axis cs:2852.98,-8.45464270086081)
--(axis cs:2852.96,-8.25232211899833)
--(axis cs:2852.94,-8.09756967335471)
--(axis cs:2852.92,-7.98917521093351)
--(axis cs:2852.9,-7.92471262881151)
--(axis cs:2852.88,-7.90186320684524)
--(axis cs:2852.86,-7.91903763002499)
--(axis cs:2852.84,-7.97539920136482)
--(axis cs:2852.82,-8.07108683757971)
--(axis cs:2852.8,-8.20706361404685)
--(axis cs:2852.78,-8.38525005228395)
--(axis cs:2852.76,-8.60850467179634)
--(axis cs:2852.74,-8.88077067328495)
--(axis cs:2852.72,-9.20721208894782)
--(axis cs:2852.7,-9.59452393694617)
--(axis cs:2852.68,-10.0512493819977)
--(axis cs:2852.66,-10.5884600603418)
--(axis cs:2852.64,-11.2206233934857)
--(axis cs:2852.62,-11.9670112306692)
--(axis cs:2852.6,-12.8541410991805)
--(axis cs:2852.58,-13.9198600859944)
--(axis cs:2852.56,-15.2210672017901)
--(axis cs:2852.54,-16.7696177077496)
--(axis cs:2852.52,-18.2571868570021)
--(axis cs:2852.5,-19.9778840883923)
--(axis cs:2852.48,-21.8167290464176)
--(axis cs:2852.46,-23.2764470016375)
--(axis cs:2852.44,-23.4184301014551)
--(axis cs:2852.42,-22.0622812482954)
--(axis cs:2852.4,-20.1105822028631)
--(axis cs:2852.38,-17.7767445693823)
--(axis cs:2852.36,-15.7309723590664)
--(axis cs:2852.34,-14.1113447826605)
--(axis cs:2852.32,-12.7863166707609)
--(axis cs:2852.3,-11.6790400532638)
--(axis cs:2852.28,-10.7404793372728)
--(axis cs:2852.26,-9.93725190971035)
--(axis cs:2852.24,-9.24456178432142)
--(axis cs:2852.22,-8.64496771000667)
--(axis cs:2852.2,-8.12592605040432)
--(axis cs:2852.18,-7.6767390481229)
--(axis cs:2852.16,-7.28892186473066)
--(axis cs:2852.14,-6.9556928406666)
--(axis cs:2852.12,-6.6716087634854)
--(axis cs:2852.1,-6.43233565444943)
--(axis cs:2852.08,-6.23446838990598)
--(axis cs:2852.06,-6.07542540165217)
--(axis cs:2852.04,-5.95335946074515)
--(axis cs:2852.02,-5.86712623910283)
--(axis cs:2852,-5.81625744466581)
--(axis cs:2851.98,-5.80097757629861)
--(axis cs:2851.96,-5.82223005466508)
--(axis cs:2851.94,-5.88174500495336)
--(axis cs:2851.92,-5.98213249948742)
--(axis cs:2851.9,-6.12702091413936)
--(axis cs:2851.88,-6.3212344346059)
--(axis cs:2851.86,-6.57104498698028)
--(axis cs:2851.84,-6.8844929251151)
--(axis cs:2851.82,-7.27182208164932)
--(axis cs:2851.8,-7.74606053934033)
--(axis cs:2851.78,-8.32376164893572)
--(axis cs:2851.76,-9.02169341874824)
--(axis cs:2851.74,-9.85827751811701)
--(axis cs:2851.72,-10.8697919781459)
--(axis cs:2851.7,-12.0737632402554)
--(axis cs:2851.68,-13.3691712508389)
--(axis cs:2851.66,-14.7603274685952)
--(axis cs:2851.64,-15.9889450626779)
--(axis cs:2851.62,-16.5284458580298)
--(axis cs:2851.6,-16.0072971497539)
--(axis cs:2851.58,-14.7279054995225)
--(axis cs:2851.56,-13.2050232490658)
--(axis cs:2851.54,-11.7429193795588)
--(axis cs:2851.52,-10.4461515652396)
--(axis cs:2851.5,-9.33065596916286)
--(axis cs:2851.48,-8.34783977944503)
--(axis cs:2851.46,-7.51068291525574)
--(axis cs:2851.44,-6.8143581924078)
--(axis cs:2851.42,-6.23352396934745)
--(axis cs:2851.4,-5.75128946766355)
--(axis cs:2851.38,-5.35429627451882)
--(axis cs:2851.36,-5.03113807898315)
--(axis cs:2851.34,-4.77309953706321)
--(axis cs:2851.32,-4.57376574812159)
--(axis cs:2851.3,-4.42875883670764)
--(axis cs:2851.28,-4.33558986594657)
--(axis cs:2851.26,-4.29360678914026)
--(axis cs:2851.24,-4.30403857657831)
--(axis cs:2851.22,-4.37012607961708)
--(axis cs:2851.2,-4.49732555657723)
--(axis cs:2851.18,-4.69354181746319)
--(axis cs:2851.16,-4.96927751239657)
--(axis cs:2851.14,-5.33740463498252)
--(axis cs:2851.12,-5.80339321425671)
--(axis cs:2851.1,-6.36601480321793)
--(axis cs:2851.08,-7.0262286343846)
--(axis cs:2851.06,-7.71248971893025)
--(axis cs:2851.04,-8.35606034547382)
--(axis cs:2851.02,-8.79444527868881)
--(axis cs:2851,-8.8430583583214)
--cycle;

\end{axis}

\end{tikzpicture}

