% This file was created by tikzplotlib v0.9.4.
\begin{tikzpicture}

\begin{axis}[
xtick distance=3,
height=5cm,
tick align=outside,
tick pos=left,
width=7cm,
x grid style={white!69.0196078431373!black},
xlabel={\(\displaystyle f, \si{\MHz}\)},
xmajorgrids,
xmin=2850.5, xmax=2861.5,
xtick style={color=black},
y grid style={white!69.0196078431373!black},
ylabel={\(\displaystyle |S_{11}|, \si{\dB}\)},
ymajorgrids,
ymin=-41.2543760169485, ymax=-2.50215275207292,
ytick style={color=black}
]
\path [draw=red, fill=red]
(axis cs:2851,-8.9536349393654)
--(axis cs:2851,-10.6747078133354)
--(axis cs:2851.02,-10.5528290028466)
--(axis cs:2851.04,-9.8856070834738)
--(axis cs:2851.06,-8.97958484402339)
--(axis cs:2851.08,-8.07205101336261)
--(axis cs:2851.1,-7.29809248002247)
--(axis cs:2851.12,-6.67732985165713)
--(axis cs:2851.14,-6.17669474936717)
--(axis cs:2851.16,-5.78641120698297)
--(axis cs:2851.18,-5.49338107475515)
--(axis cs:2851.2,-5.2851947918958)
--(axis cs:2851.22,-5.15155922065069)
--(axis cs:2851.24,-5.08464304182407)
--(axis cs:2851.26,-5.07900624446519)
--(axis cs:2851.28,-5.13141828357925)
--(axis cs:2851.3,-5.24068633559319)
--(axis cs:2851.32,-5.40754381719642)
--(axis cs:2851.34,-5.63461945142335)
--(axis cs:2851.36,-5.92650365637108)
--(axis cs:2851.38,-6.28991894258349)
--(axis cs:2851.4,-6.73402876692491)
--(axis cs:2851.42,-7.2709179429817)
--(axis cs:2851.44,-7.91631982195371)
--(axis cs:2851.46,-8.69072801699312)
--(axis cs:2851.48,-9.62106306322559)
--(axis cs:2851.5,-10.7432138372136)
--(axis cs:2851.52,-12.1172707790497)
--(axis cs:2851.54,-13.8898808707942)
--(axis cs:2851.56,-16.1454641831193)
--(axis cs:2851.58,-19.0703677681028)
--(axis cs:2851.6,-22.6491737680672)
--(axis cs:2851.62,-24.2223968328785)
--(axis cs:2851.64,-21.3040885772222)
--(axis cs:2851.66,-18.0925948220023)
--(axis cs:2851.68,-15.6077115839224)
--(axis cs:2851.7,-13.7722003914602)
--(axis cs:2851.72,-12.3569581275056)
--(axis cs:2851.74,-11.2361283986346)
--(axis cs:2851.76,-10.3298948312772)
--(axis cs:2851.78,-9.58877323799536)
--(axis cs:2851.8,-8.98133307276597)
--(axis cs:2851.82,-8.48405511662197)
--(axis cs:2851.84,-8.07907924103283)
--(axis cs:2851.86,-7.75266385248204)
--(axis cs:2851.88,-7.49416410370981)
--(axis cs:2851.9,-7.29530291442557)
--(axis cs:2851.92,-7.14965978930255)
--(axis cs:2851.94,-7.05231164713783)
--(axis cs:2851.96,-6.99955776485681)
--(axis cs:2851.98,-6.98873239495346)
--(axis cs:2852,-7.01805829798392)
--(axis cs:2852.02,-7.08654941427411)
--(axis cs:2852.04,-7.19393788796861)
--(axis cs:2852.06,-7.34064648509469)
--(axis cs:2852.08,-7.52776559947655)
--(axis cs:2852.1,-7.75707858599471)
--(axis cs:2852.12,-8.03108479477389)
--(axis cs:2852.14,-8.35308773982718)
--(axis cs:2852.16,-8.7272924052504)
--(axis cs:2852.18,-9.15898350998853)
--(axis cs:2852.2,-9.65474471559978)
--(axis cs:2852.22,-10.2228173574106)
--(axis cs:2852.24,-10.8735890700676)
--(axis cs:2852.26,-11.6203624185521)
--(axis cs:2852.28,-12.4804676710719)
--(axis cs:2852.3,-13.4770826597131)
--(axis cs:2852.32,-14.6421170682874)
--(axis cs:2852.34,-16.0209967186608)
--(axis cs:2852.36,-17.6810794238206)
--(axis cs:2852.38,-19.7868883804716)
--(axis cs:2852.4,-22.5212199992748)
--(axis cs:2852.42,-26.9704962196102)
--(axis cs:2852.44,-37.2659962739463)
--(axis cs:2852.46,-39.4929113230905)
--(axis cs:2852.48,-27.2734285046441)
--(axis cs:2852.5,-22.770351312539)
--(axis cs:2852.52,-19.9609262515589)
--(axis cs:2852.54,-18.0387364349091)
--(axis cs:2852.56,-16.5409591107715)
--(axis cs:2852.58,-15.3226857856431)
--(axis cs:2852.6,-14.313154564063)
--(axis cs:2852.62,-13.465950455868)
--(axis cs:2852.64,-12.7490905781096)
--(axis cs:2852.66,-12.139657261333)
--(axis cs:2852.68,-11.6297162772737)
--(axis cs:2852.7,-11.2006868346216)
--(axis cs:2852.72,-10.8379929145218)
--(axis cs:2852.74,-10.5345082496889)
--(axis cs:2852.76,-10.2846581578003)
--(axis cs:2852.78,-10.0842280764015)
--(axis cs:2852.8,-9.93011296835673)
--(axis cs:2852.82,-9.82025010033115)
--(axis cs:2852.84,-9.75351045396465)
--(axis cs:2852.86,-9.7297981003402)
--(axis cs:2852.88,-9.74992889707076)
--(axis cs:2852.9,-9.81590388209385)
--(axis cs:2852.92,-9.93067357642537)
--(axis cs:2852.94,-10.0982039982745)
--(axis cs:2852.96,-10.3227421636979)
--(axis cs:2852.98,-10.6071231890697)
--(axis cs:2853,-10.9489966351617)
--(axis cs:2853.02,-11.3340199355915)
--(axis cs:2853.04,-11.7268399454238)
--(axis cs:2853.06,-12.0685407893891)
--(axis cs:2853.08,-12.2959698147582)
--(axis cs:2853.1,-12.3840700747809)
--(axis cs:2853.12,-12.370386046372)
--(axis cs:2853.14,-12.3279475013217)
--(axis cs:2853.16,-12.3206192217017)
--(axis cs:2853.18,-12.3833581035741)
--(axis cs:2853.2,-12.5272300312859)
--(axis cs:2853.22,-12.7506777567956)
--(axis cs:2853.24,-13.0474488188089)
--(axis cs:2853.26,-13.4107036698703)
--(axis cs:2853.28,-13.8342695028283)
--(axis cs:2853.3,-14.312723472212)
--(axis cs:2853.32,-14.8749434442784)
--(axis cs:2853.34,-15.5040056915425)
--(axis cs:2853.36,-16.1833869898607)
--(axis cs:2853.38,-16.9686185283727)
--(axis cs:2853.4,-17.9940721987587)
--(axis cs:2853.42,-19.279036772123)
--(axis cs:2853.44,-20.7670964128631)
--(axis cs:2853.46,-22.4169947252743)
--(axis cs:2853.48,-24.279108947738)
--(axis cs:2853.5,-26.0485692065629)
--(axis cs:2853.52,-26.8143236812636)
--(axis cs:2853.54,-26.0170661383022)
--(axis cs:2853.56,-24.3157171067783)
--(axis cs:2853.58,-22.4958125661928)
--(axis cs:2853.6,-20.8604110639117)
--(axis cs:2853.62,-19.4486250667029)
--(axis cs:2853.64,-18.345458986715)
--(axis cs:2853.66,-17.3844554304231)
--(axis cs:2853.68,-16.5393954209905)
--(axis cs:2853.7,-15.876713049419)
--(axis cs:2853.72,-15.3342823327058)
--(axis cs:2853.74,-14.90095498736)
--(axis cs:2853.76,-14.5236708676062)
--(axis cs:2853.78,-14.1826778283709)
--(axis cs:2853.8,-13.8762539523305)
--(axis cs:2853.82,-13.6025854447419)
--(axis cs:2853.84,-13.3628648560594)
--(axis cs:2853.86,-13.1657552854059)
--(axis cs:2853.88,-12.994709783884)
--(axis cs:2853.9,-12.8484584481679)
--(axis cs:2853.92,-12.7258262805773)
--(axis cs:2853.94,-12.6257264307307)
--(axis cs:2853.96,-12.5471677190459)
--(axis cs:2853.98,-12.4892397302096)
--(axis cs:2854,-12.4511182659103)
--(axis cs:2854.02,-12.4320426756686)
--(axis cs:2854.04,-12.4313165095678)
--(axis cs:2854.06,-12.4482952588886)
--(axis cs:2854.08,-12.4823918110925)
--(axis cs:2854.1,-12.5330274361744)
--(axis cs:2854.12,-12.5996603776324)
--(axis cs:2854.14,-12.6817666593432)
--(axis cs:2854.16,-12.7788014883602)
--(axis cs:2854.18,-12.8902264861516)
--(axis cs:2854.2,-13.0154500101536)
--(axis cs:2854.22,-13.1538658090183)
--(axis cs:2854.24,-13.3047778431656)
--(axis cs:2854.26,-13.4674188212534)
--(axis cs:2854.28,-13.6409243995248)
--(axis cs:2854.3,-13.8243134051582)
--(axis cs:2854.32,-14.016447893333)
--(axis cs:2854.34,-14.2160454034668)
--(axis cs:2854.36,-14.4216131532438)
--(axis cs:2854.38,-14.6314907343021)
--(axis cs:2854.4,-14.843791423192)
--(axis cs:2854.42,-15.0843601092233)
--(axis cs:2854.44,-15.3342474709297)
--(axis cs:2854.46,-15.5827140937364)
--(axis cs:2854.48,-15.8307798894794)
--(axis cs:2854.5,-16.2480084756254)
--(axis cs:2854.52,-16.6899925509848)
--(axis cs:2854.54,-17.1890205840229)
--(axis cs:2854.56,-17.7014555379355)
--(axis cs:2854.58,-18.3226573923633)
--(axis cs:2854.6,-18.945668913171)
--(axis cs:2854.62,-19.5511168786476)
--(axis cs:2854.64,-20.1119364016563)
--(axis cs:2854.66,-20.5941481885322)
--(axis cs:2854.68,-20.9602492077255)
--(axis cs:2854.7,-21.1767084983526)
--(axis cs:2854.72,-21.2237578297013)
--(axis cs:2854.74,-21.1345700566171)
--(axis cs:2854.76,-20.9005239070796)
--(axis cs:2854.78,-20.54802711737)
--(axis cs:2854.8,-20.112924312631)
--(axis cs:2854.82,-19.6287990574419)
--(axis cs:2854.84,-19.1228294996798)
--(axis cs:2854.86,-18.6149060282942)
--(axis cs:2854.88,-18.1187686916226)
--(axis cs:2854.9,-17.6430869560082)
--(axis cs:2854.92,-17.1931562176184)
--(axis cs:2854.94,-16.8228660997171)
--(axis cs:2854.96,-16.4992337619901)
--(axis cs:2854.98,-16.1978073513776)
--(axis cs:2855,-16.0297633172358)
--(axis cs:2855.02,-15.9855177639891)
--(axis cs:2855.04,-15.9511388453843)
--(axis cs:2855.06,-15.9320034114872)
--(axis cs:2855.08,-15.937993225287)
--(axis cs:2855.1,-15.9539898107762)
--(axis cs:2855.12,-15.9799384139213)
--(axis cs:2855.14,-16.0158116251849)
--(axis cs:2855.16,-16.0611866277956)
--(axis cs:2855.18,-16.1158172336764)
--(axis cs:2855.2,-16.1792354295388)
--(axis cs:2855.22,-16.2507992944068)
--(axis cs:2855.24,-16.3297999528935)
--(axis cs:2855.26,-16.415403218766)
--(axis cs:2855.28,-16.5066735023473)
--(axis cs:2855.3,-16.6026272304282)
--(axis cs:2855.32,-16.7018440543529)
--(axis cs:2855.34,-16.8032019144996)
--(axis cs:2855.36,-16.9050598751621)
--(axis cs:2855.38,-17.0060999601271)
--(axis cs:2855.4,-17.104516195095)
--(axis cs:2855.42,-17.1990087836351)
--(axis cs:2855.44,-17.2877417229574)
--(axis cs:2855.46,-17.3694474339343)
--(axis cs:2855.48,-17.4430199660233)
--(axis cs:2855.5,-17.5071614922802)
--(axis cs:2855.52,-17.5618829048548)
--(axis cs:2855.54,-17.6253373333456)
--(axis cs:2855.56,-17.7105292568656)
--(axis cs:2855.58,-17.7893475556755)
--(axis cs:2855.6,-17.8630319376926)
--(axis cs:2855.62,-18.0205953247053)
--(axis cs:2855.64,-18.3690578269404)
--(axis cs:2855.66,-18.8622795323393)
--(axis cs:2855.68,-19.3908023102949)
--(axis cs:2855.7,-20.1661153330455)
--(axis cs:2855.72,-21.0473127430551)
--(axis cs:2855.74,-22.011535080316)
--(axis cs:2855.76,-23.0416980259509)
--(axis cs:2855.78,-24.0882773795605)
--(axis cs:2855.8,-25.0431614988502)
--(axis cs:2855.82,-25.7253510324452)
--(axis cs:2855.84,-26.0305818169448)
--(axis cs:2855.86,-27.1193663896806)
--(axis cs:2855.88,-28.4436372236376)
--(axis cs:2855.9,-29.3784375416597)
--(axis cs:2855.92,-29.394235925882)
--(axis cs:2855.94,-28.5014200850812)
--(axis cs:2855.96,-29.2362912793607)
--(axis cs:2855.98,-30.9048610271438)
--(axis cs:2856,-35.2802157149834)
--(axis cs:2856.02,-38.8731745844712)
--(axis cs:2856.04,-33.1772825663485)
--(axis cs:2856.06,-29.0030747506437)
--(axis cs:2856.08,-26.0045515746982)
--(axis cs:2856.1,-23.8523435456556)
--(axis cs:2856.12,-22.4695948887224)
--(axis cs:2856.14,-21.2729319392288)
--(axis cs:2856.16,-20.4053297799545)
--(axis cs:2856.18,-19.8644688500978)
--(axis cs:2856.2,-19.7849653484357)
--(axis cs:2856.22,-19.7275305420004)
--(axis cs:2856.24,-19.8023220271193)
--(axis cs:2856.26,-19.9236149135632)
--(axis cs:2856.28,-20.0119995412504)
--(axis cs:2856.3,-20.0600932960356)
--(axis cs:2856.32,-20.0663215745803)
--(axis cs:2856.34,-20.0292941542792)
--(axis cs:2856.36,-19.9516724229837)
--(axis cs:2856.38,-19.8374947068947)
--(axis cs:2856.4,-19.6929597615559)
--(axis cs:2856.42,-19.5244023445314)
--(axis cs:2856.44,-19.3380836913425)
--(axis cs:2856.46,-19.139685052261)
--(axis cs:2856.48,-18.9349395061147)
--(axis cs:2856.5,-18.7279283019008)
--(axis cs:2856.52,-18.5228148690302)
--(axis cs:2856.54,-18.3423172860578)
--(axis cs:2856.56,-18.1726711504168)
--(axis cs:2856.58,-18.0100238288391)
--(axis cs:2856.6,-17.8559400007429)
--(axis cs:2856.62,-17.7111371682772)
--(axis cs:2856.64,-17.5765043296128)
--(axis cs:2856.66,-17.5191454849336)
--(axis cs:2856.68,-17.5453516267871)
--(axis cs:2856.7,-17.5928274624125)
--(axis cs:2856.72,-17.6476279280682)
--(axis cs:2856.74,-17.7092823043805)
--(axis cs:2856.76,-17.8030247453747)
--(axis cs:2856.78,-18.0606907986576)
--(axis cs:2856.8,-18.3455482982104)
--(axis cs:2856.82,-18.681818162875)
--(axis cs:2856.84,-19.0301956471875)
--(axis cs:2856.86,-19.38744195366)
--(axis cs:2856.88,-19.7493155304139)
--(axis cs:2856.9,-20.1101374525637)
--(axis cs:2856.92,-20.462859579699)
--(axis cs:2856.94,-20.7986700434723)
--(axis cs:2856.96,-21.1071318912099)
--(axis cs:2856.98,-21.3767807545186)
--(axis cs:2857,-21.5956528517713)
--(axis cs:2857.02,-21.752526064359)
--(axis cs:2857.04,-21.8384997176873)
--(axis cs:2857.06,-21.8479718971886)
--(axis cs:2857.08,-21.7803031152503)
--(axis cs:2857.1,-21.639287314546)
--(axis cs:2857.12,-21.4326897699569)
--(axis cs:2857.14,-21.1710787603096)
--(axis cs:2857.16,-20.8661833655035)
--(axis cs:2857.18,-20.5297512811134)
--(axis cs:2857.2,-20.1724330225942)
--(axis cs:2857.22,-19.8034439020874)
--(axis cs:2857.24,-19.4303481361393)
--(axis cs:2857.26,-19.0605008881321)
--(axis cs:2857.28,-18.7315221184348)
--(axis cs:2857.3,-18.4077693236103)
--(axis cs:2857.32,-18.0958111680097)
--(axis cs:2857.34,-17.9592802626353)
--(axis cs:2857.36,-17.8363312369273)
--(axis cs:2857.38,-17.7585581740616)
--(axis cs:2857.4,-17.7160391280765)
--(axis cs:2857.42,-17.6699108296927)
--(axis cs:2857.44,-17.6521142576514)
--(axis cs:2857.46,-17.6583277208558)
--(axis cs:2857.48,-17.6606652680645)
--(axis cs:2857.5,-17.659370782422)
--(axis cs:2857.52,-17.6547792504585)
--(axis cs:2857.54,-17.6472484237747)
--(axis cs:2857.56,-17.6372237470312)
--(axis cs:2857.58,-17.6251406125454)
--(axis cs:2857.6,-17.6115001044508)
--(axis cs:2857.62,-17.5967762331821)
--(axis cs:2857.64,-17.5815141301081)
--(axis cs:2857.66,-17.5662157312943)
--(axis cs:2857.68,-17.5513654338201)
--(axis cs:2857.7,-17.5375068666501)
--(axis cs:2857.72,-17.52512492285)
--(axis cs:2857.74,-17.5146743480232)
--(axis cs:2857.76,-17.5066305606548)
--(axis cs:2857.78,-17.5014096498014)
--(axis cs:2857.8,-17.4994311336191)
--(axis cs:2857.82,-17.5010925393452)
--(axis cs:2857.84,-17.5067287061863)
--(axis cs:2857.86,-17.5166799155003)
--(axis cs:2857.88,-17.5312490202616)
--(axis cs:2857.9,-17.5507117952084)
--(axis cs:2857.92,-17.5753135728565)
--(axis cs:2857.94,-17.6052896103998)
--(axis cs:2857.96,-17.6408155352872)
--(axis cs:2857.98,-17.6820540647451)
--(axis cs:2858,-17.7291475826582)
--(axis cs:2858.02,-17.782190408091)
--(axis cs:2858.04,-17.8412659964482)
--(axis cs:2858.06,-17.9064065043481)
--(axis cs:2858.08,-17.9776104872696)
--(axis cs:2858.1,-18.0548499832525)
--(axis cs:2858.12,-18.1380420651665)
--(axis cs:2858.14,-18.2658939402572)
--(axis cs:2858.16,-18.4397202199453)
--(axis cs:2858.18,-18.6233440740892)
--(axis cs:2858.2,-18.8164653012585)
--(axis cs:2858.22,-19.0186610623628)
--(axis cs:2858.24,-19.2630230323504)
--(axis cs:2858.26,-19.6186048835581)
--(axis cs:2858.28,-19.9939570151508)
--(axis cs:2858.3,-20.4653962841048)
--(axis cs:2858.32,-21.065100258311)
--(axis cs:2858.34,-21.7391857774571)
--(axis cs:2858.36,-22.5107944949574)
--(axis cs:2858.38,-23.3578620034456)
--(axis cs:2858.4,-24.2866852262499)
--(axis cs:2858.42,-25.2996152803899)
--(axis cs:2858.44,-26.3884194854095)
--(axis cs:2858.46,-27.5203812251712)
--(axis cs:2858.48,-28.6132108227705)
--(axis cs:2858.5,-29.5055445160206)
--(axis cs:2858.52,-29.9696919229304)
--(axis cs:2858.54,-29.8373540300527)
--(axis cs:2858.56,-29.1524971937073)
--(axis cs:2858.58,-28.1278231882228)
--(axis cs:2858.6,-26.9752619909315)
--(axis cs:2858.62,-25.8256984280761)
--(axis cs:2858.64,-24.7410433736918)
--(axis cs:2858.66,-23.744774378188)
--(axis cs:2858.68,-22.9079650680411)
--(axis cs:2858.7,-22.3523088582148)
--(axis cs:2858.72,-21.8386267453182)
--(axis cs:2858.74,-21.5913253733626)
--(axis cs:2858.76,-21.5696761151713)
--(axis cs:2858.78,-21.6856322500965)
--(axis cs:2858.8,-22.0846134373676)
--(axis cs:2858.82,-22.6647634597403)
--(axis cs:2858.84,-23.5088338383307)
--(axis cs:2858.86,-24.7341202951027)
--(axis cs:2858.88,-26.4885618607476)
--(axis cs:2858.9,-28.8466314569119)
--(axis cs:2858.92,-31.1246994972404)
--(axis cs:2858.94,-30.8904234367226)
--(axis cs:2858.96,-29.2363994021207)
--(axis cs:2858.98,-26.786830753926)
--(axis cs:2859,-24.6443579091272)
--(axis cs:2859.02,-22.9947973789463)
--(axis cs:2859.04,-21.7369787486799)
--(axis cs:2859.06,-20.7623816004685)
--(axis cs:2859.08,-20.0914973630942)
--(axis cs:2859.1,-19.576962919101)
--(axis cs:2859.12,-19.1557256948277)
--(axis cs:2859.14,-18.8050515650755)
--(axis cs:2859.16,-18.5091511914152)
--(axis cs:2859.18,-18.2567424556909)
--(axis cs:2859.2,-18.039697275315)
--(axis cs:2859.22,-17.8520693054467)
--(axis cs:2859.24,-17.6893519643994)
--(axis cs:2859.26,-17.5483092100948)
--(axis cs:2859.28,-17.4263663186132)
--(axis cs:2859.3,-17.3215596232855)
--(axis cs:2859.32,-17.2323539451799)
--(axis cs:2859.34,-17.1575753580675)
--(axis cs:2859.36,-17.0962766902903)
--(axis cs:2859.38,-17.0477113635763)
--(axis cs:2859.4,-17.0112568772966)
--(axis cs:2859.42,-16.9864571956189)
--(axis cs:2859.44,-16.9729086057557)
--(axis cs:2859.46,-16.970338123066)
--(axis cs:2859.48,-16.9784737994395)
--(axis cs:2859.5,-16.9971227372796)
--(axis cs:2859.52,-17.026158628794)
--(axis cs:2859.54,-17.0654573470974)
--(axis cs:2859.56,-17.1148978780573)
--(axis cs:2859.58,-17.1744576429146)
--(axis cs:2859.6,-17.2440566908492)
--(axis cs:2859.62,-17.3237011901282)
--(axis cs:2859.64,-17.4133247705923)
--(axis cs:2859.66,-17.5129295082525)
--(axis cs:2859.68,-17.6224984737317)
--(axis cs:2859.7,-17.7420246575018)
--(axis cs:2859.72,-17.8714562576305)
--(axis cs:2859.74,-18.0107288028435)
--(axis cs:2859.76,-18.1597944531999)
--(axis cs:2859.78,-18.3185291702503)
--(axis cs:2859.8,-18.4867644255421)
--(axis cs:2859.82,-18.6643346059771)
--(axis cs:2859.84,-18.8509075183695)
--(axis cs:2859.86,-19.0461242197549)
--(axis cs:2859.88,-19.2495091506168)
--(axis cs:2859.9,-19.4604015355311)
--(axis cs:2859.92,-19.6994649760479)
--(axis cs:2859.94,-19.9978576746332)
--(axis cs:2859.96,-20.3226447992161)
--(axis cs:2859.98,-20.7521557560585)
--(axis cs:2860,-21.2438584537656)
--(axis cs:2860.02,-21.7963649492497)
--(axis cs:2860.04,-22.3845851514934)
--(axis cs:2860.06,-23.0540814391976)
--(axis cs:2860.08,-23.9419834943083)
--(axis cs:2860.1,-24.9657138526142)
--(axis cs:2860.12,-26.1233306630286)
--(axis cs:2860.14,-27.5364649668788)
--(axis cs:2860.16,-29.2199370198969)
--(axis cs:2860.18,-31.2422458275653)
--(axis cs:2860.2,-33.6688504399722)
--(axis cs:2860.22,-36.3076222137207)
--(axis cs:2860.24,-37.8119391224301)
--(axis cs:2860.26,-36.4882789659634)
--(axis cs:2860.28,-33.8673310753894)
--(axis cs:2860.3,-31.4139369552486)
--(axis cs:2860.32,-29.3653973283772)
--(axis cs:2860.34,-27.6618968294442)
--(axis cs:2860.36,-26.2232171756379)
--(axis cs:2860.38,-25.0080871611296)
--(axis cs:2860.4,-23.981987965286)
--(axis cs:2860.42,-23.0675879858297)
--(axis cs:2860.44,-22.3016980353623)
--(axis cs:2860.46,-21.7441271072814)
--(axis cs:2860.48,-21.261936673105)
--(axis cs:2860.5,-20.8767950812037)
--(axis cs:2860.52,-20.5066554933908)
--(axis cs:2860.54,-20.1511688746753)
--(axis cs:2860.56,-19.8111380465299)
--(axis cs:2860.58,-19.4869591043346)
--(axis cs:2860.6,-19.1788063087584)
--(axis cs:2860.62,-18.8866078089969)
--(axis cs:2860.64,-18.6148581024304)
--(axis cs:2860.66,-18.4205920450755)
--(axis cs:2860.68,-18.2352577195339)
--(axis cs:2860.7,-18.0591161223003)
--(axis cs:2860.72,-17.8923444016623)
--(axis cs:2860.74,-17.7350437894459)
--(axis cs:2860.76,-17.5873180057152)
--(axis cs:2860.78,-17.4491838736259)
--(axis cs:2860.8,-17.3206763567369)
--(axis cs:2860.82,-17.2017899332257)
--(axis cs:2860.84,-17.0924903883828)
--(axis cs:2860.86,-16.9927697371394)
--(axis cs:2860.88,-16.9025941867506)
--(axis cs:2860.9,-16.8219209146768)
--(axis cs:2860.92,-16.7507168697918)
--(axis cs:2860.94,-16.6889501501756)
--(axis cs:2860.96,-16.6365994263298)
--(axis cs:2860.98,-16.5936357792288)
--(axis cs:2861,-16.5600433553881)
--(axis cs:2861,-12.2749824627218)
--(axis cs:2861,-12.2749824627218)
--(axis cs:2860.98,-12.3138732080659)
--(axis cs:2860.96,-12.3639778369785)
--(axis cs:2860.94,-12.425448326995)
--(axis cs:2860.92,-12.4984751238124)
--(axis cs:2860.9,-12.5832794336095)
--(axis cs:2860.88,-12.6801248212742)
--(axis cs:2860.86,-12.7893147208346)
--(axis cs:2860.84,-12.9112031935433)
--(axis cs:2860.82,-13.0461877216118)
--(axis cs:2860.8,-13.1947022846448)
--(axis cs:2860.78,-13.3572579756951)
--(axis cs:2860.76,-13.5344173226275)
--(axis cs:2860.74,-13.7267939665484)
--(axis cs:2860.72,-13.9350983701898)
--(axis cs:2860.7,-14.1600904385547)
--(axis cs:2860.68,-14.4026442771694)
--(axis cs:2860.66,-14.6637177432306)
--(axis cs:2860.64,-14.9443655506338)
--(axis cs:2860.62,-15.2457776067309)
--(axis cs:2860.6,-15.5692636633768)
--(axis cs:2860.58,-15.9162676939242)
--(axis cs:2860.56,-16.2884132524624)
--(axis cs:2860.54,-16.6747063296819)
--(axis cs:2860.52,-16.8605196001469)
--(axis cs:2860.5,-17.0253355426905)
--(axis cs:2860.48,-17.1895136337769)
--(axis cs:2860.46,-17.3517110697869)
--(axis cs:2860.44,-17.5104671432844)
--(axis cs:2860.42,-17.6641865805132)
--(axis cs:2860.4,-17.8111547487725)
--(axis cs:2860.38,-17.9496071913298)
--(axis cs:2860.36,-18.0776926037147)
--(axis cs:2860.34,-18.1935913329783)
--(axis cs:2860.32,-18.2955303304115)
--(axis cs:2860.3,-18.3818575788661)
--(axis cs:2860.28,-18.4511091586915)
--(axis cs:2860.26,-18.5020898288727)
--(axis cs:2860.24,-18.5338748229999)
--(axis cs:2860.22,-18.5459369351287)
--(axis cs:2860.2,-18.5381406026528)
--(axis cs:2860.18,-18.5107150242319)
--(axis cs:2860.16,-18.4642869848486)
--(axis cs:2860.14,-18.3998316435359)
--(axis cs:2860.12,-18.3186396650047)
--(axis cs:2860.1,-18.222224968902)
--(axis cs:2860.08,-18.1122591641015)
--(axis cs:2860.06,-17.9905496896464)
--(axis cs:2860.04,-17.8589165606141)
--(axis cs:2860.02,-17.7192154747451)
--(axis cs:2860,-17.5731855608001)
--(axis cs:2859.98,-17.422540648512)
--(axis cs:2859.96,-17.2688179822939)
--(axis cs:2859.94,-17.1134868195339)
--(axis cs:2859.92,-16.9578511796209)
--(axis cs:2859.9,-16.5699851332111)
--(axis cs:2859.88,-16.1871049037806)
--(axis cs:2859.86,-15.8301265868773)
--(axis cs:2859.84,-15.4975021263874)
--(axis cs:2859.82,-15.1877984141237)
--(axis cs:2859.8,-14.8997012482208)
--(axis cs:2859.78,-14.6320729453969)
--(axis cs:2859.76,-14.3838306343736)
--(axis cs:2859.74,-14.1540362159038)
--(axis cs:2859.72,-13.94185137075)
--(axis cs:2859.7,-13.7465043968846)
--(axis cs:2859.68,-13.5673329510434)
--(axis cs:2859.66,-13.4037569079777)
--(axis cs:2859.64,-13.2552453778567)
--(axis cs:2859.62,-13.1213497384279)
--(axis cs:2859.6,-13.0016708879077)
--(axis cs:2859.58,-12.895914231186)
--(axis cs:2859.56,-12.8037959583889)
--(axis cs:2859.54,-12.7251357992868)
--(axis cs:2859.52,-12.6597706267763)
--(axis cs:2859.5,-12.607643858129)
--(axis cs:2859.48,-12.5687477190014)
--(axis cs:2859.46,-12.5431268351927)
--(axis cs:2859.44,-12.530911245407)
--(axis cs:2859.42,-12.5323301538792)
--(axis cs:2859.4,-12.5476713224104)
--(axis cs:2859.38,-12.5773547510606)
--(axis cs:2859.36,-12.6218955486724)
--(axis cs:2859.34,-12.6819886328596)
--(axis cs:2859.32,-12.7584748250121)
--(axis cs:2859.3,-12.8524169942669)
--(axis cs:2859.28,-12.9651200652747)
--(axis cs:2859.26,-13.0982346388058)
--(axis cs:2859.24,-13.2538250591436)
--(axis cs:2859.22,-13.4344976271439)
--(axis cs:2859.2,-13.6434849290427)
--(axis cs:2859.18,-13.8850028052494)
--(axis cs:2859.16,-14.1644039995673)
--(axis cs:2859.14,-14.4885978895065)
--(axis cs:2859.12,-14.8665726640936)
--(axis cs:2859.1,-15.3097172338989)
--(axis cs:2859.08,-15.8325447759)
--(axis cs:2859.06,-16.4518850384153)
--(axis cs:2859.04,-17.1851879321606)
--(axis cs:2859.02,-18.036281479331)
--(axis cs:2859,-18.9798037055692)
--(axis cs:2858.98,-19.9152560783056)
--(axis cs:2858.96,-20.6050328549671)
--(axis cs:2858.94,-20.7523144964474)
--(axis cs:2858.92,-20.3287661883015)
--(axis cs:2858.9,-19.6202908937432)
--(axis cs:2858.88,-18.9361227436972)
--(axis cs:2858.86,-18.4311024288899)
--(axis cs:2858.84,-18.1379310733999)
--(axis cs:2858.82,-18.0311243552531)
--(axis cs:2858.8,-18.0718057510868)
--(axis cs:2858.78,-18.2262752753352)
--(axis cs:2858.76,-18.0026033422069)
--(axis cs:2858.74,-17.8377095178933)
--(axis cs:2858.72,-17.7179931084801)
--(axis cs:2858.7,-17.6296411891953)
--(axis cs:2858.68,-17.5624961119708)
--(axis cs:2858.66,-17.5090796777107)
--(axis cs:2858.64,-17.4638559694254)
--(axis cs:2858.62,-17.4227276314242)
--(axis cs:2858.6,-17.382699771728)
--(axis cs:2858.58,-17.3415878276624)
--(axis cs:2858.56,-17.2978592666934)
--(axis cs:2858.54,-17.2504806155044)
--(axis cs:2858.52,-17.1988251491949)
--(axis cs:2858.5,-17.1425856937117)
--(axis cs:2858.48,-17.0817121986151)
--(axis cs:2858.46,-17.0163568114509)
--(axis cs:2858.44,-16.9468270107279)
--(axis cs:2858.42,-16.8735501283059)
--(axis cs:2858.4,-16.7970363899261)
--(axis cs:2858.38,-16.7178544318287)
--(axis cs:2858.36,-16.6366052865275)
--(axis cs:2858.34,-16.5539026195469)
--(axis cs:2858.32,-16.4703595879468)
--(axis cs:2858.3,-16.3865748020425)
--(axis cs:2858.28,-16.3031192161943)
--(axis cs:2858.26,-16.2205319426356)
--(axis cs:2858.24,-16.1393200940824)
--(axis cs:2858.22,-16.059944568965)
--(axis cs:2858.2,-15.9828277443803)
--(axis cs:2858.18,-15.7120319422288)
--(axis cs:2858.16,-15.4118355749566)
--(axis cs:2858.14,-15.1318427039211)
--(axis cs:2858.12,-14.8712354927773)
--(axis cs:2858.1,-14.6292257806136)
--(axis cs:2858.08,-14.4050578283039)
--(axis cs:2858.06,-14.1980276891364)
--(axis cs:2858.04,-14.0074716630674)
--(axis cs:2858.02,-13.8327821618277)
--(axis cs:2858,-13.6734006770465)
--(axis cs:2857.98,-13.528807205163)
--(axis cs:2857.96,-13.3983532667243)
--(axis cs:2857.94,-13.2815591652003)
--(axis cs:2857.92,-13.1784478395181)
--(axis cs:2857.9,-13.0886769396157)
--(axis cs:2857.88,-13.0119273248477)
--(axis cs:2857.86,-12.9479280858194)
--(axis cs:2857.84,-12.8964430510893)
--(axis cs:2857.82,-12.8571760234815)
--(axis cs:2857.8,-12.8295256067789)
--(axis cs:2857.78,-12.8137445112936)
--(axis cs:2857.76,-12.8097116783273)
--(axis cs:2857.74,-12.8173330424436)
--(axis cs:2857.72,-12.8365541764997)
--(axis cs:2857.7,-12.8673233432458)
--(axis cs:2857.68,-12.909629015456)
--(axis cs:2857.66,-12.9634745848403)
--(axis cs:2857.64,-13.0288533262591)
--(axis cs:2857.62,-13.1058056536259)
--(axis cs:2857.6,-13.1943786129349)
--(axis cs:2857.58,-13.2945994494666)
--(axis cs:2857.56,-13.4065326613668)
--(axis cs:2857.54,-13.5302168296997)
--(axis cs:2857.52,-13.6656970855844)
--(axis cs:2857.5,-13.812985552983)
--(axis cs:2857.48,-13.9720913792846)
--(axis cs:2857.46,-14.1429654699991)
--(axis cs:2857.44,-14.3255462692438)
--(axis cs:2857.42,-14.5196498959567)
--(axis cs:2857.4,-14.7250330340741)
--(axis cs:2857.38,-14.9413186753018)
--(axis cs:2857.36,-15.1680221422738)
--(axis cs:2857.34,-15.2925003830785)
--(axis cs:2857.32,-15.2731108722356)
--(axis cs:2857.3,-15.2508796912568)
--(axis cs:2857.28,-15.2260317731302)
--(axis cs:2857.26,-15.1988131671724)
--(axis cs:2857.24,-15.1695120917765)
--(axis cs:2857.22,-15.1384069676301)
--(axis cs:2857.2,-15.105892030634)
--(axis cs:2857.18,-15.0723430404527)
--(axis cs:2857.16,-15.0382069251486)
--(axis cs:2857.14,-15.0039193549643)
--(axis cs:2857.12,-14.9699339637161)
--(axis cs:2857.1,-14.9367334548649)
--(axis cs:2857.08,-14.9047785223477)
--(axis cs:2857.06,-14.8745905040834)
--(axis cs:2857.04,-14.8466772863602)
--(axis cs:2857.02,-14.8214382133737)
--(axis cs:2857,-14.7994493346204)
--(axis cs:2856.98,-14.7811568554765)
--(axis cs:2856.96,-14.7670217533962)
--(axis cs:2856.94,-14.7575267034432)
--(axis cs:2856.92,-14.7530615557049)
--(axis cs:2856.9,-14.7541418413118)
--(axis cs:2856.88,-14.7611880164702)
--(axis cs:2856.86,-14.7745613529439)
--(axis cs:2856.84,-14.7947594125035)
--(axis cs:2856.82,-14.8220831949889)
--(axis cs:2856.8,-14.8570376621019)
--(axis cs:2856.78,-14.8998900794988)
--(axis cs:2856.76,-14.9510148504379)
--(axis cs:2856.74,-15.0107780928666)
--(axis cs:2856.72,-15.0794752425006)
--(axis cs:2856.7,-15.1575243446251)
--(axis cs:2856.68,-15.2451260763515)
--(axis cs:2856.66,-15.2679882644584)
--(axis cs:2856.64,-15.1002325785526)
--(axis cs:2856.62,-14.9476659712966)
--(axis cs:2856.6,-14.8111371887443)
--(axis cs:2856.58,-14.6910424443876)
--(axis cs:2856.56,-14.5882123017291)
--(axis cs:2856.54,-14.5030768930832)
--(axis cs:2856.52,-14.4363467300309)
--(axis cs:2856.5,-14.3890890419515)
--(axis cs:2856.48,-14.3621906145402)
--(axis cs:2856.46,-14.3565449826022)
--(axis cs:2856.44,-14.3737271824146)
--(axis cs:2856.42,-14.4151184849505)
--(axis cs:2856.4,-14.4828050795507)
--(axis cs:2856.38,-14.5792013601621)
--(axis cs:2856.36,-14.7071644589342)
--(axis cs:2856.34,-14.8699348439136)
--(axis cs:2856.32,-15.0718021744561)
--(axis cs:2856.3,-15.3179957691899)
--(axis cs:2856.28,-15.6153367193256)
--(axis cs:2856.26,-15.9712201658025)
--(axis cs:2856.24,-16.3960597715319)
--(axis cs:2856.22,-16.9030212713433)
--(axis cs:2856.2,-17.5088123599203)
--(axis cs:2856.18,-18.2344270918)
--(axis cs:2856.16,-19.0347586196693)
--(axis cs:2856.14,-18.9361659110231)
--(axis cs:2856.12,-18.8759971892377)
--(axis cs:2856.1,-18.8661252358179)
--(axis cs:2856.08,-18.9187796775806)
--(axis cs:2856.06,-19.0486352586723)
--(axis cs:2856.04,-19.2639336978795)
--(axis cs:2856.02,-19.5773777474676)
--(axis cs:2856,-19.9989399370946)
--(axis cs:2855.98,-20.5342289635599)
--(axis cs:2855.96,-21.1869413115542)
--(axis cs:2855.94,-21.9531730222489)
--(axis cs:2855.92,-21.1910384021728)
--(axis cs:2855.9,-20.4389157188142)
--(axis cs:2855.88,-19.818672372414)
--(axis cs:2855.86,-19.3142001221346)
--(axis cs:2855.84,-18.9101198342391)
--(axis cs:2855.82,-18.432997360758)
--(axis cs:2855.8,-18.0101057471854)
--(axis cs:2855.78,-17.6652601571103)
--(axis cs:2855.76,-17.3828571281393)
--(axis cs:2855.74,-17.1498807591399)
--(axis cs:2855.72,-16.9554796755567)
--(axis cs:2855.7,-16.7906808089398)
--(axis cs:2855.68,-16.6486047547205)
--(axis cs:2855.66,-16.2979511715596)
--(axis cs:2855.64,-15.7998688058642)
--(axis cs:2855.62,-15.3527928470208)
--(axis cs:2855.6,-14.9512193554496)
--(axis cs:2855.58,-14.5897342303555)
--(axis cs:2855.56,-14.2649400251707)
--(axis cs:2855.54,-13.9731064301775)
--(axis cs:2855.52,-13.7115932634871)
--(axis cs:2855.5,-13.4779592334641)
--(axis cs:2855.48,-13.270515638532)
--(axis cs:2855.46,-13.087196448808)
--(axis cs:2855.44,-12.9269091741396)
--(axis cs:2855.42,-12.7883671775214)
--(axis cs:2855.4,-12.6705320080055)
--(axis cs:2855.38,-12.5727658787211)
--(axis cs:2855.36,-12.4942695764173)
--(axis cs:2855.34,-12.4346411384524)
--(axis cs:2855.32,-12.3933777417868)
--(axis cs:2855.3,-12.3702942454232)
--(axis cs:2855.28,-12.3650793423841)
--(axis cs:2855.26,-12.3777506220948)
--(axis cs:2855.24,-12.4082302003114)
--(axis cs:2855.22,-12.4565660197366)
--(axis cs:2855.2,-12.5228909888113)
--(axis cs:2855.18,-12.6074003855627)
--(axis cs:2855.16,-12.7103860144458)
--(axis cs:2855.14,-12.8321453104916)
--(axis cs:2855.12,-12.9729266862486)
--(axis cs:2855.1,-13.1332126082682)
--(axis cs:2855.08,-13.3132749281848)
--(axis cs:2855.06,-13.5134480349148)
--(axis cs:2855.04,-13.7340823712638)
--(axis cs:2855.02,-13.9752503281781)
--(axis cs:2855,-14.147358508819)
--(axis cs:2854.98,-14.255827234057)
--(axis cs:2854.96,-14.2901474521981)
--(axis cs:2854.94,-14.3308671219366)
--(axis cs:2854.92,-14.3773132777668)
--(axis cs:2854.9,-14.4284720752995)
--(axis cs:2854.88,-14.4833970133154)
--(axis cs:2854.86,-14.5408014099134)
--(axis cs:2854.84,-14.5994029941721)
--(axis cs:2854.82,-14.6576237139568)
--(axis cs:2854.8,-14.7138746362417)
--(axis cs:2854.78,-14.766374903148)
--(axis cs:2854.76,-14.8132406836414)
--(axis cs:2854.74,-14.8525917455472)
--(axis cs:2854.72,-14.8825373083316)
--(axis cs:2854.7,-14.9012193498578)
--(axis cs:2854.68,-14.9069775061417)
--(axis cs:2854.66,-14.8982905992089)
--(axis cs:2854.64,-14.8740019084671)
--(axis cs:2854.62,-14.833276554941)
--(axis cs:2854.6,-14.7756644639188)
--(axis cs:2854.58,-14.7012052253914)
--(axis cs:2854.56,-14.6102767494751)
--(axis cs:2854.54,-14.4960532624742)
--(axis cs:2854.52,-14.3569458897846)
--(axis cs:2854.5,-14.1941906224653)
--(axis cs:2854.48,-13.7779462217633)
--(axis cs:2854.46,-13.3789026254095)
--(axis cs:2854.44,-13.0001706524401)
--(axis cs:2854.42,-12.6426454401773)
--(axis cs:2854.4,-12.3067849936061)
--(axis cs:2854.38,-11.9926810531832)
--(axis cs:2854.36,-11.700221189824)
--(axis cs:2854.34,-11.4291416272127)
--(axis cs:2854.32,-11.1790871328292)
--(axis cs:2854.3,-10.9496722416499)
--(axis cs:2854.28,-10.7404897452152)
--(axis cs:2854.26,-10.5511529605877)
--(axis cs:2854.24,-10.3812974808003)
--(axis cs:2854.22,-10.2306044592093)
--(axis cs:2854.2,-10.0988108247303)
--(axis cs:2854.18,-9.98572259396963)
--(axis cs:2854.16,-9.89119657688773)
--(axis cs:2854.14,-9.81518661361459)
--(axis cs:2854.12,-9.75771366022274)
--(axis cs:2854.1,-9.71890264262478)
--(axis cs:2854.08,-9.69896274455301)
--(axis cs:2854.06,-9.69821279218408)
--(axis cs:2854.04,-9.71709519823991)
--(axis cs:2854.02,-9.75616047341443)
--(axis cs:2854,-9.81610475995792)
--(axis cs:2853.98,-9.89777391429549)
--(axis cs:2853.96,-10.0021828159299)
--(axis cs:2853.94,-10.1305284756382)
--(axis cs:2853.92,-10.2842235648761)
--(axis cs:2853.9,-10.4649170602671)
--(axis cs:2853.88,-10.6745352828211)
--(axis cs:2853.86,-10.9153157807904)
--(axis cs:2853.84,-11.1898628699167)
--(axis cs:2853.82,-11.501201202437)
--(axis cs:2853.8,-11.8528486451424)
--(axis cs:2853.78,-12.2393238434504)
--(axis cs:2853.76,-12.667529319794)
--(axis cs:2853.74,-13.1474842466041)
--(axis cs:2853.72,-13.6847812635274)
--(axis cs:2853.7,-14.1104064628318)
--(axis cs:2853.68,-14.4936492379968)
--(axis cs:2853.66,-14.8971191940381)
--(axis cs:2853.64,-15.3149895825566)
--(axis cs:2853.62,-15.7382958724553)
--(axis cs:2853.6,-16.1540281359996)
--(axis cs:2853.58,-16.5444047678969)
--(axis cs:2853.56,-16.8868326417487)
--(axis cs:2853.54,-17.1552504452339)
--(axis cs:2853.52,-17.3234884865908)
--(axis cs:2853.5,-17.3704758504496)
--(axis cs:2853.48,-17.2857336628824)
--(axis cs:2853.46,-17.0631830167625)
--(axis cs:2853.44,-16.7261739651071)
--(axis cs:2853.42,-16.3099262433701)
--(axis cs:2853.4,-15.8293624493421)
--(axis cs:2853.38,-15.1935946611834)
--(axis cs:2853.36,-14.3467063732566)
--(axis cs:2853.34,-13.5549763324054)
--(axis cs:2853.32,-12.849068131852)
--(axis cs:2853.3,-12.2229399157218)
--(axis cs:2853.28,-11.6717585539856)
--(axis cs:2853.26,-11.1922343253621)
--(axis cs:2853.24,-10.7827614407363)
--(axis cs:2853.22,-10.4433895808071)
--(axis cs:2853.2,-10.1753990972361)
--(axis cs:2853.18,-9.98008913951491)
--(axis cs:2853.16,-9.85561899561596)
--(axis cs:2853.14,-9.79144542949788)
--(axis cs:2853.12,-9.76110037507531)
--(axis cs:2853.1,-9.7199802632579)
--(axis cs:2853.08,-9.61911391751329)
--(axis cs:2853.06,-9.43306979862076)
--(axis cs:2853.04,-9.17635552749431)
--(axis cs:2853.02,-8.88892405894369)
--(axis cs:2853,-8.60996896012899)
--(axis cs:2852.98,-8.36447300717047)
--(axis cs:2852.96,-8.16357314748287)
--(axis cs:2852.94,-8.00996153066564)
--(axis cs:2852.92,-7.90242537204183)
--(axis cs:2852.9,-7.83855172355854)
--(axis cs:2852.88,-7.81603768548906)
--(axis cs:2852.86,-7.83330652267068)
--(axis cs:2852.84,-7.88952966938435)
--(axis cs:2852.82,-7.9848483587653)
--(axis cs:2852.8,-8.12022256523348)
--(axis cs:2852.78,-8.29756354604287)
--(axis cs:2852.76,-8.51971397374979)
--(axis cs:2852.74,-8.79059302459083)
--(axis cs:2852.72,-9.11533053464219)
--(axis cs:2852.7,-9.50057305017683)
--(axis cs:2852.68,-9.95479538235228)
--(axis cs:2852.66,-10.4889706943349)
--(axis cs:2852.64,-11.1174213042316)
--(axis cs:2852.62,-11.8591981516363)
--(axis cs:2852.6,-12.7404683005045)
--(axis cs:2852.58,-13.7984927068659)
--(axis cs:2852.56,-15.0891190431552)
--(axis cs:2852.54,-16.7020663406551)
--(axis cs:2852.52,-18.472785876586)
--(axis cs:2852.5,-20.3382221596289)
--(axis cs:2852.48,-22.3868316067523)
--(axis cs:2852.46,-24.0942659109176)
--(axis cs:2852.44,-24.1870837661378)
--(axis cs:2852.42,-22.5445379528453)
--(axis cs:2852.4,-20.3647286617676)
--(axis cs:2852.38,-17.8197436219779)
--(axis cs:2852.36,-15.7694797767436)
--(axis cs:2852.34,-14.1265766101946)
--(axis cs:2852.32,-12.7862987574432)
--(axis cs:2852.3,-11.668600739382)
--(axis cs:2852.28,-10.7227418062251)
--(axis cs:2852.26,-9.91434006457622)
--(axis cs:2852.24,-9.21890076444727)
--(axis cs:2852.22,-8.61828864886326)
--(axis cs:2852.2,-8.09865347767614)
--(axis cs:2852.18,-7.64919864381338)
--(axis cs:2852.16,-7.26136540999888)
--(axis cs:2852.14,-6.9283160112638)
--(axis cs:2852.12,-6.64456431244329)
--(axis cs:2852.1,-6.40574329304862)
--(axis cs:2852.08,-6.20842255020759)
--(axis cs:2852.06,-6.05000142042467)
--(axis cs:2852.04,-5.92861852445399)
--(axis cs:2852.02,-5.84311966690548)
--(axis cs:2852,-5.79303022941952)
--(axis cs:2851.98,-5.77857172474228)
--(axis cs:2851.96,-5.80068767448386)
--(axis cs:2851.94,-5.86111152570967)
--(axis cs:2851.92,-5.96246018293155)
--(axis cs:2851.9,-6.10837293136474)
--(axis cs:2851.88,-6.30369001840901)
--(axis cs:2851.86,-6.55470612529215)
--(axis cs:2851.84,-6.86949342926194)
--(axis cs:2851.82,-7.25834026402789)
--(axis cs:2851.8,-7.73433715011668)
--(axis cs:2851.78,-8.31412568670244)
--(axis cs:2851.76,-9.01264188172748)
--(axis cs:2851.74,-9.83834812661278)
--(axis cs:2851.72,-10.8341430675807)
--(axis cs:2851.7,-12.0288899787211)
--(axis cs:2851.68,-13.3855871435661)
--(axis cs:2851.66,-14.7915741712415)
--(axis cs:2851.64,-16.058834155198)
--(axis cs:2851.62,-16.6860877245168)
--(axis cs:2851.6,-16.2537150001693)
--(axis cs:2851.58,-14.9393387044917)
--(axis cs:2851.56,-13.3555084888798)
--(axis cs:2851.54,-11.8491114370555)
--(axis cs:2851.52,-10.464585431444)
--(axis cs:2851.5,-9.27464424159955)
--(axis cs:2851.48,-8.28319241982308)
--(axis cs:2851.46,-7.45741693287978)
--(axis cs:2851.44,-6.76279177895953)
--(axis cs:2851.42,-6.18532878555227)
--(axis cs:2851.4,-5.70695991946275)
--(axis cs:2851.38,-5.31322439819195)
--(axis cs:2851.36,-4.99283293783557)
--(axis cs:2851.34,-4.73714552845505)
--(axis cs:2851.32,-4.53979581199933)
--(axis cs:2851.3,-4.39643589672499)
--(axis cs:2851.28,-4.3045926079547)
--(axis cs:2851.26,-4.2636174459309)
--(axis cs:2851.24,-4.27473108717628)
--(axis cs:2851.22,-4.34115330171102)
--(axis cs:2851.2,-4.46830408903433)
--(axis cs:2851.18,-4.6640324308313)
--(axis cs:2851.16,-4.9387578251246)
--(axis cs:2851.14,-5.30522810636701)
--(axis cs:2851.12,-5.77722812486103)
--(axis cs:2851.1,-6.3657399797238)
--(axis cs:2851.08,-7.05036768828842)
--(axis cs:2851.06,-7.7982299511328)
--(axis cs:2851.04,-8.46432237865278)
--(axis cs:2851.02,-8.90410213113626)
--(axis cs:2851,-8.9536349393654)
--cycle;

\end{axis}

\end{tikzpicture}

