        Z / mm                e-field (f=2852.2) (1)_Abs (Z)/real
----------------------------------------------------------------------
                  -24.65                               0
              -23.281193                               0
              -21.912385                               0
              -20.543578                               0
              -19.174771                               0
              -17.805963                               0
              -16.437156                        9866.765
              -15.068349                       10935.852
              -13.699541                       11367.057
              -12.330734                       12100.228
              -10.961927                       12883.597
              -9.5931193                       13958.844
              -8.2243119                       14245.792
              -6.8555046                        14513.93
              -5.4866972                       14713.581
              -4.1178899                       14865.967
              -2.7490826                       14943.934
              -1.3802752                        14952.66
             -0.01146789                        14954.02
               1.3573394                       14948.014
               2.7261468                       14934.661
               4.0949541                       14920.544
               5.4637615                       14878.498
               6.8325688                       14669.995
               8.2013761                         14378.8
               9.5701835                       14034.933
               10.938991                       13704.061
               12.307798                       13143.736
               13.676606                       12676.641
               15.045413                       12451.681
                16.41422                       13030.205
               17.783028                       13948.856
               19.151835                       15578.251
               20.520642                       17884.992
                21.88945                        19389.71
               23.258257                       20493.668
               24.627064                       21294.902
               25.995872                       21737.079
               27.364679                       22113.951
               28.733486                       22436.936
               30.102294                       22755.119
               31.471101                       22767.681
               32.839908                       22772.414
               34.208716                       22754.082
               35.577523                       22718.961
                36.94633                       22660.285
               38.315138                       22570.608
               39.683945                       22212.504
               41.052752                       21676.712
                42.42156                       21071.873
               43.790367                       20472.895
               45.159174                       19694.625
               46.527982                       18445.331
               47.896789                       16621.268
               49.265596                       15852.191
               50.634404                       15569.564
               52.003211                       15838.241
               53.372018                       17331.632
               54.740826                       18557.029
               56.109633                        19794.68
                57.47844                       20360.417
               58.847248                       20793.621
               60.216055                       21153.476
               61.584862                       21461.117
                62.95367                       21553.233
               64.322477                       21565.644
               65.691284                       21569.419
               67.060092                       21564.577
               68.428899                       21551.122
               69.797706                       21529.039
               71.166514                       21394.527
               72.535321                       20954.279
               73.904128                       20448.547
               75.272936                        19877.17
               76.641743                       19288.478
                78.01055                       18045.175
               79.379358                       16641.297
               80.748165                        14942.95
               82.116972                         12667.8
                83.48578                       11832.026
               84.854587                       11123.469
               86.223394                       10953.923
               87.592202                       11211.413
               88.961009                       11442.506
               90.329817                        11692.04
               91.698624                       11965.385
               93.067431                       12085.409
               94.436239                       12165.662
               95.805046                       12237.076
               97.173853                       12302.328
               98.542661                       12296.245
               99.911468                       12282.651
               101.28028                       12261.365
               102.64908                       12239.787
               104.01789                       12217.921
                105.3867                       12076.716
                106.7555                        11822.11
               108.12431                       11539.755
               109.49312                       11283.426
               110.86193                        10988.29
               112.23073                       10105.697
               113.59954                       9440.3499
               114.96835                       8903.4585
               116.33716                       8380.7211
               117.70596                               0
               119.07477                               0
               120.44358                               0
               121.81239                               0
               123.18119                               0
                  124.55                               0

