        Z / mm                e-field (f=2856.6) (1)_Abs (Z)/real
----------------------------------------------------------------------
                  -24.65                               0
              -23.281193                               0
              -21.912385                               0
              -20.543578                               0
              -19.174771                               0
              -17.805963                               0
              -16.437156                       17507.015
              -15.068349                        19402.16
              -13.699541                       20166.036
              -12.330734                       21461.531
              -10.961927                       22845.079
              -9.5931193                       24745.112
              -8.2243119                       25242.282
              -6.8555046                       25707.505
              -5.4866972                       26053.745
              -4.1178899                       26319.047
              -2.7490826                       26428.611
              -1.3802752                       26358.924
             -0.01146789                       26262.512
               1.3573394                        26139.34
               2.7261468                        25989.39
               4.0949541                       25892.851
               5.4637615                       25721.012
               6.8325688                       24946.616
               8.2013761                       23641.724
               9.5701835                       22004.259
               10.938991                       20460.143
               12.307798                       17901.084
               13.676606                        13696.85
               15.045413                       9677.7859
                16.41422                        4588.427
               17.783028                       1083.0978
               19.151835                       4397.5827
               20.520642                       8340.8614
                21.88945                       10991.153
               23.258257                       12542.311
               24.627064                       13673.994
               25.995872                       14275.746
               27.364679                       14797.477
               28.733486                       15246.067
               30.102294                       15676.519
               31.471101                       15723.358
               32.839908                       15758.607
               34.208716                        15774.17
               35.577523                       15772.983
                36.94633                       15764.793
               38.315138                       15730.423
               39.683945                        15485.47
               41.052752                       15113.983
                42.42156                       14693.412
               43.790367                       14276.482
               45.159174                       13730.613
               46.527982                       12826.111
               47.896789                       11524.559
               49.265596                       10957.306
               50.634404                       10736.717
               52.003211                       10906.573
               53.372018                       11928.538
               54.740826                        12769.96
               56.109633                       13620.001
                57.47844                       14002.591
               58.847248                       14294.137
               60.216055                       14536.695
               61.584862                       14743.114
                62.95367                       14779.015
               64.322477                        14754.18
               65.691284                        14721.23
               67.060092                       14680.174
               68.428899                       14631.016
               69.797706                       14573.754
               71.166514                       14380.767
               72.535321                       13804.919
               73.904128                       13134.842
               75.272936                       12370.234
               76.641743                       11564.458
                78.01055                       9616.2977
               79.379358                       7302.2542
               80.748165                       4433.9204
               82.116972                       664.74103
                83.48578                        4875.896
               84.854587                       9723.1533
               86.223394                       14015.548
               87.592202                        17555.12
               88.961009                        20451.09
               90.329817                       22201.261
               91.698624                       24140.854
               93.067431                       24879.114
               94.436239                       25269.069
               95.805046                       25670.787
               97.173853                       26076.576
               98.542661                       26133.681
               99.911468                       26172.452
               101.28028                       26198.863
               102.64908                       26212.922
               104.01789                       26214.642
                105.3867                        25935.62
                106.7555                       25400.575
               108.12431                       24805.775
               109.49312                       24269.527
               110.86193                       23648.344
               112.23073                       21751.598
               113.59954                       20322.923
               114.96835                         19169.9
               116.33716                       18045.767
               117.70596                               0
               119.07477                               0
               120.44358                               0
               121.81239                               0
               123.18119                               0
                  124.55                               0

