\begin{tikzpicture}[>=stealth]
	\draw[<->,thick] (0,6) -- (0,0) -- (10,0); % axis
	\node [above] at (0,6) {\(E_{\textup{ус}}\)};
	\node [right] at (10,0) {\(t\)};
	\draw[blue,dash pattern=on 4pt off 4pt,ultra thick] (0,4) -- (2.2,4); % input power original
	\draw[blue] decorate [decoration={crosses,transform={shift only},shape size=1.5mm}] {(0,4) %
	    -- (2.2,4)}; % input power original decoration
	\draw[blue,ultra thick] (0,0) -- (0,4.55) -- (2.2,4.55) -- (2.2,4) -- (9,4); % input power new
	\draw[blue]  decorate [decoration={crosses,transform={shift only},shape size=1.5mm}] %
	{(0,0) -- (0,4.55) -- (2.2,4.55) -- (2.2,4) -- (9,4)}; % input power new decoration
	\draw[red,dash pattern=on 4pt off 4pt,ultra thick, domain=0:9] plot (\x, {4*(1 - exp(-0.4*\x))}); % fill plot original
	\draw[red,ultra thick, domain=0:2.2] plot (\x, {4.55*(1 - exp(-0.67*\x))}); % fill plot new before
	\draw[red,ultra thick, domain=2.2:9] plot (\x, {4*(1 - exp(-1.22-0.4*\x))}); % fill plot new after
	\draw[help lines] (2.2,0) -- (2.2,5); % fill end new
	\draw[<->, thin] (2.2,5) -- (5.3,5); % delta t
	\draw[help lines] (0,3.5) -- (10,3.5); % E0
	\draw[help lines] (0,4) -- (10,4); % E1
	\draw[help lines] (0,4.55) -- (10,4.55); % E2
	\draw[<->, thin] (10,4) -- (10,4.55); % delta E
	\draw[help lines] (5.3,0) -- (5.3,5); % fill end original
	\node [left] at (0,4) {\(E_1\)};
	\node [left] at (0,4.55) {\(E_2\)};
	\node [left] at (0,3.5) {\(E_0\)};
	\node [above] at (3.75,5) {\(\Delta t\)};
	\node [below] at (2.2,0) {\(t_1\)};
	\node [below] at (5.3,0) {\(t_2\)};
	\node [left] at (10,4.3) {\(\Delta E\)};
\end{tikzpicture}
