"f0","Q0","Kh","Ke","Rsh","chi","P","phi","Ib","Iphi","df0","X0","dX0","cell_width"
2855.45,14000,0.03,0.31,100,2.973,20,0,0,0,0.3,0,0,1
2855.55,14000,0.03,0.29,100,0,0,0,0,0,0.3,0,0,1
2855.65,14000,0,0,100,0,0,0,0,0,0.3,0,0,1
