        Z / mm                e-field (f=2852.7) (1)_Abs (Z)/real
----------------------------------------------------------------------
                  -24.65                               0
              -23.586697                               0
              -22.523394                               0
              -21.460092                               0
              -20.396789                               0
              -19.333486                               0
              -18.270183                               0
              -17.206881                               0
              -16.143578                       15882.099
              -15.080275                       16582.659
              -14.016972                       17316.562
               -12.95367                       18264.705
              -11.890367                       19310.012
              -10.827064                       20208.486
              -9.7637615                       20735.534
              -8.7004587                       21227.098
               -7.637156                       21876.858
              -6.5738532                       22076.676
              -5.5105505                       22219.014
              -4.4472477                       22328.901
               -3.383945                       22421.553
              -2.3206422                       22496.972
              -1.2573394                       22555.159
              -0.1940367                       22596.107
              0.86926606                       22619.818
               1.9325688                       22626.299
               2.9958716                       22615.548
               4.0591743                       22587.567
               5.1224771                       22544.342
               6.1857798                       22360.848
               7.2490826                       22031.832
               8.3123853                       21662.392
               9.3756881                       21252.777
               10.438991                       20803.251
               11.502294                        20313.98
               12.565596                       19754.979
               13.628899                       18732.138
               14.692202                       18608.745
               15.755505                       18475.357
               16.818807                        18895.29
                17.88211                       20198.601
               18.945413                       21597.637
               20.008716                       23565.545
               21.072018                       25092.852
               22.135321                        26966.66
               23.198624                       28441.756
               24.261927                       29161.874
               25.325229                       29769.006
               26.388532                       30262.463
               27.451835                       30642.362
               28.515138                       30834.183
                29.57844                       30936.759
               30.641743                       31028.283
               31.705046                       31108.754
               32.768349                       31178.154
               33.831651                        31235.25
               34.894954                       31232.588
               35.958257                       31083.226
                37.02156                       30945.276
               38.084862                        30802.69
               39.148165                       30483.492
               40.211468                        30102.42
               41.274771                       29738.878
               42.338073                       28874.846
               43.401376                       27749.665
               44.464679                       26505.478
               45.527982                       25093.085
               46.591284                       23414.558
               47.654587                       21134.043
                48.71789                       19163.199
               49.781193                       18002.371
               50.844495                       17135.126
               51.907798                       16819.491
               52.971101                       16984.501
               54.034404                       17274.251
               55.097706                       17764.475
               56.161009                       18198.831
               57.224312                       18601.913
               58.287615                       18870.476
               59.350917                       19109.694
                60.41422                       19271.248
               61.477523                       19381.061
               62.540826                       19484.867
               63.604128                       19549.402
               64.667431                       19550.879
               65.730734                       19536.933
               66.794037                       19515.684
               67.857339                       19487.564
               68.920642                       19452.595
               69.983945                       19410.778
               71.047248                       19334.408
                72.11055                       19188.266
               73.173853                       19020.314
               74.237156                       18692.455
               75.300459                       18340.128
               76.363761                       17986.397
               77.427064                       17327.604
               78.490367                       16542.363
                79.55367                       15704.937
               80.616972                       14820.752
               81.680275                       14131.122
               82.743578                       13925.753
               83.806881                               0
               84.870183                               0
               85.933486                               0
               86.996789                               0
               88.060092                               0
               89.123394                               0
               90.186697                               0
                   91.25                               0

