% This file was created by tikzplotlib v0.9.4.
\begin{tikzpicture}

\definecolor{color0}{rgb}{0.12156862745098,0.466666666666667,0.705882352941177}

\begin{axis}[
height=7cm,
tick align=outside,
tick pos=left,
width=10cm,
x grid style={white!69.0196078431373!black},
xlabel={t, \si{\K}},
xmajorgrids,
xmin=-10.8, xmax=314.8,
xtick style={color=black},
y grid style={white!69.0196078431373!black},
ylabel={\beta, \si{\micro\m\per\m}},
ymajorgrids,
ymin=-0.834832, ymax=17.534992,
ytick style={color=black}
]
\addplot [line width=2pt, color0]
table {%
4 0.00016
5 0.00424
6 0.00688
7 0.0106
8 0.0155
9 0.0217
10 0.0294
11 0.0388
12 0.05
13 0.0632
14 0.0786
15 0.112
16 0.196
18 0.196
20 0.273
22 0.366
24 0.493
25 0.555
30 0.999
35 1.58
40 2.28
45 3.05
50 3.85
60 5.48
70 7
80 8.35
90 9.52
100 10.5
120 12.1
140 13.1
160 14.1
180 14.7
200 15.2
220 15.6
240 16
260 16.3
280 16.5
300 16.7
};
\end{axis}

\end{tikzpicture}
