% This file was created by tikzplotlib v0.9.4.
\begin{tikzpicture}

\definecolor{color0}{rgb}{0.12156862745098,0.466666666666667,0.705882352941177}

\begin{axis}[
height=7cm,
tick align=outside,
tick pos=left,
width=10cm,
x grid style={white!69.0196078431373!black},
xlabel={t, \si{\K}},
xmajorgrids,
xmin=-10.8, xmax=314.8,
xtick style={color=black},
y grid style={white!69.0196078431373!black},
ylabel={C, \si{\J\per\kg\per\K}},
ymajorgrids,
ymin=-19.1534, ymax=404.2454,
ytick style={color=black}
]
\addplot [line width=2pt, color0]
table {%
4 0.092
5 0.149
6 0.228
7 0.336
8 0.477
9 0.656
10 0.88
12 1.46
14 2.35
16 3.54
18 5.15
20 7.27
22 9.97
24 13.3
26 17.2
28 21.5
30 26.5
35 41.8
40 56.8
45 77.7
50 90.6
55 116
60 128
65 154
70 170
75 187
80 202
85 216
90 230
95 241
100 252
110 271
120 287
130 301
140 313
150 323
160 331
170 338
180 345
190 351
200 356
210 360
220 364
230 367
240 370
250 374
260 377
270 379
273 380
280 382
290 384
298 385
300 385
};
\end{axis}

\end{tikzpicture}
