% This file was created by tikzplotlib v0.9.4.
\begin{tikzpicture}

\definecolor{color0}{rgb}{0.12156862745098,0.466666666666667,0.705882352941177}

\begin{axis}[
height=7cm,
tick align=outside,
tick pos=left,
width=10cm,
x grid style={white!69.0196078431373!black},
xlabel={t, \si{\K}},
xmajorgrids,
xmin=-9.5, xmax=309.5,
xtick style={color=black},
y grid style={white!69.0196078431373!black},
ylabel={E, \si{\giga\pascal}},
ymajorgrids,
ymin=198.865, ymax=215.035,
ytick style={color=black}
]
\addplot [line width=2pt, color0]
table {%
5 210.1
20 210.1
40 211
60 214.3
80 214.2
100 213.7
120 212.6
140 211.3
160 210
180 208.6
200 207.1
220 205.6
240 204.1
260 202.5
280 200.9
295 199.6
};
\end{axis}

\end{tikzpicture}
