% This file was created by tikzplotlib v0.9.4.
\begin{tikzpicture}

\definecolor{color0}{rgb}{0.12156862745098,0.466666666666667,0.705882352941177}

\begin{axis}[
height=7cm,
tick align=outside,
tick pos=left,
width=10cm,
x grid style={white!69.0196078431373!black},
xlabel={t, \si{\K}},
xmajorgrids,
xmin=-13.95, xmax=314.95,
xtick style={color=black},
y grid style={white!69.0196078431373!black},
ylabel={\beta, \si{\micro\m\per\m}},
ymajorgrids,
ymin=-0.8, ymax=16.8,
ytick style={color=black}
]
\addplot [line width=2pt, color0]
table {%
1 0
10 0.01
20 0.02
30 0.62
40 1.1
50 2.3
60 4.3
70 6.1
80 7.5
90 8.7
100 9.6
120 10.9
140 12
160 12.8
180 13.4
200 14
220 14.5
240 14.9
260 15.3
273 15.5
280 15.6
293 15.9
300 16
};
\end{axis}

\end{tikzpicture}
