% This file was created by tikzplotlib v0.9.4.
\begin{tikzpicture}

\definecolor{color0}{rgb}{0.12156862745098,0.466666666666667,0.705882352941177}

\begin{axis}[
height=5cm,
log basis x={10},
tick align=outside,
tick pos=left,
width=7cm,
x grid style={white!69.0196078431373!black},
xlabel={\(\displaystyle Z_C, \si{\Ohm}\)},
xmajorgrids,
xmin=0.630957344480193, xmax=15848.9319246111,
xmode=log,
xtick style={color=black},
y grid style={white!69.0196078431373!black},
ylabel={\(\displaystyle E_{\textup{макс}}, \si{\kV\per\cm}\)},
ymajorgrids,
ymin=0.229899772250747, ymax=35.6329004625809,
ytick style={color=black}
]
\addplot [line width=2pt, color0]
table {%
10000 2.14772989311416
3162.27766016838 2.17527844698495
1000 2.26913339847784
1000 2.26913339847784
784.759970351461 2.30988471744042
615.848211066026 2.36451879609992
483.293023857175 2.43879232768886
379.269019073225 2.54165255156509
297.635144163132 2.68768352191328
233.572146909012 2.90232355102615
183.298071083244 3.23460531843258
143.844988828766 3.78399502084699
112.883789168469 4.799801030176
88.5866790410082 7.10961144475719
69.5192796177561 15.9748027060717
54.5559478116852 34.023673158475
42.8133239871939 8.6953691991624
33.5981828628378 5.0492397413092
26.3665089873036 3.68501315877246
20.6913808111479 3.00777205739672
16.2377673918872 2.61976640268568
12.7427498570313 2.37829002431455
10 2.2194138079386
10 2.2194138079386
5.62341325190349 2.01096650427542
3.16227766016838 1.91404661581187
3.16227766016838 1.91404661581187
1.77827941003892 1.86506387785888
1 1.83912707635666
};
\end{axis}

\end{tikzpicture}
