% This file was created by tikzplotlib v0.9.4.
\begin{tikzpicture}

\definecolor{color0}{rgb}{0.12156862745098,0.466666666666667,0.705882352941177}
\definecolor{color1}{rgb}{1,0.498039215686275,0.0549019607843137}

\begin{axis}[
height=4.3cm,
legend cell align={left},
legend columns=2,
legend style={fill opacity=1, draw opacity=1, text opacity=1, at={(1,1.02)}, anchor=south east, draw=white!80!black},
tick align=outside,
tick pos=left,
width=5.7cm,
x grid style={white!69.0196078431373!black},
xlabel={\(\displaystyle l, \si{\mm}\)},
xmajorgrids,
xmin=-9.98035714285705, xmax=209.587499999998,
xtick style={color=black},
y grid style={white!69.0196078431373!black},
ylabel={\(\displaystyle E, \si{\kV\per\m}\)},
ymajorgrids,
ymin=0, ymax=15.0688364712359,
ytick style={color=black}
]
\draw[draw=none,fill=color0] (axis cs:8.31696428571421,0) rectangle (axis cs:24.9508928571426,8.01140807089214);
\draw[draw=none,fill=color0] (axis cs:41.584821428571,0) rectangle (axis cs:58.2187499999995,13.7960637791059);
\draw[draw=none,fill=color0] (axis cs:74.8526785714279,0) rectangle (axis cs:91.4866071428563,8.81643679494628);
\draw[draw=none,fill=color0] (axis cs:108.120535714285,0) rectangle (axis cs:124.754464285713,8.92335086482601);
\draw[draw=none,fill=color0] (axis cs:141.388392857142,0) rectangle (axis cs:158.02232142857,14.3512728297485);
\draw[draw=none,fill=color0] (axis cs:174.656249999998,0) rectangle (axis cs:191.290178571427,9.67013368666758);
\addplot [line width=2pt, color0]
table {%
0 5.6661983176671
1.44642857143003 5.9385629531147
2.89285714286001 6.2930549218407
4.33928571428001 6.7446016920803
5.78571428571001 7.1779600951128
7.23214285714002 7.5039062938822
8.67857142857002 7.6794526746008
10.125 7.8332015142038
11.57142857143 7.9663644699394
13.01785714286 8.01311359903
14.46428571428 8.0544820801228
15.91071428571 8.0768729636694
17.35714285714 8.0772497553782
18.80357142857 8.069094417594
20.25 8.0366379346725
21.69642857143 7.9829023030711
23.14285714286 7.8988128083658
24.58928571428 7.7813623109976
26.03571428571 7.5925650393046
27.48214285714 7.357484079812
28.92857142857 7.083497162552
30.375 6.8854519435906
31.82142857143 6.9522098215387
33.26785714286 7.465018688711
34.71428571428 8.3934428017951
36.16071428571 9.6211864297242
37.60714285714 10.811873111985
39.05357142857 11.748279457542
40.5 12.507985133865
41.94642857143 12.934998548671
43.39285714286 13.26156713606
44.83928571428 13.515883146887
46.28571428571 13.616266072056
47.73214285714 13.693370384003
49.17857142857 13.75094987907
50.624999999999 13.746016604282
52.071428571427 13.700897799371
53.517857142856 13.635589006783
54.964285714284 13.480619025939
56.410714285713 13.299321221633
57.857142857141 12.955012048307
59.30357142857 12.501608509343
60.749999999999 11.774481605316
62.196428571427 10.851469354061
63.642857142856 9.7131024281786
65.089285714284 8.6010502801156
66.535714285713 7.7953920277161
67.982142857141 7.5020298569181
69.42857142857 7.6394188177615
70.874999999999 7.9998509872972
72.321428571427 8.3808412268929
73.767857142856 8.696742373663
75.214285714284 8.9110971187668
76.660714285713 9.0808755955425
78.107142857141 9.1636462791238
79.55357142857 9.2233807477347
80.999999999999 9.2653766135984
82.446428571427 9.2599698301291
83.892857142856 9.246193649645
85.339285714284 9.1989243918848
86.785714285713 9.1041841788732
88.232142857141 9.0036831896962
89.67857142857 8.8419107177758
91.124999999999 8.5177670051818
92.571428571427 8.103639940448
94.017857142856 7.5146817207338
95.464285714284 6.6584647757136
96.910714285713 5.602935000988
98.357142857141 4.5889755179666
99.80357142857 4.0658446363305
101.249999999999 4.4078957778388
102.696428571427 5.3185970555296
104.142857142856 6.2910961486712
105.589285714284 7.0846721210027
107.035714285713 7.6597388060623
108.482142857141 8.0984303698739
109.92857142857 8.3229155191299
111.374999999999 8.5196879675079
112.821428571427 8.62907090202
114.267857142856 8.6988542787207
115.714285714284 8.7533752391261
117.160714285713 8.7600654407865
118.607142857141 8.7626532753141
120.05357142857 8.7306021341462
121.499999999999 8.6716342615075
122.946428571427 8.5893134402412
124.392857142856 8.4355609344904
125.839285714284 8.230754720853
127.285714285713 7.9562178118002
128.732142857141 7.6114498497592
130.17857142857 7.3205256195928
131.624999999999 7.2779597314042
133.071428571427 7.6971274366606
134.517857142856 8.6525830965988
135.964285714284 9.9153649061256
137.410714285713 11.169928859038
138.857142857141 12.180695770756
140.30357142857 12.98220940614
141.749999999999 13.459845344119
143.196428571427 13.788903434533
144.642857142856 14.049956615307
146.089285714284 14.18029441359
147.535714285713 14.259725644333
148.982142857141 14.316068918884
150.42857142857 14.315371433564
151.874999999999 14.274294170627
153.321428571427 14.202880688138
154.767857142856 14.078736924135
156.214285714284 13.849662843829
157.660714285713 13.508030547964
159.107142857141 13.097220803031
160.55357142857 12.333194003494
161.999999999999 11.382308889385
163.446428571427 10.245521110768
164.892857142856 9.1060433391686
166.339285714284 8.2960259636826
167.785714285713 8.0737035402024
169.232142857141 8.2982237107193
170.67857142857 8.7624410653553
172.124999999999 9.257138711003
173.571428571427 9.6138193988777
175.017857142856 9.9205139703945
176.464285714284 10.091352249144
177.910714285713 10.217648660701
179.357142857141 10.320261220903
180.80357142857 10.365890105105
182.249999999999 10.379041342217
183.696428571427 10.391228001501
185.142857142856 10.362041007554
186.589285714284 10.300263414451
188.035714285713 10.225677033993
189.482142857141 10.121340526727
190.92857142857 9.8882450999231
192.374999999999 9.5944439979246
193.821428571427 9.2423695351746
195.267857142856 8.6873223852096
196.714285714284 8.0822501365551
198.160714285713 7.6176424749391
199.607142857141 7.3020689438507
};
\addlegendentry{МЭС}
\addplot [line width=2pt, color1]
table {%
0 5.6661983176671
1.44642857143003 5.9385629531147
2.89285714286001 6.2930549218407
4.33928571428001 6.7446016920803
5.78571428571001 7.1779600951128
7.23214285714002 7.5039062938822
8.67857142857002 7.6794526746008
10.125 7.8332015142038
11.57142857143 7.9663644699394
13.01785714286 8.01311359903
14.46428571428 8.0544820801228
15.91071428571 8.0768729636694
17.35714285714 8.0772497553782
18.80357142857 8.069094417594
20.25 8.0366379346725
21.69642857143 7.9829023030711
23.14285714286 7.8988128083658
24.58928571428 7.7813623109976
26.03571428571 7.5925650393046
27.48214285714 7.357484079812
28.92857142857 7.083497162552
30.375 6.8854519435906
31.82142857143 6.9522098215387
33.26785714286 7.465018688711
34.71428571428 8.3934428017951
36.16071428571 9.6211864297242
37.60714285714 10.811873111985
39.05357142857 11.748279457542
40.5 12.507985133865
41.94642857143 12.934998548671
43.39285714286 13.26156713606
44.83928571428 13.515883146887
46.28571428571 13.616266072056
47.73214285714 13.693370384003
49.17857142857 13.75094987907
50.624999999999 13.746016604282
52.071428571427 13.700897799371
53.517857142856 13.635589006783
54.964285714284 13.480619025939
56.410714285713 13.299321221633
57.857142857141 12.955012048307
59.30357142857 12.501608509343
60.749999999999 11.774481605316
62.196428571427 10.851469354061
63.642857142856 9.7131024281786
65.089285714284 8.6010502801156
66.535714285713 7.7953920277161
67.982142857141 7.5020298569181
69.42857142857 7.6394188177615
70.874999999999 7.9998509872972
72.321428571427 8.3808412268929
73.767857142856 8.696742373663
75.214285714284 8.9110971187668
76.660714285713 9.0808755955425
78.107142857141 9.1636462791238
79.55357142857 9.2233807477347
80.999999999999 9.2653766135984
82.446428571427 9.2599698301291
83.892857142856 9.246193649645
85.339285714284 9.1989243918848
86.785714285713 9.1041841788732
88.232142857141 9.0036831896962
89.67857142857 8.8419107177758
91.124999999999 8.5177670051818
92.571428571427 8.103639940448
94.017857142856 7.5146817207338
95.464285714284 6.6584647757136
96.910714285713 5.602935000988
98.357142857141 4.5889755179666
99.80357142857 4.0658446363305
101.249999999999 4.4078957778388
102.696428571427 5.3185970555296
104.142857142856 6.2910961486712
105.589285714284 7.0846721210027
107.035714285713 7.6597388060623
108.482142857141 8.0984303698739
109.92857142857 8.3229155191299
111.374999999999 8.5196879675079
112.821428571427 8.62907090202
114.267857142856 8.6988542787207
115.714285714284 8.7533752391261
117.160714285713 8.7600654407865
118.607142857141 8.7626532753141
120.05357142857 8.7306021341462
121.499999999999 8.6716342615075
122.946428571427 8.5893134402412
124.392857142856 8.4355609344904
125.839285714284 8.230754720853
127.285714285713 7.9562178118002
128.732142857141 7.6114498497592
130.17857142857 7.3205256195928
131.624999999999 7.2779597314042
133.071428571427 7.6971274366606
134.517857142856 8.6525830965988
135.964285714284 9.9153649061256
137.410714285713 11.169928859038
138.857142857141 12.180695770756
140.30357142857 12.98220940614
141.749999999999 13.459845344119
143.196428571427 13.788903434533
144.642857142856 14.049956615307
146.089285714284 14.18029441359
147.535714285713 14.259725644333
148.982142857141 14.316068918884
150.42857142857 14.315371433564
151.874999999999 14.274294170627
153.321428571427 14.202880688138
154.767857142856 14.078736924135
156.214285714284 13.849662843829
157.660714285713 13.508030547964
159.107142857141 13.097220803031
160.55357142857 12.333194003494
161.999999999999 11.382308889385
163.446428571427 10.245521110768
164.892857142856 9.1060433391686
166.339285714284 8.2960259636826
167.785714285713 8.0737035402024
169.232142857141 8.2982237107193
170.67857142857 8.7624410653553
172.124999999999 9.257138711003
173.571428571427 9.6138193988777
175.017857142856 9.9205139703945
176.464285714284 10.091352249144
177.910714285713 10.217648660701
179.357142857141 10.320261220903
180.80357142857 10.365890105105
182.249999999999 10.379041342217
183.696428571427 10.391228001501
185.142857142856 10.362041007554
186.589285714284 10.300263414451
188.035714285713 10.225677033993
189.482142857141 10.121340526727
190.92857142857 9.8882450999231
192.374999999999 9.5944439979246
193.821428571427 9.2423695351746
195.267857142856 8.6873223852096
196.714285714284 8.0822501365551
198.160714285713 7.6176424749391
199.607142857141 7.3020689438507
};
\addlegendentry{МКЭ}
\end{axis}

\end{tikzpicture}
