"f","Mod_db"
2848,-0.0800740045721638
2848.014,-0.080503705448028
2848.028,-0.0809374315855788
2848.042,-0.0813752409335938
2848.056,-0.0818171926090437
2848.07,-0.0822633469278678
2848.084,-0.0827137654365254
2848.098,-0.0831685109447924
2848.112,-0.0836276475594075
2848.126,-0.0840912407189935
2848.14,-0.0845593572300388
2848.154,-0.0850320653041715
2848.168,-0.0855094345965542
2848.182,-0.0859915362456698
2848.196,-0.0864784429145028
2848.21,-0.0869702288328974
2848.224,-0.0874669698416604
2848.238,-0.0879687434379712
2848.252,-0.0884756288225297
2848.266,-0.0889877069481801
2848.28,-0.0895050605703754
2848.294,-0.0900277742993782
2848.308,-0.0905559346543735
2848.322,-0.0910896301193951
2848.336,-0.0916289512013864
2848.35,-0.0921739904903932
2848.364,-0.0927248427217444
2848.378,-0.0932816048407798
2848.392,-0.0938443760697934
2848.406,-0.0944132579776018
2848.42,-0.0949883545515268
2848.434,-0.0955697722722773
2848.448,-0.0961576201915681
2848.462,-0.0967520100128232
2848.476,-0.0973530561747501
2848.49,-0.0979608759383428
2848.504,-0.0985755894773151
2848.518,-0.099197319971805
2848.532,-0.0998261937060856
2848.546,-0.100462340169954
2848.56,-0.101105892164312
2848.574,-0.101756985910862
2848.588,-0.102415761166337
2848.602,-0.103082361341349
2848.616,-0.103756933624273
2848.63,-0.104439629109944
2848.644,-0.105130602933996
2848.658,-0.105830014412808
2848.672,-0.106538027189137
2848.686,-0.107254809384242
2848.7,-0.107980533756313
2848.714,-0.108715377865901
2848.728,-0.10945952424835
2848.742,-0.110213160593925
2848.756,-0.110976479935821
2848.77,-0.111749680846616
2848.784,-0.112532967643244
2848.798,-0.11332655060157
2848.812,-0.114130646180483
2848.826,-0.114945477256177
2848.84,-0.115771273367415
2848.854,-0.116608270972017
2848.868,-0.117456713715556
2848.882,-0.118316852712304
2848.896,-0.119188946840024
2848.91,-0.120073263048385
2848.924,-0.12097007668272
2848.938,-0.12187967182296
2848.952,-0.122802341639663
2848.966,-0.123738388767222
2848.98,-0.12468812569601
2848.994,-0.125651875183661
2849.008,-0.126629970687545
2849.022,-0.127622756819256
2849.036,-0.128630589821958
2849.05,-0.129653838072901
2849.064,-0.130692882611983
2849.078,-0.13174811769802
2849.092,-0.132819951394492
2849.106,-0.133908806186623
2849.12,-0.135015119631708
2849.134,-0.136139345044797
2849.148,-0.137281952221665
2849.162,-0.138443428202025
2849.176,-0.139624278075243
2849.19,-0.140825025830731
2849.204,-0.142046215257324
2849.218,-0.143288410893405
2849.232,-0.144552199032165
2849.246,-0.14583818878486
2849.26,-0.147147013206796
2849.274,-0.148479330489584
2849.288,-0.149835825224963
2849.302,-0.151217209743955
2849.316,-0.152624225538053
2849.33,-0.154057644767222
2849.344,-0.155518271860845
2849.358,-0.157006945219019
2849.372,-0.158524539020679
2849.386,-0.160071965146834
2849.4,-0.161650175226646
2849.414,-0.163260162816549
2849.428,-0.164902965721357
2849.442,-0.166579668468857
2849.456,-0.168291404948476
2849.47,-0.170039361228027
2849.484,-0.171824778561453
2849.498,-0.173648956602326
2849.512,-0.175513256840221
2849.526,-0.17741910627696
2849.54,-0.179368001362576
2849.554,-0.181361512211375
2849.568,-0.183401287122034
2849.582,-0.185489057426302
2849.596,-0.187626642694145
2849.61,-0.18981595632463
2849.624,-0.192059011556756
2849.638,-0.194357927936016
2849.652,-0.196714938275256
2849.666,-0.199132396154993
2849.68,-0.201612784010184
2849.694,-0.204158721856567
2849.708,-0.206772976713652
2849.722,-0.209458472789995
2849.736,-0.212218302499659
2849.75,-0.21505573838908
2849.764,-0.217974246059293
2849.778,-0.220977498180137
2849.792,-0.224069389701422
2849.806,-0.227254054377688
2849.82,-0.230535882737707
2849.834,-0.233919541642468
2849.848,-0.237409995593095
2849.862,-0.241012529966451
2849.876,-0.24473277637993
2849.89,-0.248576740406908
2849.904,-0.252550831893503
2849.918,-0.256661898153002
2849.932,-0.260917260353695
2849.946,-0.265324753448352
2849.96,-0.269892770039084
2849.974,-0.274630308621861
2849.988,-0.279547026707725
2850.002,-0.284653299385239
2850.016,-0.289960283955411
2850.03,-0.29547999136207
2850.044,-0.301225365226668
2850.058,-0.307210369412776
2850.072,-0.313450085163881
2850.086,-0.319960819009171
2850.1,-0.326760222791199
2850.114,-0.333867427362021
2850.128,-0.341303191717385
2850.142,-0.349090069589001
2850.156,-0.357252595812909
2850.17,-0.365817495131188
2850.184,-0.374813916486445
2850.198,-0.384273696324436
2850.212,-0.394231654965899
2850.226,-0.404725930725853
2850.24,-0.4157983572067
2850.254,-0.427494890038936
2850.268,-0.439866090347694
2850.282,-0.452967673408972
2850.296,-0.466861132334356
2850.31,-0.481614448248814
2850.324,-0.497302900328471
2850.338,-0.514009991315572
2850.352,-0.531828506751003
2850.366,-0.550861729271164
2850.38,-0.571224832932079
2850.394,-0.593046486817327
2850.408,-0.616470702137061
2850.422,-0.641658962850502
2850.436,-0.668792686608378
2850.45,-0.698076070569296
2850.464,-0.729739385562384
2850.478,-0.764042792100077
2850.492,-0.801280762921139
2850.506,-0.841787208772002
2850.52,-0.885941416679058
2850.534,-0.934174922098143
2850.548,-0.986979446700015
2850.562,-1.04491603963653
2850.576,-1.10862555806593
2850.59,-1.17884060646349
2850.604,-1.25639901384038
2850.618,-1.34225884921561
2850.632,-1.4375148354601
2850.646,-1.54341578707943
2850.66,-1.66138231757279
2850.674,-1.79302346364559
2850.688,-1.94014994898726
2850.702,-2.10478040675248
2850.716,-2.28913478355038
2850.73,-2.49560607202036
2850.744,-2.72669710170006
2850.758,-2.98490295719896
2850.772,-3.27251137762628
2850.786,-3.59128336716564
2850.8,-3.94196569488487
2850.814,-4.32358072275264
2850.828,-4.73244880432691
2850.842,-5.16094886528967
2850.856,-5.59615569189228
2850.87,-6.01875625799489
2850.884,-6.40303447005672
2850.898,-6.71901306794018
2850.912,-6.93751051977522
2850.926,-7.03735534258975
2850.94,-7.01181913185499
2850.954,-6.87063589852675
2850.968,-6.63635548766258
2850.982,-6.33736976641956
2850.996,-6.00130668647752
2851.01,-5.6510162703184
2851.024,-5.30325918528773
2851.038,-4.9691293611826
2851.052,-4.6552066361029
2851.066,-4.36480687484719
2851.08,-4.09904694434326
2851.094,-3.85765149744777
2851.108,-3.63952280499489
2851.122,-3.44312421410307
2851.136,-3.26672823455467
2851.15,-3.10857091014042
2851.164,-2.96694340925687
2851.178,-2.84024263469624
2851.192,-2.72699572568311
2851.206,-2.62586837680604
2851.22,-2.53566348215348
2851.234,-2.45531430616277
2851.248,-2.38387484760383
2851.262,-2.3205090537537
2851.276,-2.26447988507606
2851.29,-2.21513880792343
2851.304,-2.17191602427893
2851.318,-2.13431157986333
2851.332,-2.10188738987654
2851.346,-2.07426016171601
2851.36,-2.05109516107933
2851.374,-2.03210075169362
2851.388,-2.01702363328434
2851.402,-2.00564470283211
2851.416,-1.99777546810286
2851.43,-1.99325494823128
2851.444,-1.99194700260379
2851.458,-1.99373803588143
2851.472,-1.99853503335322
2851.486,-2.00626388668936
2851.5,-2.01686797550982
2851.514,-2.03030697497791
2851.528,-2.04655586384942
2851.542,-2.06560411116435
2851.556,-2.08745502299984
2851.57,-2.11212523358174
2851.584,-2.13964432752495
2851.598,-2.17005458214004
2851.612,-2.20341082062404
2851.626,-2.23978036861381
2851.64,-2.27924310801524
2851.654,-2.32189162327322
2851.668,-2.36783143636212
2851.682,-2.41718132775428
2851.696,-2.47007374148118
2851.71,-2.52665527313346
2851.724,-2.58708724037751
2851.738,-2.65154633608759
2851.752,-2.72022536479445
2851.766,-2.79333406352185
2851.78,-2.87110000859759
2851.794,-2.95376961028288
2851.808,-3.0416091974424
2851.822,-3.13490619462612
2851.836,-3.23397039423117
2851.85,-3.3391353264497
2851.864,-3.45075972971217
2851.878,-3.56922912431729
2851.892,-3.69495749154986
2851.906,-3.82838906014166
2851.92,-3.97000020087106
2851.934,-4.12030142873533
2851.948,-4.27983950955463
2851.962,-4.44919966428014
2851.976,-4.62900785828733
2851.99,-4.81993315441398
2852.004,-5.02269009489899
2852.018,-5.23804105719387
2852.032,-5.46679849830116
2852.046,-5.70982695637836
2852.06,-5.96804460990705
2852.074,-6.24242409181062
2852.088,-6.53399210238106
2852.102,-6.84382713457341
2852.116,-7.1730542810261
2852.13,-7.52283557654473
2852.144,-7.89435355895949
2852.158,-8.28878457906232
2852.172,-8.70725667527893
2852.186,-9.15078429430536
2852.2,-9.62016844047207
2852.214,-10.1158455681749
2852.228,-10.6376613375639
2852.242,-11.1845363030642
2852.256,-11.7539811199677
2852.27,-12.3414138124402
2852.284,-12.9392434191583
2852.298,-13.5357389238749
2852.312,-14.1138435475574
2852.326,-14.6503689824609
2852.34,-15.1163900049582
2852.354,-15.4799103897068
2852.368,-15.7114116069964
2852.382,-15.7912376572989
2852.396,-15.7156449804516
2852.41,-15.4980179919537
2852.424,-15.1644719377561
2852.438,-14.7465478517685
2852.452,-14.2746590360523
2852.466,-13.774255911187
2852.48,-13.2646316697433
2852.494,-12.7593602903322
2852.508,-12.2674016763794
2852.522,-11.7942880025462
2852.536,-11.3431365836202
2852.55,-10.9154260438554
2852.564,-10.5115564201397
2852.578,-10.1312390011297
2852.592,-9.77376143793007
2852.606,-9.43816510408172
2852.62,-9.12336215551486
2852.634,-8.82821173301702
2852.648,-8.55156872360921
2852.662,-8.29231420382482
2852.676,-8.04937371896735
2852.69,-7.82172753216197
2852.704,-7.60841561408701
2852.718,-7.40853922897424
2852.732,-7.22126035772038
2852.746,-7.04579978695165
2852.76,-6.88143441530983
2852.774,-6.72749414215664
2852.788,-6.58335857790161
2852.802,-6.4484537309319
2852.816,-6.32224876860983
2852.83,-6.204252911907
2852.844,-6.09401249743758
2852.858,-5.99110822357732
2852.872,-5.89515258635111
2852.886,-5.80578750343391
2852.9,-5.72268212022282
2852.914,-5.64553078920788
2852.928,-5.57405121244997
2852.942,-5.50798273633947
2852.956,-5.44708478774998
2852.97,-5.39113544083204
2852.984,-5.33993010429051
2852.998,-5.29328031944455
2853.012,-5.2510126600588
2853.026,-5.21296772555923
2853.04,-5.17899921990312
2853.054,-5.14897310901907
2853.068,-5.12276685026417
2853.082,-5.1002686879819
2853.096,-5.08137700971227
2853.11,-5.0659997580914
2853.124,-5.05405389393738
2853.138,-5.04546490641077
2853.152,-5.04016636651206
2853.166,-5.03809952052504
2853.18,-5.03921292030012
2853.194,-5.04346208760224
2853.208,-5.05080920993434
2853.222,-5.06122286557998
2853.236,-5.07467777570331
2853.25,-5.09115458167328
2853.264,-5.11063964584356
2853.278,-5.13312487425092
2853.292,-5.15860755985793
2853.306,-5.18709024504564
2853.32,-5.21858060225026
2853.334,-5.25309133174129
2853.348,-5.29064007565836
2853.362,-5.33124934750764
2853.376,-5.37494647648143
2853.39,-5.42176356598994
2853.404,-5.47173746596849
2853.418,-5.524909758538
2853.432,-5.5813267567822
2853.446,-5.64103951642502
2853.46,-5.70410386030938
2853.474,-5.77058041572877
2853.488,-5.84053466466758
2853.502,-5.91403700723968
2853.516,-5.9911628385908
2853.53,-6.07199263979997
2853.544,-6.15661208331253
2853.558,-6.24511215371129
2853.572,-6.33758928463798
2853.586,-6.43414551303451
2853.6,-6.5348886518912
2853.614,-6.63993248298323
2853.628,-6.74939697132912
2853.642,-6.86340850327021
2853.656,-6.98210015046627
2853.67,-7.10561196225631
2853.684,-7.23409128939735
2853.698,-7.36769314231734
2853.712,-7.50658058769385
2853.726,-7.65092518738313
2853.74,-7.8009074844793
2853.754,-7.95671754166433
2853.768,-8.11855553764225
2853.782,-8.28663242827755
2853.796,-8.46117067950799
2853.81,-8.64240508016374
2853.824,-8.83058364328786
2853.838,-9.02596860579151
2853.852,-9.22883753667087
2853.866,-9.4394845651757
2853.88,-9.65822174065404
2853.894,-9.88538053657464
2853.908,-10.1213135111124
2853.922,-10.3663961362964
2853.936,-10.6210288065324
2853.95,-10.8856390344224
2853.964,-11.1606838374062
2853.978,-11.4466523107284
2853.992,-11.7440683706122
2854.006,-12.0534936323339
2854.02,-12.3755303599562
2854.034,-12.7108243813408
2854.048,-13.0600677986774
2854.062,-13.4240012290971
2854.076,-13.8034151682944
2854.09,-14.19914985934
2854.104,-14.6120927342307
2854.118,-15.0431720280297
2854.132,-15.4933444667955
2854.146,-15.9635738906624
2854.16,-16.4547961252792
2854.174,-16.9678631263264
2854.188,-17.5034560714358
2854.202,-18.0619522689891
2854.216,-18.6432241029418
2854.23,-19.2463396363497
2854.244,-19.869124870153
2854.258,-20.5075406483256
2854.272,-21.154832634083
2854.286,-21.8004523279104
2854.3,-22.4288598355265
2854.314,-23.0185546359659
2854.328,-23.5420473246729
2854.342,-23.9678149499552
2854.356,-24.2650813016925
2854.37,-24.410931273262
2854.384,-24.3970949516736
2854.398,-24.2326933179355
2854.412,-23.9412083058165
2854.426,-23.553587393979
2854.44,-23.1012043445398
2854.454,-22.6112319054862
2854.468,-22.1048171256157
2854.482,-21.5971831563179
2854.496,-21.0986247423693
2854.51,-20.6157053834401
2854.524,-20.1523258567235
2854.538,-19.7105619297563
2854.552,-19.2912767584719
2854.566,-18.8945504193241
2854.58,-18.5199734020722
2854.594,-18.1668435771829
2854.608,-17.8342965238129
2854.622,-17.5213906008745
2854.636,-17.2271615976138
2854.65,-16.9506570810845
2854.664,-16.6909572730902
2854.678,-16.4471870462548
2854.692,-16.2185221129317
2854.706,-16.0041914622188
2854.72,-15.8034774160452
2854.734,-15.6157142176195
2854.748,-15.4402857573731
2854.762,-15.2766228353544
2854.776,-15.1242002199623
2854.79,-14.9825336697335
2854.804,-14.8511770227084
2854.818,-14.7297194155931
2854.832,-14.6177826676672
2854.846,-14.5150188459172
2854.86,-14.4211080160908
2854.874,-14.3357561769487
2854.888,-14.2586933703715
2854.902,-14.1896719574242
2854.916,-14.1284650493022
2854.93,-14.0748650814709
2854.944,-14.0286825195281
2854.958,-13.9897446858154
2854.972,-13.9578946963012
2854.986,-13.9329904981489
2855,-13.9149039990966
2855.014,-13.9035202805996
2855.028,-13.8987368874015
2855.042,-13.9004631869742
2855.056,-13.9086197929303
2855.07,-13.9231380471714
2855.084,-13.9439595560504
2855.098,-13.9710357764223
2855.112,-14.0043276479544
2855.126,-14.0438052684456
2855.14,-14.0894476093823
2855.154,-14.141242269381
2855.168,-14.1991852632793
2855.182,-14.2632808453854
2855.196,-14.3335413652286
2855.21,-14.4099871547884
2855.224,-14.4926464462409
2855.238,-14.5815553196735
2855.252,-14.6767576802741
2855.266,-14.7783052649757
2855.28,-14.886257678539
2855.294,-15.0006824594064
2855.308,-15.1216551760555
2855.322,-15.2492595543392
2855.336,-15.3835876371172
2855.35,-15.5247399774354
2855.364,-15.6728258666549
2855.378,-15.8279635995765
2855.392,-15.9902807786051
2855.406,-16.159914659406
2855.42,-16.3370125409316
2855.434,-16.5217322029805
2855.448,-16.7142423948077
2855.462,-16.9147233791469
2855.476,-17.1233675356765
2855.49,-17.3403800295472
2855.504,-17.5659795504859
2855.518,-17.8003991286831
2855.532,-18.0438870349609
2855.546,-18.2967077729475
2855.56,-18.5591431722178
2855.574,-18.8314935925247
2855.588,-19.1140792500758
2855.602,-19.4072416783984
2855.616,-19.7113453379602
2855.63,-20.0267793897848
2855.644,-20.3539596508142
2855.658,-20.6933307509184
2855.672,-21.0453685128055
2855.686,-21.41058258063
2855.7,-21.7895193242747
2855.714,-22.1827650511893
2855.728,-22.5909495611746
2855.742,-23.0147500842392
2855.756,-23.45489564735
2855.77,-23.9121719230046
2855.784,-24.3874266195598
2855.798,-24.8815754851267
2855.812,-25.3956090096395
2855.826,-25.9305999267224
2855.84,-26.4877116441909
2855.854,-27.0682077653424
2855.868,-27.6734629169238
2855.882,-28.3049751776556
2855.896,-28.9643805207164
2855.91,-29.6534698683452
2855.924,-30.3742096451115
2855.938,-31.1287671632631
2855.952,-31.9195428786192
2855.966,-32.7492126406669
2855.98,-33.6207847349732
2855.994,-34.5376790285348
2856.008,-35.5038391636345
2856.022,-36.5238936383797
2856.036,-37.6033871593901
2856.05,-38.7491068283788
2856.064,-39.9695180597237
2856.078,-41.2752699993265
2856.092,-42.6795299660143
2856.106,-44.197253783429
2856.12,-45.8404385668567
2856.134,-47.6001192265362
2856.148,-49.389517836511
2856.162,-50.9083884091794
2856.176,-51.5464642428042
2856.19,-50.8788541169775
2856.204,-49.2941007365766
2856.218,-47.4134865008063
2856.232,-45.5544265982656
2856.246,-43.8112911270967
2856.26,-42.1953708253569
2856.274,-40.6951268861369
2856.288,-39.2954844152489
2856.302,-37.9830066661661
2856.316,-36.7467622562063
2856.33,-35.5780331799755
2856.344,-34.4698198294265
2856.358,-33.4164044909664
2856.372,-32.4130209177846
2856.386,-31.4556178185966
2856.4,-30.5406927641418
2856.414,-29.6651755215037
2856.428,-28.8263450922435
2856.442,-28.0217694962794
2856.456,-27.2492609261523
2856.47,-26.5068413905845
2856.484,-25.7927156386112
2856.498,-25.1052492512548
2856.512,-24.4429504990276
2856.526,-23.804455024826
2856.54,-23.188512708233
2856.554,-22.5939762618927
2856.568,-22.0197912365627
2856.582,-21.4649871972401
2856.596,-20.9286698889251
2856.61,-20.410014251115
2856.624,-19.9082581673393
2856.638,-19.4226968571271
2856.652,-18.9526778334195
2856.666,-18.497596359558
2856.68,-18.0568913501883
2856.694,-17.6300416678304
2856.708,-17.2165627732487
2856.722,-16.8160036929918
2856.736,-16.4279442724568
2856.75,-16.0519926861973
2856.764,-15.6877831812715
2856.778,-15.3349740316853
2856.792,-14.9932456852006
2856.806,-14.6622990858114
2856.82,-14.3418541570524
2856.834,-14.0316484333467
2856.848,-13.7314358279862
2856.862,-13.4409855278474
2856.876,-13.1600810058822
2856.89,-12.8885191439591
2856.904,-12.6261094590914
2856.918,-12.3726734274338
2856.932,-12.1280439007739
2856.946,-11.8920646112256
2856.96,-11.6645897604837
2856.974,-11.4454836903801
2856.988,-11.2346206323629
2857.002,-11.0318845336565
2857.016,-10.8371689590286
2857.03,-10.650377066804
2857.044,-10.4714216590765
2857.058,-10.300225306071
2857.072,-10.1367205455352
2857.086,-9.98085015841557
2857.1,-9.83256752286858
2857.114,-9.69183704929159
2857.128,-9.55863469984578
2857.142,-9.4329485966885
2857.156,-9.31477972409741
2857.17,-9.20414273065875
2857.184,-9.10106683852306
2857.198,-9.00559686812075
2857.212,-8.91779438773988
2857.226,-8.83773899867269
2857.24,-8.76552976796108
2857.254,-8.70128682211009
2857.268,-8.64515311638817
2857.282,-8.59729639562624
2857.296,-8.55791136328043
2857.31,-8.52722207627188
2857.324,-8.50548458298786
2857.338,-8.49298982073971
2857.352,-8.49006678651013
2857.366,-8.49708598971983
2857.38,-8.51446318734686
2857.394,-8.54266338805031
2857.408,-8.58220509053676
2857.422,-8.63366468859768
2857.436,-8.69768092573484
2857.45,-8.77495920779563
2857.464,-8.86627547114441
2857.478,-8.97247913830977
2857.492,-9.09449444686715
2857.506,-9.23331907090839
2857.52,-9.39001840840598
2857.534,-9.56571309507423
2857.548,-9.76155609516245
2857.562,-9.97869392487466
2857.576,-10.2182039180661
2857.59,-10.4809955973084
2857.604,-10.7676587504934
2857.618,-11.078233395997
2857.632,-11.4118675748889
2857.646,-11.7663194498591
2857.66,-12.1372558410896
2857.674,-12.5173133995047
2857.688,-12.8949486717598
2857.702,-13.2532546866819
2857.716,-13.5692096685534
2857.73,-13.8142142182561
2857.744,-13.9569917225728
2857.758,-13.9693741021722
2857.772,-13.8337332710816
2857.786,-13.5487366234495
2857.8,-13.1300326288422
2857.814,-12.6054153522247
2857.828,-12.0074031414955
2857.842,-11.3668397453484
2857.856,-10.7092921130004
2857.87,-10.0540312057911
2857.884,-9.41455632019239
2857.898,-8.79972266244727
2857.912,-8.21491930480199
2857.926,-7.66306533856464
2857.94,-7.14537215134106
2857.954,-6.66189636924346
2857.968,-6.21192954628879
2857.982,-5.79426892767502
2857.996,-5.40740463081001
2858.01,-5.04964909638947
2858.024,-4.71922687596818
2858.038,-4.41433707275177
2858.052,-4.13319673872893
2858.066,-3.87407081887976
2858.08,-3.63529243585197
2858.094,-3.41527612868811
2858.108,-3.21252588562411
2858.122,-3.02563930038928
2858.136,-2.85330883766428
2858.15,-2.69432095644959
2858.164,-2.54755366995738
2858.178,-2.41197299503428
2858.192,-2.28662864710661
2858.206,-2.17064926009042
2858.22,-2.06323734888591
2858.234,-1.96366418198064
2858.248,-1.87126469052726
2858.262,-1.78543250697504
2858.276,-1.70561519936076
2858.29,-1.63130974584964
2858.304,-1.56205827720068
2858.318,-1.49744410161712
2858.332,-1.43708801652748
2858.346,-1.38064490436632
2858.36,-1.32780060412524
2858.374,-1.27826904667496
2858.388,-1.23178963954123
2858.402,-1.18812488534226
2858.416,-1.14705821747592
2858.43,-1.10839203654324
2858.444,-1.07194593130255
2858.458,-1.03755506855636
2858.472,-1.00506873713764
2858.486,-0.974349032059448
2858.5,-0.945269665868185
2858.514,-0.91771489519067
2858.528,-0.891578551439841
2858.542,-0.866763165582639
2858.556,-0.843179177775078
2858.57,-0.820744223478359
2858.584,-0.799382488494034
2858.598,-0.779024126051858
2858.612,-0.759604729772781
2858.626,-0.741064856917663
2858.64,-0.723349596908085
2858.654,-0.706408180602594
2858.668,-0.690193626267878
2858.682,-0.674662418596174
2858.696,-0.659774217495909
2858.71,-0.645491593720716
2858.724,-0.631779788686564
2858.738,-0.618606496117285
2858.752,-0.605941663386533
2858.766,-0.593757310650266
2858.78,-0.582027366049262
2858.794,-0.570727515444051
2858.808,-0.559835065296137
2858.822,-0.549328817451557
2858.836,-0.539188954703015
2858.85,-0.529396936125027
2858.864,-0.519935401276436
2858.878,-0.510788082446465
2858.892,-0.501939724212646
2858.906,-0.493376009641435
2858.92,-0.48508349253672
2858.934,-0.477049535188522
2858.948,-0.469262251133943
2858.962,-0.461710452489342
2858.976,-0.454383601452922
2858.99,-0.447271765610881
2859.004,-0.440365576722099
2859.018,-0.433656192684077
2859.032,-0.427135262405255
2859.046,-0.420794893342331
2859.06,-0.414627621476991
2859.074,-0.408626383531184
2859.088,-0.402784491234563
2859.102,-0.39709560747674
2859.116,-0.39155372419129
2859.13,-0.386153141833431
2859.144,-0.380888450320938
2859.158,-0.37575451132439
2859.172,-0.370746441800602
2859.186,-0.365859598671026
2859.2,-0.361089564556933
2859.214,-0.35643213449032
2859.228,-0.351883303525602
2859.242,-0.347439255184806
2859.256,-0.343096350672255
2859.27,-0.338851118801818
2859.284,-0.334700246586323
2859.298,-0.33064057043623
2859.312,-0.326669067926316
2859.326,-0.322782850089215
2859.34,-0.318979154196422
2859.354,-0.315255336993352
2859.368,-0.311608868355535
2859.382,-0.308037325337583
2859.396,-0.304538386586489
2859.41,-0.301109827094428
2859.424,-0.297749513267794
2859.438,-0.294455398291697
2859.452,-0.29122551776865
2859.466,-0.288057985614143
2859.48,-0.284950990191239
2859.494,-0.281902790669517
2859.508,-0.278911713592609
2859.522,-0.275976149640444
2859.536,-0.273094550575986
2859.55,-0.270265426361657
2859.564,-0.267487342436318
2859.578,-0.264758917142298
2859.592,-0.262078819293861
2859.606,-0.259445765876547
2859.62,-0.256858519871013
2859.634,-0.254315888192758
2859.648,-0.251816719741328
2859.662,-0.249359903551951
2859.676,-0.246944367042942
2859.69,-0.244569074355158
2859.704,-0.242233024775499
2859.718,-0.239935251241263
2859.732,-0.237674818919775
2859.746,-0.235450823860022
2859.76,-0.233262391710534
2859.774,-0.2311086765012
2859.788,-0.228988859484471
2859.802,-0.22690214803315
2859.816,-0.224847774591581
2859.83,-0.22282499567627
2859.844,-0.220833090925294
2859.858,-0.218871362191718
2859.872,-0.216939132679625
2859.886,-0.215035746120438
2859.9,-0.213160565987433
2859.914,-0.211312974746014
2859.928,-0.20949237313814
2859.942,-0.207698179498965
2859.956,-0.205929829104516
2859.97,-0.204186773548085
2859.984,-0.202468480143883
2859.998,-0.200774431357628
2860.012,-0.199104124261383
2860.026,-0.197457070011967
2860.04,-0.195832793351885
2860.054,-0.194230832131698
2860.068,-0.192650736852277
2860.082,-0.191092070226593
2860.096,-0.189554406759461
2860.11,-0.188037332345144
2860.124,-0.186540443881251
2860.138,-0.185063348898158
2860.152,-0.183605665204148
2860.166,-0.182167020544299
2860.18,-0.180747052273157
2860.194,-0.179345407040511
2860.208,-0.177961740489604
2860.222,-0.176595716967034
2860.236,-0.175247009244101
2860.25,-0.173915298248776
2860.264,-0.172600272808236
2860.278,-0.171301629401106
2860.292,-0.170019071918743
2860.306,-0.168752311436273
2860.32,-0.167501065991598
2860.334,-0.166265060372773
2860.348,-0.165044025913282
2860.362,-0.163837700294938
2860.376,-0.16264582735774
2860.39,-0.161468156916857
2860.404,-0.160304444585981
2860.418,-0.159154451607208
2860.432,-0.158017944686962
2860.446,-0.156894695837349
2860.46,-0.155784482223738
2860.474,-0.15468708601708
2860.488,-0.153602294251631
2860.502,-0.152529898687457
2860.516,-0.151469695677858
2860.53,-0.150421486041021
2860.544,-0.149385074936353
2860.558,-0.148360271744453
2860.572,-0.147346889951779
2860.586,-0.146344747038694
2860.6,-0.145353664371132
2860.614,-0.144373467096321
2860.628,-0.143403984041378
2860.642,-0.142445047615519
2860.656,-0.141496493715234
2860.67,-0.140558161632737
2860.684,-0.139629893967084
2860.698,-0.138711536538359
2860.712,-0.137802938304178
2860.726,-0.136903951279347
2860.74,-0.136014430457675
2860.754,-0.135134233736068
2860.768,-0.134263221841526
2860.782,-0.133401258259746
2860.796,-0.132548209166357
2860.81,-0.131703943359919
2860.824,-0.13086833219725
2860.838,-0.130041249530443
2860.852,-0.129222571645941
2860.866,-0.128412177205105
2860.88,-0.127609947187074
2860.894,-0.126815764832849
2860.908,-0.126029515591014
2860.922,-0.125251087065451
2860.936,-0.124480368964075
2860.95,-0.123717253049339
2860.964,-0.122961633089999
2860.978,-0.122213404814428
2860.992,-0.121472465865037
2861.006,-0.120738715754198
2861.02,-0.120012055821105
2861.034,-0.119292389190183
2861.048,-0.118579620730494
2861.062,-0.117873657016033
2861.076,-0.117174406287633
2861.09,-0.116481778415388
2861.104,-0.11579568486243
2861.118,-0.115116038649474
2861.132,-0.114442754320548
2861.146,-0.113775747909382
2861.16,-0.113114936906963
2861.174,-0.112460240229583
2861.188,-0.111811578188163
2861.202,-0.111168872458113
2861.216,-0.110532046049972
2861.23,-0.109901023280912
2861.244,-0.109275729746969
2861.258,-0.108656092295958
2861.272,-0.108042039001029
2861.286,-0.107433499135048
2861.3,-0.106830403145455
2861.314,-0.10623268262993
2861.328,-0.105640270312451
2861.342,-0.105053100020187
2861.356,-0.10447110666085
2861.37,-0.103894226200598
2861.384,-0.103322395642469
2861.398,-0.102755553005452
2861.412,-0.102193637303975
2861.426,-0.101636588527898
2861.44,-0.101084347623046
2861.454,-0.100536856472136
2861.468,-0.0999940578763093
2861.482,-0.0994558955368155
2861.496,-0.0989223140374909
2861.51,-0.0983932588274467
2861.524,-0.0978686762041565
2861.538,-0.0973485132969754
2861.552,-0.096832718051145
2861.566,-0.0963212392120174
2861.58,-0.0958140263097049
2861.594,-0.0953110296441481
2861.608,-0.094812200270408
2861.622,-0.0943174899844637
2861.636,-0.0938268513090541
2861.65,-0.0933402374802247
2861.664,-0.0928576024338436
2861.678,-0.0923789007925813
2861.692,-0.0919040878531657
2861.706,-0.0914331195739112
2861.72,-0.0909659525625295
2861.734,-0.0905025440641827
2861.748,-0.0900428519498691
2861.762,-0.0895868347049639
2861.776,-0.089134451418173
2861.79,-0.088685661770457
2861.804,-0.0882404260245463
2861.818,-0.08779870501438
2861.832,-0.0873604601349585
2861.846,-0.0869256533322894
2861.86,-0.0864942470936857
2861.874,-0.0860662044381537
2861.888,-0.0856414889069989
2861.902,-0.0852200645547324
2861.916,-0.0848018959400379
2861.93,-0.0843869481170436
2861.944,-0.0839751866266135
2861.958,-0.0835665774880821
2861.972,-0.0831610871908871
2861.986,-0.0827586826865466
2862,-0.0823593313807212
