% This file was created by tikzplotlib v0.9.4.
\begin{tikzpicture}

\definecolor{color0}{rgb}{0.12156862745098,0.466666666666667,0.705882352941177}
\definecolor{color1}{rgb}{1,0.498039215686275,0.0549019607843137}

\begin{axis}[
height=7cm,
legend cell align={left},
legend style={fill opacity=0.8, draw opacity=1, text opacity=1, at={(0.5,0.91)}, anchor=north, draw=white!80!black},
tick align=outside,
tick pos=left,
width=10cm,
x grid style={white!69.0196078431373!black},
xlabel={\(\displaystyle l, \si{\mm}\)},
xmajorgrids,
xmin=-4.9034615, xmax=102.9726915,
xtick style={color=black},
y grid style={white!69.0196078431373!black},
ylabel={\(\displaystyle E, \si{\V\per\m}\)},
ymajorgrids,
ymin=0, ymax=33225.8729383363,
ytick style={color=black}
]
\draw[draw=none,fill=color0] (axis cs:8.17243583333333,0) rectangle (axis cs:24.5173075,31643.6885127012);
\draw[draw=none,fill=color0] (axis cs:40.8621791666667,0) rectangle (axis cs:57.2070508333333,1651.34880702702);
\draw[draw=none,fill=color0] (axis cs:73.5519225,0) rectangle (axis cs:89.8967941666667,31557.2757022864);
\addplot [line width=2pt, color0]
table {%
0 22522.812
0.990597999999999 23128.612
1.981196 24356.344
2.971794 25567.333
3.962393 26762.11
4.952991 27789.238
5.9435894 28658.593
6.9341876 29470.688
7.9247859 29872.065
8.9153842 30253.76
9.9059825 30677.195
10.8965808 30893.784
11.8871791 31021.861
12.8777774 31085.007
13.8683757 31153.238
14.85897397 31217.902
15.84957226 31230.312
16.8401706 31123.591
17.8307688 31008.172
18.8213671 30878.978
19.8119654 30736.187
20.8025637 30375.697
21.793162 29932.188
22.7837603 29495.748
23.7743586 29006.984
24.7649569 27913.924
25.755555 26892.894
26.746153 25269.159
27.736752 23414.576
28.72735 21109.336
29.717948 18482.504
30.708547 15623.567
31.699145 12758.919
32.689743 9996.8596
33.680341 7626.5531
34.67094 5668.6771
35.661538 4070.4163
36.652136 2926.772
37.642735 2091.1352
38.633333 1765.6727
39.623931 1567.6632
40.61453 1490.1212
41.605128 1516.1057
42.595726 1560.5845
43.586324 1601.0477
44.576923 1649.7307
45.567521 1703.6059
46.558119 1739.8897
47.548718 1772.7076
48.539316 1803.9005
49.529914 1830.2131
50.520512 1858.9328
51.511111 1889.7511
52.501709 1925.0279
53.492307 1964.4572
54.482906 2010.3592
55.473504 2092.0517
56.464102 2200.5798
57.4547 2334.9143
58.445299 2556.5011
59.435897 2843.425
60.426495 3357.4338
61.417094 4134.7924
62.407692 5146.3941
63.39829 6489.224
64.388889 8467.5594
65.379487 10574.091
66.370085 13169.751
67.360683 15877.824
68.351282 18570.193
69.34188 21193.092
70.332478 23394.609
71.323077 25102.295
72.313675 26728.525
73.304273 27964.331
74.294871 28644.103
75.28547 29186.975
76.276068 29702.114
77.266666 30140.704
78.257265 30504.888
79.247863 30650.425
80.238461 30776.875
81.229059 30870.974
82.219658 30927.755
83.210256 30964.266
84.200854 30913.345
85.191453 30838.86
86.182051 30757.138
87.172649 30623.685
88.163247 30363.846
89.153846 30073.857
90.144444 29735.195
91.135042 29140.117
92.125641 28429.382
93.116239 27595.832
94.106837 26559.981
95.097436 25322.888
96.088034 24026.373
97.078632 23056.702
98.06923 22385.53
};
\addlegendentry{МЭС}
\addplot [line width=2pt, color1]
table {%
0 22522.812
0.990597999999999 23128.612
1.981196 24356.344
2.971794 25567.333
3.962393 26762.11
4.952991 27789.238
5.9435894 28658.593
6.9341876 29470.688
7.9247859 29872.065
8.9153842 30253.76
9.9059825 30677.195
10.8965808 30893.784
11.8871791 31021.861
12.8777774 31085.007
13.8683757 31153.238
14.85897397 31217.902
15.84957226 31230.312
16.8401706 31123.591
17.8307688 31008.172
18.8213671 30878.978
19.8119654 30736.187
20.8025637 30375.697
21.793162 29932.188
22.7837603 29495.748
23.7743586 29006.984
24.7649569 27913.924
25.755555 26892.894
26.746153 25269.159
27.736752 23414.576
28.72735 21109.336
29.717948 18482.504
30.708547 15623.567
31.699145 12758.919
32.689743 9996.8596
33.680341 7626.5531
34.67094 5668.6771
35.661538 4070.4163
36.652136 2926.772
37.642735 2091.1352
38.633333 1765.6727
39.623931 1567.6632
40.61453 1490.1212
41.605128 1516.1057
42.595726 1560.5845
43.586324 1601.0477
44.576923 1649.7307
45.567521 1703.6059
46.558119 1739.8897
47.548718 1772.7076
48.539316 1803.9005
49.529914 1830.2131
50.520512 1858.9328
51.511111 1889.7511
52.501709 1925.0279
53.492307 1964.4572
54.482906 2010.3592
55.473504 2092.0517
56.464102 2200.5798
57.4547 2334.9143
58.445299 2556.5011
59.435897 2843.425
60.426495 3357.4338
61.417094 4134.7924
62.407692 5146.3941
63.39829 6489.224
64.388889 8467.5594
65.379487 10574.091
66.370085 13169.751
67.360683 15877.824
68.351282 18570.193
69.34188 21193.092
70.332478 23394.609
71.323077 25102.295
72.313675 26728.525
73.304273 27964.331
74.294871 28644.103
75.28547 29186.975
76.276068 29702.114
77.266666 30140.704
78.257265 30504.888
79.247863 30650.425
80.238461 30776.875
81.229059 30870.974
82.219658 30927.755
83.210256 30964.266
84.200854 30913.345
85.191453 30838.86
86.182051 30757.138
87.172649 30623.685
88.163247 30363.846
89.153846 30073.857
90.144444 29735.195
91.135042 29140.117
92.125641 28429.382
93.116239 27595.832
94.106837 26559.981
95.097436 25322.888
96.088034 24026.373
97.078632 23056.702
98.06923 22385.53
};
\addlegendentry{МКЭ}
\end{axis}

\end{tikzpicture}
