% This file was created by tikzplotlib v0.9.4.
\begin{tikzpicture}

\definecolor{color0}{rgb}{0.12156862745098,0.466666666666667,0.705882352941177}
\definecolor{color1}{rgb}{1,0.498039215686275,0.0549019607843137}

\begin{axis}[
height=7cm,
legend cell align={left},
legend style={fill opacity=0.8, draw opacity=1, text opacity=1, draw=white!80!black},
tick align=outside,
tick pos=left,
width=10cm,
x grid style={white!69.0196078431373!black},
xlabel={\(\displaystyle l, \si{\mm}\)},
xmajorgrids,
xmin=-4.9034615, xmax=102.9726915,
xtick style={color=black},
y grid style={white!69.0196078431373!black},
ylabel={\(\displaystyle E, \si{\V\per\m}\)},
ymajorgrids,
ymin=0, ymax=28745.5161,
ytick style={color=black}
]
\draw[draw=none,fill=color0] (axis cs:8.17243583333333,0) rectangle (axis cs:24.5173075,19020.3271315974);
\draw[draw=none,fill=color0] (axis cs:40.8621791666667,0) rectangle (axis cs:57.2070508333333,26838.0256656817);
\draw[draw=none,fill=color0] (axis cs:73.5519225,0) rectangle (axis cs:89.8967941666667,18997.8580395905);
\addplot [line width=2pt, color0]
table {%
0 15474.548
0.990597999999999 15890.511
1.981196 16733.069
2.971794 17563.872
3.962393 18383.03
4.952991 19086.168
5.9435894 19680.318
6.9341876 20235.128
7.9247859 20504.981
8.9153842 20760.794
9.9059825 21045.285
10.8965808 21185.76
11.8871791 21262.891
12.8777774 21289.404
13.8683757 21321.034
14.85897397 21350.597
15.84957226 21341.062
16.8401706 21228.075
17.8307688 21105.688
18.8213671 20973.054
19.8119654 20830.376
20.8025637 20482.514
21.793162 20057.302
22.7837603 19640.027
23.7743586 19170.061
24.7649569 18094.659
25.755555 17099.459
26.746153 15446.015
27.736752 13527.26
28.72735 11044.17
29.717948 8083.4736
30.708547 4618.8353
31.699145 1121.2463
32.689743 3530.5591
33.680341 7568.1757
34.67094 11373.791
35.661538 14878.192
36.652136 17892.793
37.642735 20538.067
38.633333 22015.823
39.623931 23316.561
40.61453 24481.044
41.605128 25579.043
42.595726 26098.211
43.586324 26433.747
44.576923 26762.814
45.567521 27076.26
46.558119 27217.639
47.548718 27311.439
48.539316 27376.682
49.529914 27362.171
50.520512 27256.774
51.511111 27157.637
52.501709 27005.253
53.492307 26834.7
54.482906 26515.017
55.473504 25974.209
56.464102 25345.56
57.4547 24618.348
58.445299 23495.501
59.435897 22199.086
60.426495 20254.357
61.417094 17757.027
62.407692 14852.526
63.39829 11370.587
64.388889 7395.8677
65.379487 3382.5795
66.370085 805.67034
67.360683 4669.6029
68.351282 8078.5967
69.34188 11242.819
70.332478 13729.312
71.323077 15549.947
72.313675 17273.998
73.304273 18538.295
74.294871 19219.132
75.28547 19761.635
76.276068 20277.063
77.266666 20713.948
78.257265 21075.647
79.247863 21231.975
80.238461 21363.953
81.229059 21467.751
82.219658 21541.723
83.210256 21595.518
84.200854 21576.59
85.191453 21540.018
86.182051 21497.435
87.172649 21415.823
88.163247 21241.806
89.153846 21046.433
90.144444 20816.362
91.135042 20403.89
92.125641 19909.903
93.116239 19329.28
94.106837 18606.143
95.097436 17741.02
96.088034 16834.008
97.078632 16155.255
98.06923 15685.387
};
\addlegendentry{МЭС}
\addplot [line width=2pt, color1]
table {%
0 15474.548
0.990597999999999 15890.511
1.981196 16733.069
2.971794 17563.872
3.962393 18383.03
4.952991 19086.168
5.9435894 19680.318
6.9341876 20235.128
7.9247859 20504.981
8.9153842 20760.794
9.9059825 21045.285
10.8965808 21185.76
11.8871791 21262.891
12.8777774 21289.404
13.8683757 21321.034
14.85897397 21350.597
15.84957226 21341.062
16.8401706 21228.075
17.8307688 21105.688
18.8213671 20973.054
19.8119654 20830.376
20.8025637 20482.514
21.793162 20057.302
22.7837603 19640.027
23.7743586 19170.061
24.7649569 18094.659
25.755555 17099.459
26.746153 15446.015
27.736752 13527.26
28.72735 11044.17
29.717948 8083.4736
30.708547 4618.8353
31.699145 1121.2463
32.689743 3530.5591
33.680341 7568.1757
34.67094 11373.791
35.661538 14878.192
36.652136 17892.793
37.642735 20538.067
38.633333 22015.823
39.623931 23316.561
40.61453 24481.044
41.605128 25579.043
42.595726 26098.211
43.586324 26433.747
44.576923 26762.814
45.567521 27076.26
46.558119 27217.639
47.548718 27311.439
48.539316 27376.682
49.529914 27362.171
50.520512 27256.774
51.511111 27157.637
52.501709 27005.253
53.492307 26834.7
54.482906 26515.017
55.473504 25974.209
56.464102 25345.56
57.4547 24618.348
58.445299 23495.501
59.435897 22199.086
60.426495 20254.357
61.417094 17757.027
62.407692 14852.526
63.39829 11370.587
64.388889 7395.8677
65.379487 3382.5795
66.370085 805.67034
67.360683 4669.6029
68.351282 8078.5967
69.34188 11242.819
70.332478 13729.312
71.323077 15549.947
72.313675 17273.998
73.304273 18538.295
74.294871 19219.132
75.28547 19761.635
76.276068 20277.063
77.266666 20713.948
78.257265 21075.647
79.247863 21231.975
80.238461 21363.953
81.229059 21467.751
82.219658 21541.723
83.210256 21595.518
84.200854 21576.59
85.191453 21540.018
86.182051 21497.435
87.172649 21415.823
88.163247 21241.806
89.153846 21046.433
90.144444 20816.362
91.135042 20403.89
92.125641 19909.903
93.116239 19329.28
94.106837 18606.143
95.097436 17741.02
96.088034 16834.008
97.078632 16155.255
98.06923 15685.387
};
\addlegendentry{МКЭ}
\end{axis}

\end{tikzpicture}
