"f","Mod_db"
2852,-0.0169727441814206
2852.016,-0.0172529880989378
2852.032,-0.0175410279102955
2852.048,-0.0178371682473522
2852.064,-0.0181417289962625
2852.08,-0.0184550462274817
2852.096,-0.0187774731927499
2852.112,-0.0191093813944254
2852.128,-0.0194511617333624
2852.144,-0.0198032257418944
2852.16,-0.0201660069093189
2852.176,-0.0205399621077005
2852.192,-0.0209255731269613
2852.208,-0.0213233483288672
2852.224,-0.0217338244303992
2852.24,-0.0221575684283705
2852.256,-0.022595179678193
2852.272,-0.0230472921408341
2852.288,-0.0235145768139219
2852.304,-0.02399774436437
2852.32,-0.0244975479816414
2852.336,-0.0250147864731786
2852.352,-0.0255503076257938
2852.368,-0.0261050118590468
2852.384,-0.0266798562003346
2852.4,-0.0272758586142195
2852.416,-0.0278941027223364
2852.432,-0.0285357429548412
2852.448,-0.0292020101787846
2852.464,-0.0298942178544944
2852.48,-0.0306137687771104
2852.496,-0.0313621624678082
2852.512,-0.032141003286621
2852.528,-0.0329520093487073
2852.544,-0.0337970223358483
2852.56,-0.0346780183067537
2852.576,-0.0355971196244949
2852.592,-0.0365566081336808
2852.608,-0.0375589397392829
2852.624,-0.0386067605593556
2852.64,-0.039702924848182
2852.656,-0.0408505149139106
2852.672,-0.042052863288272
2852.688,-0.043313577441577
2852.704,-0.0446365673824518
2852.72,-0.0460260765307002
2852.736,-0.0474867163132146
2852.752,-0.049023505001533
2852.768,-0.0506419113940124
2852.784,-0.0523479040408045
2852.8,-0.0541480068264847
2852.816,-0.0560493618599581
2852.832,-0.0580598007846802
2852.848,-0.0601879258125805
2852.864,-0.0624432020185475
2852.88,-0.0648360627052442
2852.896,-0.0673780299822773
2852.912,-0.0700818531022596
2852.928,-0.0729616675823374
2852.944,-0.0760331787245265
2852.96,-0.0793138738689386
2852.976,-0.0828232685846697
2852.992,-0.08658319308057
2853.008,-0.0906181264398864
2853.024,-0.0949555879200644
2853.04,-0.0996265965861118
2853.056,-0.104666213084257
2853.072,-0.11011418052217
2853.088,-0.116015685412428
2853.104,-0.122422264656997
2853.12,-0.129392890931695
2853.136,-0.136995276942076
2853.152,-0.145307449416957
2853.168,-0.154419657051449
2853.184,-0.164436693840528
2853.2,-0.175480741576275
2853.216,-0.187694864349524
2853.232,-0.201247325839372
2853.248,-0.216336949911625
2853.264,-0.233199810316259
2853.28,-0.25211762105133
2853.296,-0.273428311588797
2853.312,-0.297539418443483
2853.328,-0.324945115639745
2853.344,-0.356247950785731
2853.36,-0.392186656906991
2853.376,-0.433671768513374
2853.392,-0.481831151412257
2853.408,-0.538067862248559
2853.424,-0.604132745591345
2853.44,-0.682213309601328
2853.456,-0.775037523441019
2853.472,-0.885983816125571
2853.488,-1.0191718572124
2853.504,-1.1794734074379
2853.52,-1.37231254341818
2853.536,-1.60299683536309
2853.552,-1.87511977082128
2853.568,-2.18735604113883
2853.584,-2.52805310338818
2853.6,-2.86831130800228
2853.616,-3.1580465780615
2853.632,-3.33451494626811
2853.648,-3.34920286163735
2853.664,-3.19772906564571
2853.68,-2.92287943655204
2853.696,-2.58731051157045
2853.712,-2.24433226624621
2853.728,-1.92633733036314
2853.744,-1.6473945945653
2853.76,-1.41012781570592
2853.776,-1.21149318176202
2853.792,-1.04632619174174
2853.808,-0.909157817045385
2853.824,-0.795001070514687
2853.84,-0.699607131224177
2853.856,-0.619478210250243
2853.872,-0.551784634873899
2853.888,-0.494255658956999
2853.904,-0.445073719940123
2853.92,-0.402782837318833
2853.936,-0.366213343593871
2853.952,-0.334421707151898
2853.968,-0.306643103950149
2853.984,-0.282254291892284
2854,-0.26074461770784
2854.016,-0.241693363879159
2854.032,-0.224752008726446
2854.048,-0.209630286155634
2854.064,-0.196085185411889
2854.08,-0.183912230554747
2854.096,-0.17293853334731
2854.112,-0.163017231127599
2854.128,-0.154023011026469
2854.144,-0.145848490242808
2854.16,-0.138401274136596
2854.176,-0.131601553609052
2854.192,-0.125380133623843
2854.208,-0.119676808071587
2854.224,-0.114439014162369
2854.24,-0.109620713468291
2854.256,-0.105181457566806
2854.272,-0.101085604699396
2854.288,-0.0973016604932475
2854.304,-0.0938017210305241
2854.32,-0.0905610006853403
2854.336,-0.0875574304428101
2854.352,-0.0847713150422016
2854.368,-0.0821850393932059
2854.384,-0.0797828164089613
2854.4,-0.0775504697740098
2854.416,-0.0754752462735119
2854.432,-0.0735456532197522
2854.448,-0.0717513172497344
2854.464,-0.070082861378167
2854.48,-0.0685317976869743
2854.496,-0.0670904334495634
2854.512,-0.0657517888273269
2854.528,-0.0645095245630515
2854.544,-0.0633578783316159
2854.56,-0.0622916086090069
2854.576,-0.0613059450853021
2854.592,-0.0603965447898584
2854.608,-0.0595594532133156
2854.624,-0.0587910698131477
2854.64,-0.0580881173728193
2854.656,-0.0574476147585975
2854.672,-0.0568668526786049
2854.688,-0.0563433721021161
2854.704,-0.05587494504228
2854.72,-0.0554595574448327
2854.736,-0.0550953939578528
2854.752,-0.0547808243883615
2854.768,-0.0545143916752334
2854.784,-0.0542948012307374
2854.8,-0.0541209115220211
2854.816,-0.0539917257804747
2854.832,-0.053906384741844
2854.848,-0.0538641603330351
2854.864,-0.0538644502329583
2854.88,-0.0539067732454368
2854.896,-0.0539907654311381
2854.912,-0.0541161769542779
2854.928,-0.0542828696072534
2854.944,-0.0544908149835277
2854.96,-0.0547400932757777
2854.976,-0.0550308926823388
2854.992,-0.0553635094109899
2855.008,-0.055738348274782
2855.024,-0.0561559238801826
2855.04,-0.0566168624132485
2855.056,-0.0571219040353371
2855.072,-0.0576719059051868
2855.088,-0.0582678458503985
2855.104,-0.0589108267171839
2855.12,-0.0596020814340755
2855.136,-0.0603429788317875
2855.152,-0.0611350302695673
2855.168,-0.0619798971259863
2855.184,-0.0628793992213143
2855.2,-0.0638355242489242
2855.216,-0.0648504383035395
2855.232,-0.0659264976068474
2855.248,-0.0670662615452707
2855.264,-0.0682725071494457
2855.28,-0.0695482451628826
2855.296,-0.0708967378679466
2855.312,-0.0723215188589253
2855.328,-0.0738264149783051
2855.344,-0.0754155706627559
2855.36,-0.0770934749779277
2855.376,-0.0788649916611962
2855.392,-0.080735392536102
2855.408,-0.0827103947142162
2855.424,-0.0847962020592271
2855.44,-0.0869995514601796
2855.456,-0.0893277645378347
2855.472,-0.0917888055064249
2855.488,-0.0943913460194485
2855.504,-0.0971448379600986
2855.52,-0.100059595285092
2855.536,-0.103146886211393
2855.552,-0.10641903724224
2855.568,-0.10988955077922
2855.584,-0.11357323835861
2855.6,-0.117486371903507
2855.616,-0.121646855794269
2855.632,-0.126074423065667
2855.648,-0.130790859629388
2855.664,-0.135820261146853
2855.68,-0.141189328039118
2855.696,-0.146927705179138
2855.712,-0.15306837408095
2855.728,-0.159648106968849
2855.744,-0.166707994004112
2855.76,-0.174294057300371
2855.776,-0.182457968233738
2855.792,-0.191257888138528
2855.808,-0.20075945690481
2855.824,-0.211036959545778
2855.84,-0.222174707731647
2855.856,-0.234268682022718
2855.872,-0.247428491557897
2855.888,-0.261779721972301
2855.904,-0.277466760143283
2855.92,-0.294656207248915
2855.936,-0.31354102101158
2855.952,-0.334345565985446
2855.968,-0.357331800051204
2855.984,-0.382806889478006
2856,-0.411132628872777
2856.016,-0.442737152472645
2856.032,-0.478129568035342
2856.048,-0.517918335191916
2856.064,-0.56283446102588
2856.08,-0.613760914744907
2856.096,-0.671770092410711
2856.112,-0.738171714620907
2856.128,-0.814574234198501
2856.144,-0.902963667457324
2856.16,-1.00580469081067
2856.176,-1.12616968911363
2856.192,-1.26790175032106
2856.208,-1.43581631518278
2856.224,-1.63594097173924
2856.24,-1.87577870848716
2856.256,-2.1645462407874
2856.272,-2.5132640024219
2856.288,-2.93441435659052
2856.304,-3.44055716125844
2856.32,-4.04066587267619
2856.336,-4.73193119959682
2856.352,-5.48392385736899
2856.368,-6.21480722601391
2856.384,-6.77572084384311
2856.4,-6.99083098217276
2856.416,-6.77572345966865
2856.432,-6.21482294775842
2856.448,-5.48396305592433
2856.464,-4.73199775283573
2856.48,-4.04075796337271
2856.496,-3.44067015836203
2856.512,-2.93454296946399
2856.528,-2.513403380747
2856.544,-2.16469237886812
2856.56,-1.87592849300464
2856.576,-1.63609207910936
2856.592,-1.43596706463378
2856.608,-1.26805096022754
2856.624,-1.12631655439652
2856.64,-1.00594868497468
2856.656,-0.903104467273743
2856.672,-0.814711663012153
2856.688,-0.738305700335391
2856.704,-0.67190063659332
2856.72,-0.613888070076125
2856.736,-0.562958314897041
2856.752,-0.518038997848857
2856.768,-0.478247164028117
2856.784,-0.442851814539488
2856.8,-0.411244493582584
2856.816,-0.38291609417319
2856.832,-0.357438480724116
2856.848,-0.334449855846864
2856.864,-0.313643049556738
2856.88,-0.294756099679298
2856.896,-0.27756463705163
2856.912,-0.261875699215346
2856.928,-0.247522680257282
2856.944,-0.234361188661146
2856.96,-0.222265634313351
2856.976,-0.211126403794977
2856.992,-0.200847512494226
2857.008,-0.191344644931455
2857.024,-0.182543512532787
2857.04,-0.174378472099363
2857.056,-0.166791359237764
2857.072,-0.159730499755238
2857.088,-0.15314986896003
2857.104,-0.147008374340825
2857.12,-0.141269241545893
2857.136,-0.135899487145612
2857.152,-0.130869464557487
2857.168,-0.126152471847139
2857.184,-0.121724412030284
2857.2,-0.117563498054501
2857.216,-0.113649995921551
2857.232,-0.109966000458855
2857.248,-0.106495239117925
2857.264,-0.103222899899112
2857.28,-0.100135480096788
2857.296,-0.0972206530597868
2857.312,-0.0944671505775914
2857.328,-0.0918646588531151
2857.344,-0.089403726315365
2857.36,-0.0870756817755114
2857.376,-0.0848725616376105
2857.392,-0.0827870450538973
2857.408,-0.0808123960658164
2857.424,-0.0789424119003244
2857.44,-0.077171376700807
2857.456,-0.0754940200670977
2857.472,-0.0739054798592477
2857.488,-0.0724012687891635
2857.504,-0.0709772443850357
2857.52,-0.069629581964674
2857.536,-0.0683547502985077
2857.552,-0.067149489683339
2857.568,-0.0660107921802981
2857.584,-0.0649358838017894
2857.6,-0.0639222084559507
2857.616,-0.0629674134826679
2857.632,-0.0620693366323473
2857.648,-0.0612259943584573
2857.664,-0.060435571309239
2857.68,-0.0596964109185216
2857.696,-0.0590070070071127
2857.712,-0.0583659963186229
2857.728,-0.0577721519219961
2857.744,-0.0572243774232501
2857.76,-0.0567217019365665
2857.776,-0.056263275772724
2857.792,-0.0558483668093496
2857.808,-0.055476357514867
2857.824,-0.0551467426032228
2857.84,-0.0548591273031661
2857.856,-0.0546132262311764
2857.872,-0.0544088628629166
2857.888,-0.0542459696034929
2857.904,-0.0541245884628838
2857.92,-0.0540448723480378
2857.936,-0.0540070869899251
2857.952,-0.0540116135293808
2857.968,-0.0540589517929551
2857.984,-0.0541497242968439
2858,-0.0542846810249863
2858.016,-0.0544647050360627
2858.032,-0.054690818963824
2858.048,-0.0549641924853876
2858.064,-0.055286150844941
2858.08,-0.0556581845326221
2858.096,-0.0560819602348363
2858.112,-0.0565593331885855
2858.128,-0.0570923610928264
2858.144,-0.0576833197522774
2858.16,-0.0583347206556041
2858.176,-0.0590493307193454
2858.192,-0.0598301944646354
2858.208,-0.0606806589335548
2858.224,-0.0616044016994863
2858.24,-0.062605462380063
2858.256,-0.0636882781265008
2858.272,-0.0648577236373887
2858.288,-0.0661191563340288
2858.304,-0.067478467439085
2858.32,-0.0689421398232527
2858.336,-0.0705173136306694
2858.352,-0.0722118608699169
2858.368,-0.0740344703614865
2858.384,-0.075994744684768
2858.4,-0.0781033110627604
2858.416,-0.0803719484827869
2858.432,-0.0828137337830134
2858.448,-0.0854432099622134
2858.464,-0.0882765806037108
2858.48,-0.0913319350865817
2858.496,-0.0946295102079474
2858.512,-0.0981919950100276
2858.528,-0.102044887052951
2858.544,-0.106216910161169
2858.56,-0.11074050589422
2858.576,-0.115652413775128
2858.592,-0.120994358787017
2858.608,-0.126813869035714
2858.624,-0.133165252024685
2858.64,-0.140110765035375
2858.656,-0.147722024091618
2858.672,-0.156081707525219
2858.688,-0.165285624989055
2858.704,-0.175445241955587
2858.72,-0.186690774660596
2858.736,-0.199175002924932
2858.752,-0.213077990757802
2858.768,-0.228612960370597
2858.784,-0.246033638406764
2858.8,-0.265643489361225
2858.816,-0.287807377333359
2858.832,-0.312966361785269
2858.848,-0.341656545416927
2858.864,-0.374533161191954
2858.88,-0.41240141419111
2858.896,-0.456255969400485
2858.912,-0.507331345953977
2858.928,-0.56716569826291
2858.944,-0.637680195026619
2858.96,-0.721274696146018
2858.976,-0.820936078001012
2858.992,-0.940345101670116
2859.008,-1.0839447346868
2859.024,-1.25688547659182
2859.04,-1.46467208566432
2859.056,-1.71217760687813
2859.072,-2.00146577012551
2859.088,-2.32770365396862
2859.104,-2.67287759555141
2859.12,-2.999237259363
2859.136,-3.24923520891117
2859.152,-3.36187811177176
2859.168,-3.3043443051002
2859.184,-3.0937837549785
2859.2,-2.78554689898508
2859.216,-2.44114195128997
2859.232,-2.10552505224138
2859.248,-1.80267742346906
2859.264,-1.54103418593334
2859.28,-1.32026155389856
2859.296,-1.13610123967718
2859.312,-0.983104816271646
2859.328,-0.855942527675967
2859.344,-0.749920046094459
2859.36,-0.661106854914903
2859.376,-0.586296154046988
2859.392,-0.522905041335178
2859.408,-0.468864328869623
2859.424,-0.422517913864229
2859.44,-0.382537924112575
2859.456,-0.347855955750973
2859.472,-0.317608502513357
2859.488,-0.291094106159245
2859.504,-0.267739866812334
2859.52,-0.247075294160159
2859.536,-0.228711862741938
2859.552,-0.212326981467844
2859.568,-0.197651376420469
2859.584,-0.184459116369103
2859.6,-0.172559689835231
2859.616,-0.161791680478738
2859.632,-0.152017692850698
2859.648,-0.143120260726437
2859.664,-0.134998531226375
2859.68,-0.127565564401454
2859.696,-0.12074612347077
2859.712,-0.114474858087109
2859.728,-0.108694803942852
2859.744,-0.103356138173294
2859.76,-0.0984151425552335
2859.776,-0.0938333362543359
2859.792,-0.0895767475190344
2859.808,-0.0856152997151147
2859.824,-0.0819222918432325
2859.84,-0.0784739574326458
2859.856,-0.0752490887035119
2859.872,-0.072228715279629
2859.888,-0.0693958286597452
2859.904,-0.0667351452026341
2859.92,-0.0642329016375852
2859.936,-0.0618766781327387
2859.952,-0.0596552447834846
2859.968,-0.0575584280661718
2859.984,-0.0555769943607453
2860,-0.0537025481084759
