% This file was created by tikzplotlib v0.9.4.
\begin{tikzpicture}

\definecolor{color0}{rgb}{0.12156862745098,0.466666666666667,0.705882352941177}
\definecolor{color1}{rgb}{1,0.498039215686275,0.0549019607843137}

\begin{axis}[
height=5cm,
legend cell align={left},
legend style={fill opacity=1, draw opacity=1, text opacity=1, at={(0,-0.1)}, draw=white!80!black},
tick align=outside,
tick pos=left,
width=7cm,
x grid style={white!69.0196078431373!black},
xlabel={\(\displaystyle l, \si{\mm}\)},
xmajorgrids,
xmin=-6.63111105, xmax=139.25333205,
xtick style={color=black},
y grid style={white!69.0196078431373!black},
ylabel={\(\displaystyle E, \si{\kV\per\m}\)},
ymajorgrids,
ymin=0, ymax=25.64419725,
ytick style={color=black}
]
\draw[draw=none,fill=color0] (axis cs:8.2888888125,0) rectangle (axis cs:24.8666664375,15.4772080873404);
\draw[draw=none,fill=color0] (axis cs:41.4444440625,0) rectangle (axis cs:58.0222216875,24.3548460463702);
\draw[draw=none,fill=color0] (axis cs:74.5999993125,0) rectangle (axis cs:91.1777769375,24.28539266824);
\draw[draw=none,fill=color0] (axis cs:107.7555545625,0) rectangle (axis cs:124.3333321875,15.0040477933035);
\addplot [line width=2pt, color0]
table {%
0 9.8169339
1.381481 10.572244
2.762963 11.332716
4.144444 12.098291
5.525926 12.829019
6.9074073 13.775659
8.2888888 13.922621
9.6703703 14.122267
11.0518517 14.307363
12.4333332 14.457458
13.8148147 14.567093
15.1962962 14.621642
16.57777767 14.553024
17.9592591 14.409407
19.3407406 14.258483
20.7222221 14.063436
22.1037036 13.797096
23.4851851 13.459505
24.8666666 12.729574
26.248148 11.534842
27.62963 10.292599
29.011111 7.761986
30.392592 4.5927776
31.774074 1.6512897
33.155555 3.7874314
34.537037 8.0886998
35.918518 12.133203
37.3 15.606712
38.681481 18.157568
40.062963 20.062745
41.444444 21.241665
42.825926 22.241896
44.207407 22.533562
45.588889 22.76711
46.97037 22.942971
48.351852 23.014704
49.733333 23.057644
51.114815 23.073962
52.496296 23.014212
53.877778 22.80873
55.259259 22.447069
56.640741 21.753272
58.022222 20.737749
59.403704 19.50389
60.785185 17.842554
62.166667 15.167202
63.548148 10.218612
64.92963 5.0660008
66.311111 0.84361346
67.692592 5.9746753
69.074074 10.942591
70.455555 15.453582
71.837037 19.42476
73.218518 20.680147
74.6 21.654037
75.981481 22.538619
77.362963 23.414319
78.744444 23.936512
80.125926 24.329099
81.507407 24.423045
82.888889 24.327883
84.27037 24.185124
85.651852 23.994742
87.033333 23.756726
88.414815 23.512905
89.796296 22.956358
91.177778 21.81989
92.559259 20.453321
93.940741 19.049853
95.322222 16.951187
96.703704 12.799724
98.085185 8.1513512
99.466667 2.9672766
100.848148 1.6837763
102.22963 6.3049458
103.611111 9.7901499
104.992592 11.933009
106.374074 13.877696
107.755555 14.896252
109.137037 15.591679
110.518518 16.216655
111.9 16.663448
113.281481 16.809772
114.662963 16.953605
116.044444 17.019957
117.425921 17.065392
118.807411 17.099994
120.188891 17.024051
121.570371 16.855107
122.951851 16.677705
124.333331 16.487139
125.714811 16.014781
127.096301 15.142927
128.477781 14.144416
129.859261 13.009838
131.240741 12.650482
132.622221 12.363221
};
\addlegendentry{МЭС}
\addplot [line width=2pt, color1]
table {%
0 9.8169339
1.381481 10.572244
2.762963 11.332716
4.144444 12.098291
5.525926 12.829019
6.9074073 13.775659
8.2888888 13.922621
9.6703703 14.122267
11.0518517 14.307363
12.4333332 14.457458
13.8148147 14.567093
15.1962962 14.621642
16.57777767 14.553024
17.9592591 14.409407
19.3407406 14.258483
20.7222221 14.063436
22.1037036 13.797096
23.4851851 13.459505
24.8666666 12.729574
26.248148 11.534842
27.62963 10.292599
29.011111 7.761986
30.392592 4.5927776
31.774074 1.6512897
33.155555 3.7874314
34.537037 8.0886998
35.918518 12.133203
37.3 15.606712
38.681481 18.157568
40.062963 20.062745
41.444444 21.241665
42.825926 22.241896
44.207407 22.533562
45.588889 22.76711
46.97037 22.942971
48.351852 23.014704
49.733333 23.057644
51.114815 23.073962
52.496296 23.014212
53.877778 22.80873
55.259259 22.447069
56.640741 21.753272
58.022222 20.737749
59.403704 19.50389
60.785185 17.842554
62.166667 15.167202
63.548148 10.218612
64.92963 5.0660008
66.311111 0.84361346
67.692592 5.9746753
69.074074 10.942591
70.455555 15.453582
71.837037 19.42476
73.218518 20.680147
74.6 21.654037
75.981481 22.538619
77.362963 23.414319
78.744444 23.936512
80.125926 24.329099
81.507407 24.423045
82.888889 24.327883
84.27037 24.185124
85.651852 23.994742
87.033333 23.756726
88.414815 23.512905
89.796296 22.956358
91.177778 21.81989
92.559259 20.453321
93.940741 19.049853
95.322222 16.951187
96.703704 12.799724
98.085185 8.1513512
99.466667 2.9672766
100.848148 1.6837763
102.22963 6.3049458
103.611111 9.7901499
104.992592 11.933009
106.374074 13.877696
107.755555 14.896252
109.137037 15.591679
110.518518 16.216655
111.9 16.663448
113.281481 16.809772
114.662963 16.953605
116.044444 17.019957
117.425921 17.065392
118.807411 17.099994
120.188891 17.024051
121.570371 16.855107
122.951851 16.677705
124.333331 16.487139
125.714811 16.014781
127.096301 15.142927
128.477781 14.144416
129.859261 13.009838
131.240741 12.650482
132.622221 12.363221
};
\addlegendentry{МКЭ}
\end{axis}

\end{tikzpicture}
