mkr,n,f1,f2,f3,f4,f5,f6,s1,s2,s3,s4,s5,s6
1,0,2851.66,2852.27,2855.3,2856,,2858.92,-15.333758691922,-19.309400834608,-37.058748734819,-48.098538355855,,-5.5487021573486
1,0.1,2850.98,2852.28,2854.44,2856,2857.9,,-8.4655166800058,-16.862327023897,-26.952582842822,-43.293317019872,-11.288363260441,
1,0.2,,2852.29,2853.5,2856,2857.29,,,-18.196240952299,-23.995250946135,-42.876146134416,-18.469094336885,
1,0.3,,2852.31,2852.64,2856,2856.71,,,-24.977840707608,-26.771103708215,-46.357253036567,-30.416203554988,
1,0.4,,2852.22,2853.64,2856.01,,,,-29.645688056964,-3.9509618792407,-61.129471883159,,
0,0,2851.775,2852.2,2855.425,2856,,2859,-17.4880159507702,-19.7908370447379,-37.7242130024947,-45.7437496433364,,-4.74522605829161
0,0.1,2851.25,2852.25,2854.65,2856.05,2857.95,,-8.86508328634884,-14.7900853846161,-25.171505659996,-37.8392424665665,-9.28490428597937,
0,0.2,2850.05,2852.25,2853.7,2856.05,2857.35,,-0.6640741422872,-15.3522846077193,-21.9734691856717,-37.5107608423297,-15.8309402809194,
0,0.3,,2852.25,2852.8,2856.05,2856.8,,,-20.5572277322409,-22.1713496638791,-41.13259333492,-26.9039960290488,
0,0.4,,2852.25,,2856.05,,,,-29.8123956634946,,-56.7567163152627,,
