5758	12896	17247	17018	12723	8752	5273	12461	16956	17263	12461	8881
8077	13750	9265	8762	14316	9791	8011	13796	8816	8923	14351	9670
8746	9730	9217	9730	9770	10208	8740	9223	9213	9629	9712	10068
8663	9491	9414	9563	10323	10111	8680	9428	9509	9545	10284	10305
6911	11670	15213	15606	13133	10634	7069	11408	14795	15352	13298	10936
