% This file was created by tikzplotlib v0.9.4.
\begin{tikzpicture}

\definecolor{color0}{rgb}{0.12156862745098,0.466666666666667,0.705882352941177}
\definecolor{color1}{rgb}{1,0.498039215686275,0.0549019607843137}

\begin{axis}[
xtick=data,
height=5cm,
legend cell align={left},
legend style={fill opacity=1, draw opacity=1, text opacity=1, at={(0,0)}, draw=white!80!black},
tick align=outside,
tick pos=left,
width=7cm,
x grid style={white!69.0196078431373!black},
xlabel={Резонанс},
xmajorgrids,
xmin=0.5, xmax=5.5,
xtick style={color=black},
y grid style={white!69.0196078431373!black},
ylabel={\(\displaystyle E, \si{\kV\per\m}\)},
ymajorgrids,
ymin=8.39445, ymax=17.66855,
ytick style={color=black}
]
\addplot [line width=3.2pt, color0, mark=*, mark size=3, mark options={solid}]
table {%
1 17.247
2 9.265
3 9.217
4 9.414
5 15.213
};
\addlegendentry{МКЭ}
\addplot [line width=3.2pt, color1, dashed, mark=triangle*, mark size=3, mark options={solid,rotate=180}]
table {%
1 16.956
2 8.816
3 9.213
4 9.509
5 14.795
};
\addlegendentry{МЭС}
\end{axis}

\end{tikzpicture}

