% This file was created by tikzplotlib v0.9.4.
\begin{tikzpicture}

\definecolor{color0}{rgb}{0.12156862745098,0.466666666666667,0.705882352941177}
\definecolor{color1}{rgb}{1,0.498039215686275,0.0549019607843137}

\begin{axis}[
xtick=data,
height=5cm,
legend cell align={left},
legend style={fill opacity=0.8, draw opacity=1, text opacity=1, at={(0.03,0.97)}, anchor=north west, draw=white!80!black},
tick align=outside,
tick pos=left,
width=7cm,
x grid style={white!69.0196078431373!black},
xlabel={Резонанс},
xmajorgrids,
xmin=0.5, xmax=5.5,
xtick style={color=black},
y grid style={white!69.0196078431373!black},
ylabel={\(\displaystyle f, \si{\MHz}\)},
ymajorgrids,
ymin=2850.576, ymax=2858.364,
ytick style={color=black}
]
\addplot [line width=2pt, color0, mark=*, mark size=3, mark options={solid}]
table {%
1 2850.95
2 2852.45
3 2854.23
4 2856.05
5 2857.92
};
\addlegendentry{МКЭ}
\addplot [line width=2pt, color1, dashed, mark=triangle*, mark size=3, mark options={solid,rotate=180}]
table {%
1 2850.93
2 2852.38
3 2854.49
4 2856.18
5 2858.01
};
\addlegendentry{МЭС}
\end{axis}

\end{tikzpicture}

