% This file was created by tikzplotlib v0.9.4.
\begin{tikzpicture}

\definecolor{color0}{rgb}{0.12156862745098,0.466666666666667,0.705882352941177}
\definecolor{color1}{rgb}{1,0.498039215686275,0.0549019607843137}

\begin{axis}[
height=7cm,
legend cell align={left},
legend style={fill opacity=0.8, draw opacity=1, text opacity=1, at={(0.5,0.91)}, anchor=north, draw=white!80!black},
tick align=outside,
tick pos=left,
width=10cm,
x grid style={white!69.0196078431373!black},
xlabel={\(\displaystyle l, \si{\mm}\)},
xmajorgrids,
xmin=-6.5275, xmax=137.0775,
xtick style={color=black},
y grid style={white!69.0196078431373!black},
ylabel={\(\displaystyle E, \si{\V\per\m}\)},
ymajorgrids,
ymin=0, ymax=25411.84065,
ytick style={color=black}
]
\draw[draw=none,fill=color0] (axis cs:8.159375,0) rectangle (axis cs:24.478125,22175.8328699694);
\draw[draw=none,fill=color0] (axis cs:40.796875,0) rectangle (axis cs:57.115625,13855.6332231771);
\draw[draw=none,fill=color0] (axis cs:73.434375,0) rectangle (axis cs:89.753125,13645.0273239577);
\draw[draw=none,fill=color0] (axis cs:106.071875,0) rectangle (axis cs:122.390625,22090.1126463131);
\addplot [line width=2pt, color0]
table {%
0 17665.062
1.332143 18396.664
2.664286 19699.958
3.996429 21040.754
5.3285714 22155.314
6.6607143 22897.495
7.9928571 23280.535
9.325 23520.516
10.6571429 23726.534
11.9892857 23901.387
13.3214286 24045.049
14.65357143 24157.967
15.98571429 24201.753
17.3178571 24062.735
18.65 23871.048
19.9821429 23641.095
21.3142857 23372.882
22.6464286 23066.417
23.9785714 22405.121
25.3107143 21529.193
26.642857 20051.115
27.975 18403.096
29.307143 16442.857
30.639286 14406.552
31.971429 12722.692
33.303571 11814.443
34.635714 11325.634
35.967857 11296.743
37.3 11456.574
38.632143 11657.884
39.964286 11802.226
41.296429 11938.077
42.628571 12059.899
43.960714 12091.812
45.292857 12102.476
46.625 12104.04
47.957143 12094.92
49.289286 12042.304
50.621429 11947.376
51.953571 11853.668
53.285714 11638.923
54.617857 11369.266
55.95 11074.528
57.282143 10553.941
58.614286 9655.2779
59.946429 8520.7625
61.278571 6753.1719
62.610714 4639.0117
63.942857 2009.6012
65.275 1489.6345
66.607143 4357.9576
67.939286 7417.4287
69.271429 9619.2218
70.603571 11272.831
71.935714 12986.386
73.267857 13658.199
74.6 14305.116
75.932143 14796.679
77.264286 15022.296
78.596429 15225.674
79.928571 15390.41
81.260714 15512.878
82.592857 15592.814
83.925 15598.615
85.257143 15529.707
86.589286 15426.984
87.921429 15303.129
89.253571 15158.163
90.585714 14895.341
91.917857 14409.573
93.25 13893.513
94.582143 13312.758
95.914286 12631.249
97.246429 12243.144
98.578571 12417.323
99.910714 13217.157
101.242857 14297.481
102.575 15559.884
103.907143 16721.468
105.239286 17601.326
106.571429 18258.403
107.903571 18805.526
109.235714 19093.029
110.567857 19260.884
111.9 19382.936
113.232143 19495.769
114.564286 19544.263
115.89643 19564.26
117.22857 19515.098
118.56071 19409.075
119.89286 19276.609
121.225 19116.527
122.55714 18882.409
123.88929 18413.37
125.22143 17793.869
126.55357 17081.914
127.88571 16002.144
129.21786 14921.702
130.55 14224.729
};
\addlegendentry{МЭС}
\addplot [line width=2pt, color1]
table {%
0 17665.062
1.332143 18396.664
2.664286 19699.958
3.996429 21040.754
5.3285714 22155.314
6.6607143 22897.495
7.9928571 23280.535
9.325 23520.516
10.6571429 23726.534
11.9892857 23901.387
13.3214286 24045.049
14.65357143 24157.967
15.98571429 24201.753
17.3178571 24062.735
18.65 23871.048
19.9821429 23641.095
21.3142857 23372.882
22.6464286 23066.417
23.9785714 22405.121
25.3107143 21529.193
26.642857 20051.115
27.975 18403.096
29.307143 16442.857
30.639286 14406.552
31.971429 12722.692
33.303571 11814.443
34.635714 11325.634
35.967857 11296.743
37.3 11456.574
38.632143 11657.884
39.964286 11802.226
41.296429 11938.077
42.628571 12059.899
43.960714 12091.812
45.292857 12102.476
46.625 12104.04
47.957143 12094.92
49.289286 12042.304
50.621429 11947.376
51.953571 11853.668
53.285714 11638.923
54.617857 11369.266
55.95 11074.528
57.282143 10553.941
58.614286 9655.2779
59.946429 8520.7625
61.278571 6753.1719
62.610714 4639.0117
63.942857 2009.6012
65.275 1489.6345
66.607143 4357.9576
67.939286 7417.4287
69.271429 9619.2218
70.603571 11272.831
71.935714 12986.386
73.267857 13658.199
74.6 14305.116
75.932143 14796.679
77.264286 15022.296
78.596429 15225.674
79.928571 15390.41
81.260714 15512.878
82.592857 15592.814
83.925 15598.615
85.257143 15529.707
86.589286 15426.984
87.921429 15303.129
89.253571 15158.163
90.585714 14895.341
91.917857 14409.573
93.25 13893.513
94.582143 13312.758
95.914286 12631.249
97.246429 12243.144
98.578571 12417.323
99.910714 13217.157
101.242857 14297.481
102.575 15559.884
103.907143 16721.468
105.239286 17601.326
106.571429 18258.403
107.903571 18805.526
109.235714 19093.029
110.567857 19260.884
111.9 19382.936
113.232143 19495.769
114.564286 19544.263
115.89643 19564.26
117.22857 19515.098
118.56071 19409.075
119.89286 19276.609
121.225 19116.527
122.55714 18882.409
123.88929 18413.37
125.22143 17793.869
126.55357 17081.914
127.88571 16002.144
129.21786 14921.702
130.55 14224.729
};
\addlegendentry{МКЭ}
\end{axis}

\end{tikzpicture}
