\begin{tikzpicture}[>=stealth]
	\draw (0,0) to[sI=\(I_{\textup{п}}\),v=\(\hat U\)] ++(0,2)
	to[short,-*] ++(2,0) coordinate (a1)
	to[L=\(\hat L\)] ++(0,-2) coordinate (b1)
	to[short,*-] (0,0);
	\draw (a1) to[short,-*] ++(1.5,0) coordinate (a2)
	to[C=\(\hat C\)] ++(0,-2) coordinate (b2)
	to[short,*-] (b1);
	\draw (a2) to[short] ++(1.5,0) coordinate (a3)
	to[R=\(\hat R\)] ++(0,-2) coordinate (b3)
	to[short] (b2);
\end{tikzpicture}
