% This file was created by tikzplotlib v0.9.4.
\begin{tikzpicture}

\definecolor{color0}{rgb}{0.12156862745098,0.466666666666667,0.705882352941177}

\begin{axis}[
height=7cm,
tick align=outside,
tick pos=left,
width=10cm,
x grid style={white!69.0196078431373!black},
xlabel={\(\displaystyle V_{\textup{упр}}, \si{\kV}\)},
xmajorgrids,
xmin=1.5, xmax=12.5,
xtick style={color=black},
y grid style={white!69.0196078431373!black},
ylabel={\(\displaystyle I_{\textup{п}}, \si{\A}\)},
ymajorgrids,
ymin=0.01461, ymax=0.53359,
ytick style={color=black}
]
\addplot [line width=2pt, color0]
table {%
2 0.0382
3 0.0668
4 0.0995
5 0.138
6 0.181
7 0.227
7.5 0.252
8 0.278
9 0.332
10 0.387
11 0.447
12 0.51
};
\end{axis}

\end{tikzpicture}
