% This file was created by tikzplotlib v0.9.4.
\begin{tikzpicture}

\definecolor{color0}{rgb}{0.12156862745098,0.466666666666667,0.705882352941177}
\definecolor{color1}{rgb}{1,0.498039215686275,0.0549019607843137}

\begin{axis}[
height=4.3cm,
legend cell align={left},
legend columns=2,
legend style={fill opacity=1, draw opacity=1, text opacity=1, at={(1,1.02)}, anchor=south east, draw=white!80!black},
tick align=outside,
tick pos=left,
width=5.7cm,
x grid style={white!69.0196078431373!black},
xlabel={\(\displaystyle f, \si{\MHz}\)},
xmajorgrids,
xmin=2851, xmax=2860,
xtick style={color=black},
y grid style={white!69.0196078431373!black},
ylabel={\(\displaystyle |S_{11}|, \si{\dB}\)},
ymajorgrids,
ymin=-59.3982424515094, ymax=2.71107758117089,
ytick style={color=black}
]
\addplot [line width=2pt, color0]
table {%
2851 -0.631877350885358
2851.02 -0.652630816455665
2851.04 -0.674596859938228
2851.06 -0.697902296893689
2851.08 -0.722628121697261
2851.1 -0.748892248955818
2851.12 -0.776859310299486
2851.14 -0.806656539775008
2851.16 -0.838451305185272
2851.18 -0.872413719283572
2851.2 -0.908794544203084
2851.22 -0.947792129153103
2851.24 -0.989618191836436
2851.26 -1.03457357903899
2851.28 -1.08294656295633
2851.3 -1.13515924336386
2851.32 -1.19145535718771
2851.34 -1.25230389044929
2851.36 -1.31830380003596
2851.38 -1.38976835516513
2851.4 -1.46740906257207
2851.42 -1.55178425083953
2851.44 -1.6437672678864
2851.46 -1.74396610545815
2851.48 -1.85333438304289
2851.5 -1.97270038032236
2851.52 -2.10336310229197
2851.54 -2.24614564191785
2851.56 -2.40263984874726
2851.58 -2.57397905938854
2851.6 -2.76146731516817
2851.62 -2.96708339200947
2851.64 -3.19184070757893
2851.66 -3.43793620180164
2851.68 -3.70685815270145
2851.7 -4.00047217623479
2851.72 -4.32053433793298
2851.74 -4.66825568063565
2851.76 -5.04575663952307
2851.78 -5.454029641761
2851.8 -5.89484617607939
2851.82 -6.36806393926535
2851.84 -6.874685154676
2851.86 -7.41539244180837
2851.88 -7.98874908085905
2851.9 -8.59323759584812
2851.92 -9.22866413961888
2851.94 -9.89223526774255
2851.96 -10.5793820039844
2851.98 -11.2877030335236
2852 -12.0122200782782
2852.02 -12.7458519120824
2852.04 -13.4845536122311
2852.06 -14.2208726446471
2852.08 -14.9492985136314
2852.1 -15.6678726870576
2852.12 -16.3703458788762
2852.14 -17.0581784106245
2852.16 -17.7367683869702
2852.18 -18.4079948539979
2852.2 -19.0872832438944
2852.22 -19.7873860717905
2852.24 -20.5280175644174
2852.26 -21.3265870723544
2852.28 -22.2213705524206
2852.3 -23.2384214869261
2852.32 -24.4329625213657
2852.34 -25.8718910179178
2852.36 -27.6416140077122
2852.38 -29.8519230968154
2852.4 -32.5108423471684
2852.42 -34.680703280575
2852.44 -33.7821053354167
2852.46 -30.7586913186186
2852.48 -27.8272081132614
2852.5 -25.3881571251025
2852.52 -23.3657990882518
2852.54 -21.6523115352856
2852.56 -20.1738238692468
2852.58 -18.8768249215986
2852.6 -17.7220346985151
2852.62 -16.6857831287109
2852.64 -15.7484873626686
2852.66 -14.8934581732575
2852.68 -14.1095806295299
2852.7 -13.3895282998504
2852.72 -12.7241716083374
2852.74 -12.108266453314
2852.76 -11.5364626505702
2852.78 -11.00446778025
2852.8 -10.5090702036313
2852.82 -10.0472966881722
2852.84 -9.61528160786194
2852.86 -9.21181542647967
2852.88 -8.83414880594715
2852.9 -8.48061903847894
2852.92 -8.14892170112614
2852.94 -7.8382969851481
2852.96 -7.54707316226126
2852.98 -7.27391143300567
2853 -7.01736972498102
2853.02 -6.77664288629213
2853.04 -6.55076298309011
2853.06 -6.33859055325103
2853.08 -6.13937053803532
2853.1 -5.95236181534975
2853.12 -5.77701203126672
2853.14 -5.61205665672249
2853.16 -5.45752503903329
2853.18 -5.31247561370941
2853.2 -5.17640318005465
2853.22 -5.04873429742971
2853.24 -4.92907704669872
2853.26 -4.81716769642045
2853.28 -4.7124243825496
2853.3 -4.61431939216573
2853.32 -4.52277502748479
2853.34 -4.43726979146405
2853.36 -4.35771327195091
2853.38 -4.28359038109205
2853.4 -4.21467305086947
2853.42 -4.15094695628972
2853.44 -4.09191211382905
2853.46 -4.03740533317594
2853.48 -3.98754648119757
2853.5 -3.94174923842008
2853.52 -3.90005394970115
2853.54 -3.86228674181479
2853.56 -3.82825082701556
2853.58 -3.79787524267281
2853.6 -3.77101934388777
2853.62 -3.74779669689844
2853.64 -3.72770062910671
2853.66 -3.71097763514204
2853.68 -3.69752515397437
2853.7 -3.68693356297293
2853.72 -3.6796809584839
2853.74 -3.67537122075904
2853.76 -3.67392240451278
2853.78 -3.67543681605863
2853.8 -3.67984620180762
2853.82 -3.68727086037666
2853.84 -3.697314191067
2853.86 -3.71035141259153
2853.88 -3.72630449767558
2853.9 -3.74499607776098
2853.92 -3.76660868463702
2853.94 -3.79096789915011
2853.96 -3.81847230164128
2853.98 -3.84870870890585
2854 -3.88178603886065
2854.02 -3.91798272618118
2854.04 -3.95728338844403
2854.06 -3.99961358624723
2854.08 -4.04512433064646
2854.1 -4.09356355890107
2854.12 -4.14537542890598
2854.14 -4.20059340786142
2854.16 -4.25911346907397
2854.18 -4.32084074518549
2854.2 -4.38629838244993
2854.22 -4.45529342863204
2854.24 -4.52827854622184
2854.26 -4.60483186558864
2854.28 -4.68553832251787
2854.3 -4.76981054991885
2854.32 -4.85868314405883
2854.34 -4.95149233689469
2854.36 -5.04894885569999
2854.38 -5.15040153174604
2854.4 -5.25683356298088
2854.42 -5.36809912321484
2854.44 -5.48380609004805
2854.46 -5.60513109585887
2854.48 -5.73113221894222
2854.5 -5.86306448304555
2854.52 -6.00020209637199
2854.54 -6.14260677261076
2854.56 -6.29149009592323
2854.58 -6.44610355166954
2854.6 -6.60713933259985
2854.62 -6.77414884074018
2854.64 -6.94741164358799
2854.66 -7.12835337845524
2854.68 -7.31525463726076
2854.7 -7.50966982373707
2854.72 -7.71110833124236
2854.74 -7.92056428913262
2854.76 -8.13750975289598
2854.78 -8.36214206387332
2854.8 -8.59471483355752
2854.82 -8.83631201014306
2854.84 -9.08639714875216
2854.86 -9.34415614967353
2854.88 -9.6118536453311
2854.9 -9.88868204747249
2854.92 -10.1750550276953
2854.94 -10.4699297700392
2854.96 -10.7760182374943
2854.98 -11.0913342620221
2855 -11.4170355657633
2855.02 -11.7537297091706
2855.04 -12.1017901258496
2855.06 -12.4601666617958
2855.08 -12.8300773471296
2855.1 -13.2129270876572
2855.12 -13.6064248628122
2855.14 -14.013752034543
2855.16 -14.4322475649822
2855.18 -14.8628111718534
2855.2 -15.3085984594847
2855.22 -15.7662490680744
2855.24 -16.2401783949328
2855.26 -16.7277521982384
2855.28 -17.2306704955865
2855.3 -17.7463876394017
2855.32 -18.2799386111381
2855.34 -18.8292623857576
2855.36 -19.3952733719248
2855.38 -19.9798571609276
2855.4 -20.577387349915
2855.42 -21.19335166904
2855.44 -21.8315905915141
2855.46 -22.4863365032655
2855.48 -23.1609349081865
2855.5 -23.8556001316465
2855.52 -24.5717101447642
2855.54 -25.3123727084959
2855.56 -26.0656928462278
2855.58 -26.8421311486485
2855.6 -27.6483686959018
2855.62 -28.4737775576628
2855.64 -29.3156323810617
2855.66 -30.1892922593655
2855.68 -31.0890937778812
2855.7 -32.013803173756
2855.72 -32.9594748260207
2855.74 -33.9448442852155
2855.76 -34.9522066509264
2855.78 -36.0026655311426
2855.8 -37.0947766110398
2855.82 -38.239336155286
2855.84 -39.4046621851914
2855.86 -40.6318168474197
2855.88 -41.9580703207641
2855.9 -43.2503595780476
2855.92 -44.6185301923448
2855.94 -45.8293925813318
2855.96 -46.8946168113788
2855.98 -47.3855998942274
2856 -47.388875615824
2856.02 -46.8511338863728
2856.04 -46.0219096970157
2856.06 -45.1037573237783
2856.08 -44.1553211443577
2856.1 -43.2883016092568
2856.12 -42.48554864669
2856.14 -41.8102704286635
2856.16 -41.2538537372705
2856.18 -40.7323073466688
2856.2 -40.3645261234363
2856.22 -40.0218046757887
2856.24 -39.7818287883327
2856.26 -39.5850884628106
2856.28 -39.4541154328099
2856.3 -39.3571080662021
2856.32 -39.1776639232705
2856.34 -38.9696428365848
2856.36 -38.5948213321987
2856.38 -38.0460904152755
2856.4 -37.249238749419
2856.42 -36.2629874526101
2856.44 -35.0997721880893
2856.46 -33.832512977753
2856.48 -32.5190975616207
2856.5 -31.17370712079
2856.52 -29.8619311623795
2856.54 -28.5762272418229
2856.56 -27.3403266756518
2856.58 -26.1417200737381
2856.6 -24.9861003531835
2856.62 -23.8875594189123
2856.64 -22.827605971473
2856.66 -21.8072090337442
2856.68 -20.8310756114286
2856.7 -19.8950546661776
2856.72 -18.9924848333492
2856.74 -18.1266528749505
2856.76 -17.2910388259927
2856.78 -16.4891393659879
2856.8 -15.7175760755582
2856.82 -14.9735271842142
2856.84 -14.2585641792116
2856.86 -13.5700752178227
2856.88 -12.9088964032146
2856.9 -12.2727609407764
2856.92 -11.6614537894326
2856.94 -11.074226414864
2856.96 -10.5119435414219
2856.98 -9.97144513204163
2857 -9.45529634186228
2857.02 -8.95994843299525
2857.04 -8.48860075516222
2857.06 -8.03768265612185
2857.08 -7.60778161277319
2857.1 -7.1988150378066
2857.12 -6.80965915922576
2857.14 -6.44023078845015
2857.16 -6.089916978475
2857.18 -5.75875665924374
2857.2 -5.4449106188458
2857.22 -5.14823267840373
2857.24 -4.86817718766164
2857.26 -4.60484224300052
2857.28 -4.35663069237396
2857.3 -4.12281299072358
2857.32 -3.90312196400519
2857.34 -3.6968159887334
2857.36 -3.50318604042503
2857.38 -3.32150492887966
2857.4 -3.15052591909094
2857.42 -2.99080037295665
2857.44 -2.84101966464142
2857.46 -2.70041688538606
2857.48 -2.5687850499211
2857.5 -2.44522854928591
2857.52 -2.32976294492069
2857.54 -2.22127767808164
2857.56 -2.11933754398586
2857.58 -2.02407911240676
2857.6 -1.93454463924479
2857.62 -1.85039425653416
2857.64 -1.77159473371903
2857.66 -1.69748701571355
2857.68 -1.62766716751277
2857.7 -1.56209907478535
2857.72 -1.50040891213006
2857.74 -1.44218510265234
2857.76 -1.38747304715364
2857.78 -1.33576746352677
2857.8 -1.28698917629851
2857.82 -1.24083248348875
2857.84 -1.19722915768491
2857.86 -1.15596018624894
2857.88 -1.11697870455918
2857.9 -1.07992987362012
2857.92 -1.04488818800673
2857.94 -1.01166219091541
2857.96 -0.980013155854946
2857.98 -0.950016362919474
2858 -0.921402996704491
2858.02 -0.894170363753115
2858.04 -0.868332841803154
2858.06 -0.843633566239691
2858.08 -0.820077030558297
2858.1 -0.797550729737347
2858.12 -0.776101874062759
2858.14 -0.755543795833373
2858.16 -0.735886752168071
2858.18 -0.717095450105316
2858.2 -0.699104113558533
2858.22 -0.681816849479771
2858.24 -0.665260661307414
2858.26 -0.649333845520386
2858.28 -0.634050857867775
2858.3 -0.619388588114003
2858.32 -0.605259713568273
2858.34 -0.591679554590423
2858.36 -0.578619609283024
2858.38 -0.566024344369648
2858.4 -0.553862578769596
2858.42 -0.542158122510723
2858.44 -0.530879471495554
2858.46 -0.519972700208309
2858.48 -0.509460355831214
2858.5 -0.499278427910104
2858.52 -0.489426282970929
2858.54 -0.479917935284663
2858.56 -0.470730828637134
2858.58 -0.461823208644376
2858.6 -0.453183629292853
2858.62 -0.444806286485697
2858.64 -0.436699668008551
2858.66 -0.428851681268921
2858.68 -0.421209632144752
2858.7 -0.413828551702511
2858.72 -0.406631679963514
2858.74 -0.399658667637733
2858.76 -0.392872082394688
2858.78 -0.386275985817154
2858.8 -0.379871544186156
2858.82 -0.373639199706196
2858.84 -0.367569372292631
2858.86 -0.361673658198949
2858.88 -0.355931050528723
2858.9 -0.350330473839969
2858.92 -0.34488849550994
2858.94 -0.339567732648893
2858.96 -0.334389872018131
2858.98 -0.329339662321989
2859 -0.324426922049437
2859.02 -0.319614240303884
2859.04 -0.314930362786449
2859.06 -0.310355206260405
2859.08 -0.305898089503322
2859.1 -0.301529828352646
2859.12 -0.297274262669157
2859.14 -0.293113671802858
2859.16 -0.289045156440452
2859.18 -0.28506753863522
2859.2 -0.281185780051983
2859.22 -0.27737835184429
2859.24 -0.273662754530736
2859.26 -0.270027103040132
2859.28 -0.266476165536654
2859.3 -0.26299049614164
2859.32 -0.259576721719173
2859.34 -0.256241999563189
2859.36 -0.252975925027642
2859.38 -0.249774237928477
2859.4 -0.246637450939315
2859.42 -0.243562651006453
2859.44 -0.240549190520121
2859.46 -0.237601339652472
2859.48 -0.234711219624957
2859.5 -0.231868679817458
2859.52 -0.229087702978465
2859.54 -0.226359090993108
2859.56 -0.223682343783689
2859.58 -0.221061411026577
2859.6 -0.218482592507871
2859.62 -0.215950953652361
2859.64 -0.213471856149157
2859.66 -0.211038065817639
2859.68 -0.208640735994743
2859.7 -0.206292914612944
2859.72 -0.203986440573014
2859.74 -0.201720318100958
2859.76 -0.19949358172691
2859.78 -0.197311562854568
2859.8 -0.195161279585341
2859.82 -0.193047051961774
2859.84 -0.19097452243681
2859.86 -0.188931508275727
2859.88 -0.186928294322663
2859.9 -0.184957708345103
2859.92 -0.18301954311941
2859.94 -0.181113555240543
2859.96 -0.17923852487075
2859.98 -0.177393765292043
2860 -0.175578609051513
2860.02 -0.173792407311254
2860.04 -0.172034952540455
2860.06 -0.170309101751417
2860.08 -0.168606360310912
2860.1 -0.166930133266513
2860.12 -0.165283958768041
2860.14 -0.16365901273769
2860.16 -0.16206289691612
2860.18 -0.160491346808504
2860.2 -0.158943148723343
2860.22 -0.157414749451556
2860.24 -0.155912907478579
2860.26 -0.154433335191045
2860.28 -0.152975582431873
2860.3 -0.151539210557086
2860.32 -0.15012379208105
2860.34 -0.148728910334457
2860.36 -0.147354439356835
2860.38 -0.14600298472588
2860.4 -0.144667251068904
2860.42 -0.143350751148495
2860.44 -0.142055987605853
2860.46 -0.140776268414184
2860.48 -0.139514436960713
2860.5 -0.138273389626249
2860.52 -0.137046269047342
2860.54 -0.135839176440173
2860.56 -0.134648341347597
2860.58 -0.133471077425187
2860.6 -0.132312553573084
2860.62 -0.131169610044945
2860.64 -0.130039257046312
2860.66 -0.128926664607353
2860.68 -0.127828816546697
2860.7 -0.126745634308345
2860.72 -0.125676479916624
2860.74 -0.124621469843662
2860.76 -0.123579994643924
2860.78 -0.122549713144284
2860.8 -0.121535147833702
2860.82 -0.120535968415958
2860.84 -0.119547142602435
2860.86 -0.118570868600679
2860.88 -0.117606929980544
2860.9 -0.116655115037986
2860.92 -0.115715216670586
2860.94 -0.114787175223865
2860.96 -0.113872683497593
2860.98 -0.112967443164474
2861 -0.112073329405488
};
\addlegendentry{МЭС}
\addplot [line width=2pt, color1, dashed]
table {%
2850.8 -0.58905110123894
2850.809 -0.59623298158939
2850.818 -0.60357238977141
2850.827 -0.61107422277803
2850.836 -0.61874356813584
2850.845 -0.62658571255087
2850.854 -0.63460615099108
2850.863 -0.64281059622913
2850.872 -0.65120498887015
2850.881 -0.65979550789106
2850.89 -0.668588581719
2850.899 -0.67759089987824
2850.908 -0.68680942523643
2850.917 -0.69625140688272
2850.926 -0.70592439367215
2850.935 -0.71583624847248
2850.944 -0.72599516315147
2850.953 -0.73640967434513
2850.962 -0.74708868004873
2850.971 -0.75804145707559
2850.98 -0.7692776794301
2850.989 -0.78080743764448
2850.998 -0.79264125913083
2851.007 -0.80479012960299
2851.016 -0.81726551562505
2851.025 -0.8300793883465
2851.034 -0.84324424848653
2851.043 -0.85677315263326
2851.052 -0.87067974092617
2851.061 -0.88497826619371
2851.07 -0.89968362462068
2851.079 -0.91481138802314
2851.088 -0.93037783781205
2851.097 -0.94640000072955
2851.106 -0.96289568644521
2851.115 -0.97988352710227
2851.124 -0.99738301890709
2851.133 -1.0154145658574
2851.142 -1.033999525708
2851.151 -1.053160258274
2851.16 -1.0729201761743
2851.169 -1.0933037981198
2851.178 -1.114336804851
2851.187 -1.1360460978295
2851.196 -1.1584598607918
2851.205 -1.1816076242654
2851.214 -1.2055203331531
2851.223 -1.230230417483
2851.232 -1.2557718664186
2851.241 -1.2821803056194
2851.25 -1.3094930780323
2851.259 -1.3377493281866
2851.268 -1.366990090053
2851.277 -1.397258378514
2851.286 -1.4285992844757
2851.295 -1.4610600736321
2851.304 -1.4946902888708
2851.313 -1.5295418562816
2851.322 -1.5656691947009
2851.331 -1.6031293286891
2851.34 -1.6419820047996
2851.349 -1.6822898109552
2851.358 -1.7241182986976
2851.367 -1.7675361080211
2851.376 -1.8126150944421
2851.385 -1.8594304578901
2851.394 -1.9080608729323
2851.403 -1.9585886197681
2851.412 -2.0110997153443
2851.421 -2.0656840438532
2851.43 -2.1224354857817
2851.439 -2.1814520445809
2851.448 -2.2428359699232
2851.457 -2.3066938764119
2851.466 -2.373136856502
2851.475 -2.4422805862905
2851.484 -2.5142454227354
2851.493 -2.5891564907706
2851.502 -2.6671437587051
2851.511 -2.7483421002247
2851.52 -2.8328913412694
2851.529 -2.9209362900312
2851.538 -3.0126267483212
2851.547 -3.1081175025903
2851.556 -3.2075682929614
2851.565 -3.3111437587529
2851.574 -3.4190133591383
2851.583 -3.5313512678148
2851.592 -3.6483362408318
2851.601 -3.7701514570811
2851.61 -3.8969843313537
2851.619 -4.0290263003483
2851.628 -4.1664725825512
2851.637 -4.309521913505
2851.646 -4.4583762586336
2851.655 -4.6132405064855
2851.664 -4.7743221459794
2851.673 -4.9418309319801
2851.682 -5.1159785442683
2851.691 -5.2969782456848
2851.7 -5.485044545899
2851.709 -5.6803928778495
2851.718 -5.8832392944098
2851.727 -6.0938001932147
2851.736 -6.3122920778169
2851.745 -6.5389313634185
2851.754 -6.773934235299
2851.763 -7.0175165677441
2851.772 -7.2698939107385
2851.781 -7.5312815509288
2851.79 -7.801894652367
2851.799 -8.0819484813297
2851.808 -8.3716587180516
2851.817 -8.6712418565331
2851.826 -8.9809156916612
2851.835 -9.3008998907204
2851.844 -9.6314166439396
2851.853 -9.9726913859834
2851.862 -10.324953577198
2851.871 -10.688437529869
2851.88 -11.063383260603
2851.889 -11.45003734508
2851.898 -11.848653745499
2851.907 -12.259494573888
2851.916 -12.682830745487
2851.925 -13.11894246528
2851.934 -13.568119476596
2851.943 -14.030660982744
2851.952 -14.506875129746
2851.961 -14.997077908906
2851.97 -15.50159130047
2851.979 -16.020740431761
2851.988 -16.554849462094
2851.997 -17.104235829304
2852.006 -17.66920239494
2852.015 -18.250026902822
2852.024 -18.846948014509
2852.033 -19.460147001541
2852.042 -20.089723956973
2852.051 -20.735667141237
2852.06 -21.3978138133
2852.069 -22.075800648141
2852.078 -22.769001666042
2852.087 -23.476451604909
2852.096 -24.196753029991
2852.105 -24.927966466549
2852.114 -25.667484840487
2852.123 -26.411896989953
2852.132 -27.1568504225
2852.141 -27.896931010754
2852.15 -28.625586333184
2852.159 -29.335127755683
2852.168 -30.01684983268
2852.177 -30.661297941167
2852.186 -31.258690295564
2852.195 -31.799457956396
2852.204 -32.274816726834
2852.213 -32.677251234032
2852.222 -33.000800723589
2852.231 -33.241099153444
2852.24 -33.395218830526
2852.249 -33.46145032767
2852.258 -33.43917474007
2852.267 -33.328929636681
2852.276 -33.132660595825
2852.285 -32.854039368201
2852.294 -32.498674286458
2852.303 -32.074068011205
2852.312 -31.589275464379
2852.321 -31.054327294285
2852.33 -30.479555708468
2852.339 -29.874966017093
2852.348 -29.249753289941
2852.357 -28.612002506998
2852.366 -27.968560506432
2852.375 -27.325040535015
2852.384 -26.685913220544
2852.393 -26.054643426899
2852.402 -25.433843097914
2852.411 -24.825420937177
2852.42 -24.230718376605
2852.429 -23.650627270729
2852.438 -23.085688466005
2852.447 -22.5361724382
2852.456 -22.002144135943
2852.465 -21.483514453482
2852.474 -20.980080680524
2852.483 -20.491558030863
2852.492 -20.017604044933
2852.501 -19.557837353954
2852.51 -19.111852013896
2852.519 -18.679228376904
2852.528 -18.259541267609
2852.537 -17.852366068824
2852.546 -17.457283190489
2852.555 -17.073881292067
2852.564 -16.701759546935
2852.573 -16.340529173262
2852.582 -15.989814405854
2852.591 -15.649253044395
2852.6 -15.318496683105
2852.609 -14.997210703209
2852.618 -14.685074091135
2852.627 -14.381779131083
2852.636 -14.087031009394
2852.645 -13.800547359501
2852.654 -13.52205776945
2852.663 -13.251303268723
2852.672 -12.988035807
2852.681 -12.732017734271
2852.69 -12.483021289281
2852.699 -12.240828101311
2852.708 -12.005228708835
2852.717 -11.776022097445
2852.726 -11.553015258516
2852.735 -11.336022769451
2852.744 -11.124866395787
2852.753 -10.919374715078
2852.762 -10.719382762188
2852.771 -10.524731695397
2852.78 -10.33526848259
2852.789 -10.150845606691
2852.798 -9.9713207894415
2852.807 -9.7965567325888
2852.816 -9.6264208755221
2852.825 -9.4607851684154
2852.834 -9.2995258599364
2852.843 -9.1425232986069
2852.852 -8.9896617469355
2852.861 -8.8408292074714
2852.87 -8.6959172599707
2852.879 -8.5548209089058
2852.888 -8.4174384405869
2852.897 -8.2836712892098
2852.906 -8.1534239111805
2852.915 -8.0266036671128
2852.924 -7.9031207109265
2852.933 -7.7828878855209
2852.942 -7.6658206245251
2852.951 -7.5518368596686
2852.96 -7.4408569333451
2852.969 -7.3328035159738
2852.978 -7.2276015277935
2852.987 -7.1251780647523
2852.996 -7.0254623281807
2853.005 -6.9283855579626
2853.014 -6.8338809689394
2853.023 -6.741883690307
2853.032 -6.6523307077814
2853.041 -6.5651608083311
2853.05 -6.4803145272899
2853.059 -6.3977340976795
2853.068 -6.3173634015864
2853.077 -6.2391479234518
2853.086 -6.163034705146
2853.095 -6.0889723027067
2853.104 -6.0169107446381
2853.113 -5.9468014916704
2853.122 -5.8785973978916
2853.131 -5.812252673172
2853.14 -5.7477228468082
2853.149 -5.6849647323181
2853.158 -5.6239363933294
2853.167 -5.5645971105045
2853.176 -5.5069073494524
2853.185 -5.4508287295831
2853.194 -5.3963239938611
2853.203 -5.3433569794221
2853.212 -5.2918925890174
2853.221 -5.2418967632545
2853.23 -5.1933364536046
2853.239 -5.1461795961519
2853.248 -5.1003950860576
2853.257 -5.0559527527177
2853.266 -5.012823335594
2853.275 -4.9709784606962
2853.284 -4.9303906176999
2853.293 -4.8910331376811
2853.302 -4.8528801714542
2853.311 -4.8159066684838
2853.32 -4.7800883563984
2853.329 -4.7454017210214
2853.338 -4.7118239869777
2853.347 -4.6793330988195
2853.356 -4.6479077026768
2853.365 -4.6175271284062
2853.374 -4.5881713722613
2853.383 -4.559821080017
2853.392 -4.5324575305944
2853.401 -4.5060626201403
2853.41 -4.4806188465662
2853.419 -4.4561092945234
2853.428 -4.4325176208351
2853.437 -4.4098280403268
2853.446 -4.3880253120947
2853.455 -4.3670947261731
2853.464 -4.3470220906032
2853.473 -4.3277937188855
2853.482 -4.3093964178286
2853.491 -4.2918174757503
2853.5 -4.2750446510575
2853.509 -4.2590661611767
2853.518 -4.2438706718324
2853.527 -4.2294472866614
2853.536 -4.2157855371693
2853.545 -4.2028753729957
2853.554 -4.190707152506
2853.563 -4.1792716336874
2853.572 -4.1685599653466
2853.581 -4.1585636785973
2853.59 -4.1492746786424
2853.599 -4.1406852368235
2853.608 -4.132787982951
2853.617 -4.1255758978954
2853.626 -4.1190423064377
2853.635 -4.1131808703696
2853.644 -4.107985581843
2853.653 -4.1034507569517
2853.662 -4.0995710295501
2853.671 -4.0963413452957
2853.68 -4.0937569559118
2853.689 -4.0918134136638
2853.698 -4.0905065660444
2853.707 -4.089832550659
2853.716 -4.0897877903097
2853.725 -4.0903689882686
2853.734 -4.0915731237372
2853.743 -4.0933974474866
2853.752 -4.0958394776706
2853.761 -4.0988969958102
2853.77 -4.1025680429423
2853.779 -4.1068509159271
2853.788 -4.111744163911
2853.797 -4.11724658494
2853.806 -4.123357222715
2853.815 -4.1300753634926
2853.824 -4.1374005331173
2853.833 -4.1453324941877
2853.842 -4.1538712433476
2853.851 -4.1630170087037
2853.86 -4.172770247354
2853.869 -4.1831316430393
2853.878 -4.1941021038982
2853.887 -4.2056827603298
2853.896 -4.2178749629581
2853.905 -4.230680280697
2853.914 -4.2441004988992
2853.923 -4.2581376176089
2853.932 -4.2727938498898
2853.941 -4.2880716202391
2853.95 -4.3039735630787
2853.959 -4.3205025213264
2853.968 -4.3376615450241
2853.977 -4.3554538900515
2853.986 -4.3738830168899
2853.995 -4.3929525894514
2854.004 -4.4126664739628
2854.013 -4.4330287379083
2854.022 -4.4540436490068
2854.031 -4.4757156742551
2854.04 -4.498049478999
2854.049 -4.5210499260497
2854.058 -4.5447220748334
2854.067 -4.5690711805815
2854.076 -4.5941026935311
2854.085 -4.6198222581771
2854.094 -4.6462357125282
2854.103 -4.6733490873899
2854.112 -4.7011686056622
2854.121 -4.7297006816598
2854.13 -4.75895192042
2854.139 -4.7889291170492
2854.148 -4.8196392560516
2854.157 -4.8510895106683
2854.166 -4.8832872422142
2854.175 -4.9162399994203
2854.184 -4.9499555177459
2854.193 -4.9844417187155
2854.202 -5.0197067092212
2854.211 -5.0557587808201
2854.22 -5.0926064090155
2854.229 -5.1302582525308
2854.238 -5.1687231525358
2854.247 -5.2080101318917
2854.256 -5.2481283943435
2854.265 -5.2890873237009
2854.274 -5.3308964829891
2854.283 -5.3735656135872
2854.292 -5.4171046343053
2854.301 -5.4615236404779
2854.31 -5.5068329029959
2854.319 -5.5530428673216
2854.328 -5.6001641524709
2854.337 -5.6482075499802
2854.346 -5.6971840228078
2854.355 -5.7471047042566
2854.364 -5.7979808968316
2854.373 -5.8498240710871
2854.382 -5.9026458644424
2854.391 -5.9564580799924
2854.4 -6.0112726852539
2854.409 -6.0671018109505
2854.418 -6.1239577497382
2854.427 -6.1818529549357
2854.436 -6.2408000392383
2854.445 -6.3008117734456
2854.454 -6.3619010851395
2854.463 -6.4240810574281
2854.472 -6.4873649276503
2854.481 -6.551766086111
2854.49 -6.6172980748295
2854.499 -6.6839745863319
2854.508 -6.7518094624227
2854.517 -6.8208166930642
2854.526 -6.8910104152476
2854.535 -6.9624049119385
2854.544 -7.0350146110746
2854.553 -7.1088540846569
2854.562 -7.1839380478594
2854.571 -7.2602813583041
2854.58 -7.3378990153746
2854.589 -7.4168061596586
2854.598 -7.4970180725007
2854.607 -7.5785501757073
2854.616 -7.6614180313266
2854.625 -7.7456373416646
2854.634 -7.8312239493983
2854.643 -7.9181938378884
2854.652 -8.0065631316699
2854.661 -8.0963480971693
2854.67 -8.1875651435629
2854.679 -8.2802308239543
2854.688 -8.3743618367193
2854.697 -8.4699750271315
2854.706 -8.5670873892418
2854.715 -8.6657160680711
2854.724 -8.7658783620159
2854.733 -8.8675917256678
2854.742 -8.9708737728755
2854.751 -9.0757422801754
2854.76 -9.1822151905619
2854.769 -9.2903106176578
2854.778 -9.4000468501789
2854.787 -9.5114423569074
2854.796 -9.6245157919899
2854.805 -9.7392860006924
2854.814 -9.8557720255832
2854.823 -9.9739931132059
2854.832 -10.093968721126
2854.841 -10.215718525587
2854.85 -10.339262429566
2854.859 -10.464620571379
2854.868 -10.591813333804
2854.877 -10.720861353776
2854.886 -10.851785532539
2854.895 -10.984607046503
2854.904 -11.119347358581
2854.913 -11.256028230162
2854.922 -11.394671733681
2854.931 -11.535300265861
2854.94 -11.677936561482
2854.949 -11.822603707954
2854.958 -11.969325160439
2854.967 -12.118124757716
2854.976 -12.269026738711
2854.985 -12.422055759803
2854.994 -12.577236912724
2855.003 -12.734595743375
2855.012 -12.894158271272
2855.021 -13.05595100982
2855.03 -13.220000987361
2855.039 -13.386335769083
2855.048 -13.554983479626
2855.057 -13.725972826704
2855.066 -13.899333125465
2855.075 -14.075094323781
2855.084 -14.253287028427
2855.093 -14.433942532239
2855.102 -14.617092842077
2855.111 -14.802770707946
2855.12 -14.991009652968
2855.129 -15.181844004431
2855.138 -15.375308925855
2855.147 -15.571440450197
2855.156 -15.770275514003
2855.165 -15.971851992881
2855.174 -16.176208738
2855.183 -16.383385613819
2855.192 -16.593423537044
2855.201 -16.806364516893
2855.21 -17.022251696504
2855.219 -17.241129395896
2855.228 -17.463043156142
2855.237 -17.688039785023
2855.246 -17.916167404126
2855.255 -18.147475497517
2855.264 -18.382014961783
2855.273 -18.619838157931
2855.282 -18.860998964743
2855.291 -19.10555283393
2855.3 -19.35355684702
2855.309 -19.605069774085
2855.318 -19.860152134332
2855.327 -20.118866258662
2855.336 -20.381276354224
2855.345 -20.64744857107
2855.354 -20.917451070964
2855.363 -21.191354098427
2855.372 -21.469230054126
2855.381 -21.751153570665
2855.39 -22.037201590912
2855.399 -22.327453448948
2855.408 -22.621990953784
2855.417 -22.920898475957
2855.426 -23.224263037181
2855.435 -23.532174403218
2855.444 -23.844725180169
2855.453 -24.162010914425
2855.462 -24.484130196534
2855.471 -24.811184769316
2855.48 -25.14327964059
2855.489 -25.480523200956
2855.498 -25.823027347159
2855.507 -26.170907611663
2855.516 -26.524283299185
2855.525 -26.883277631088
2855.534 -27.248017898718
2855.543 -27.618635626978
2855.552 -27.995266749699
2855.561 -28.378051798687
2855.57 -28.76713610868
2855.579 -29.162670040929
2855.588 -29.564809228601
2855.597 -29.973714847875
2855.606 -30.389553919303
2855.615 -30.812499644891
2855.624 -31.242731787338
2855.633 -31.680437099036
2855.642 -32.125809809738
2855.651 -32.579052183279
2855.66 -33.040375155368
2855.669 -33.509999066241
2855.678 -33.9881545038
2855.687 -34.475083274738
2855.696 -34.971039522801
2855.705 -35.47629101468
2855.714 -35.991120614582
2855.723 -36.515827967775
2855.732 -37.050731410626
2855.741 -37.596170118484
2855.75 -38.152506491605
2855.759 -38.720128760457
2855.768 -39.299453761427
2855.777 -39.890929786574
2855.786 -40.495039338405
2855.795 -41.112301510499
2855.804 -41.743273549306
2855.813 -42.388550904845
2855.822 -43.048764708897
2855.831 -43.724575069881
2855.84 -44.416657757389
2855.849 -45.125680639279
2855.858 -45.852264448157
2855.867 -46.596919838583
2855.876 -47.359948922047
2855.885 -48.141294161892
2855.894 -48.94031040415
2855.903 -49.755427157344
2855.912 -50.583659785203
2855.921 -51.41992551828
2855.93 -52.256136342933
2855.939 -53.080102473284
2855.948 -53.874429417984
2855.957 -54.615867213041
2855.966 -55.275930772511
2855.975 -55.82378677028
2855.984 -56.231842061498
2855.993 -56.482805002691
2856.002 -56.575091540933
2856.011 -56.523439758285
2856.02 -56.354337032988
2856.029 -56.098986669946
2856.038 -55.787181647142
2856.047 -55.443780916208
2856.056 -55.08763111022
2856.065 -54.731975620607
2856.074 -54.38545933137
2856.083 -54.053191042028
2856.092 -53.737629296245
2856.101 -53.439233212121
2856.11 -53.15689847253
2856.119 -52.88822465625
2856.128 -52.629664210603
2856.137 -52.376601605545
2856.146 -52.123410223042
2856.155 -51.863535565021
2856.164 -51.589654073719
2856.173 -51.293952155736
2856.182 -50.968553284868
2856.191 -50.606087353488
2856.2 -50.200347592908
2856.209 -49.74692973653
2856.218 -49.243719106864
2856.227 -48.691106080803
2856.236 -48.091872823114
2856.245 -47.45078165068
2856.254 -46.773969756077
2856.263 -46.06828645745
2856.272 -45.340693008891
2856.281 -44.597799319424
2856.29 -43.845561543178
2856.299 -43.089126851483
2856.308 -42.332792263872
2856.317 -41.58004014263
2856.326 -40.833617680315
2856.335 -40.095635938391
2856.344 -39.36767225338
2856.353 -38.65086653452
2856.362 -37.946006752612
2856.371 -37.253601997578
2856.38 -36.573943277271
2856.389 -35.907153156176
2856.398 -35.253225710854
2856.407 -34.61205834677
2856.416 -33.98347691963
2856.425 -33.367255432746
2856.434 -32.763131388061
2856.443 -32.170817683102
2856.452 -31.590011777675
2856.461 -31.020402713999
2856.47 -30.461676453739
2856.479 -29.913519899833
2856.488 -29.375623892796
2856.497 -28.8476854101
2856.506 -28.329409146495
2856.515 -27.820508616448
2856.524 -27.320706887752
2856.533 -26.829737032327
2856.542 -26.347342360992
2856.551 -25.873276495059
2856.56 -25.407303314649
2856.569 -24.949196816377
2856.578 -24.498740904582
2856.587 -24.055729135429
2856.596 -23.619964428527
2856.605 -23.19125875792
2856.614 -22.76943283038
2856.623 -22.354315758435
2856.632 -21.945744732636
2856.641 -21.543564696949
2856.65 -21.147628029802
2856.659 -20.757794233145
2856.668 -20.373929630088
2856.677 -19.995907072694
2856.686 -19.623605659953
2856.695 -19.256910466278
2856.704 -18.895712280361
2856.713 -18.53990735459
2856.722 -18.189397164049
2856.731 -17.844088175386
2856.74 -17.503891624676
2856.749 -17.168723303934
2856.758 -16.838503355609
2856.767 -16.513156074881
2856.776 -16.192609718594
2856.785 -15.876796320896
2856.794 -15.565651514676
2856.803 -15.259114358398
2856.812 -14.957127167714
2856.821 -14.659635351679
2856.83 -14.366587252555
2856.839 -14.077933989323
2856.848 -13.793629304154
2856.857 -13.513629411588
2856.866 -13.237892849969
2856.875 -12.966380335131
2856.884 -12.699054615562
2856.893 -12.435880329338
2856.902 -12.176823862348
2856.911 -11.921853207783
2856.92 -11.670937826722
2856.929 -11.424048510047
2856.938 -11.18115724124
2856.947 -10.942237060607
2856.956 -10.707261930765
2856.965 -10.476206603651
2856.974 -10.24904648919
2856.983 -10.025757526108
2856.992 -9.8063160547835
2857.001 -9.590698692878
2857.01 -9.3788822138588
2857.019 -9.1708434289
2857.028 -8.9665590724757
2857.037 -8.766005692299
2857.046 -8.569159543649
2857.055 -8.3759964888944
2857.064 -8.1864919024051
2857.073 -8.0006205813392
2857.082 -7.8183566626113
2857.091 -7.6396735466015
2857.1 -7.4645438275846
2857.109 -7.292939231504
2857.118 -7.1248305611223
2857.127 -6.9601876488152
2857.136 -6.7989793170768
2857.145 -6.6411733469996
2857.154 -6.486736454455
2857.163 -6.3356342742455
2857.172 -6.1878313519621
2857.181 -6.0432911434692
2857.19 -5.9019760217617
2857.199 -5.7638472911011
2857.208 -5.6288652078698
2857.217 -5.4969890080669
2857.226 -5.3681769409015
2857.235 -5.2423863081286
2857.244 -5.1195735086213
2857.253 -4.9996940878491
2857.262 -4.8827027915341
2857.271 -4.7685536232142
2857.28 -4.6571999050564
2857.289 -4.548594341457
2857.298 -4.4426890848671
2857.307 -4.3394358034542
2857.316 -4.2387857499071
2857.325 -4.1406898311016
2857.334 -4.0450986780491
2857.343 -3.9519627157352
2857.352 -3.8612322323981
2857.361 -3.772857447965
2857.37 -3.686788581124
2857.379 -3.6029759148787
2857.388 -3.5213698601934
2857.397 -3.4419210175096
2857.406 -3.3645802358728
2857.415 -3.2892986695657
2857.424 -3.216027831937
2857.433 -3.1447196464417
2857.442 -3.0753264947006
2857.451 -3.0078012615373
2857.46 -2.9420973769142
2857.469 -2.8781688548156
2857.478 -2.815970328952
2857.487 -2.7554570854265
2857.496 -2.6965850923252
2857.505 -2.639311026312
2857.514 -2.5835922962704
2857.523 -2.5293870641362
2857.532 -2.4766542629054
2857.541 -2.4253536120255
2857.55 -2.3754456302121
2857.559 -2.3268916458314
2857.568 -2.2796538049436
2857.577 -2.2336950771859
2857.586 -2.1889792595268
2857.595 -2.1454709781093
2857.604 -2.1031356882512
2857.613 -2.0619396727503
2857.622 -2.0218500385963
2857.631 -1.982834712257
2857.64 -1.9448624335804
2857.649 -1.9079027485006
2857.658 -1.8719260006145
2857.667 -1.8369033217506
2857.676 -1.802806621617
2857.685 -1.7696085766648
2857.694 -1.737282618193
2857.703 -1.7058029198492
2857.712 -1.6751443845675
2857.721 -1.6452826310379
2857.73 -1.6161939797658
2857.739 -1.5878554388236
2857.748 -1.5602446893031
2857.757 -1.5333400705818
2857.766 -1.5071205654258
2857.775 -1.4815657849921
2857.784 -1.4566559537643
2857.793 -1.4323718944953
2857.802 -1.4086950131453
2857.811 -1.3856072839002
2857.82 -1.3630912342733
2857.829 -1.341129930329
2857.838 -1.3197069620459
2857.847 -1.2988064288663
2857.856 -1.2784129254115
2857.865 -1.2585115274232
2857.874 -1.2390877779193
2857.883 -1.2201276735909
2857.892 -1.2016176514402
2857.901 -1.1835445756921
2857.91 -1.1658957249537
2857.919 -1.1486587796599
2857.928 -1.1318218097936
2857.937 -1.1153732628886
2857.946 -1.0993019523139
2857.955 -1.0835970458567
2857.964 -1.0682480545768
2857.973 -1.0532448219612
2857.982 -1.0385775133601
2857.991 -1.0242366057094
2858 -1.0102128775323
2858.009 -0.99649739923145
2858.018 -0.98308152364288
2858.027 -0.96995687687459
2858.036 -0.95711534940918
2858.045 -0.94454908747248
2858.054 -0.93225048465802
2858.063 -0.92021217381612
2858.072 -0.90842701917953
2858.081 -0.89688810874328
2858.09 -0.88558874687958
2858.099 -0.87452244718734
2858.108 -0.86368292556598
2858.117 -0.85306409352018
2858.126 -0.84266005166955
2858.135 -0.83246508347769
2858.144 -0.82247364918306
2858.153 -0.81268037993042
2858.162 -0.80308007209307
2858.171 -0.79366768179124
2858.18 -0.78443831958303
2858.189 -0.77538724534064
2858.198 -0.76650986329559
2858.207 -0.75780171725194
2858.216 -0.74925848595849
2858.225 -0.74087597864463
2858.234 -0.73265013069882
2858.243 -0.72457699950101
2858.252 -0.71665276039447
2858.261 -0.70887370279621
2858.27 -0.70123622643809
2858.279 -0.69373683774286
2858.288 -0.68637214631651
2858.297 -0.67913886156714
2858.306 -0.67203378943771
2858.315 -0.66505382925193
2858.324 -0.65819597066656
2858.333 -0.65145729073414
2858.342 -0.64483495105961
2858.351 -0.6383261950603
2858.36 -0.63192834531822
2858.369 -0.62563880102408
2858.378 -0.6194550355075
2858.387 -0.61337459385702
2858.396 -0.60739509061559
2858.405 -0.60151420755996
2858.414 -0.59572969155463
2858.423 -0.59003935247997
2858.432 -0.58444106122965
2858.441 -0.57893274778105
2858.45 -0.57351239932598
2858.459 -0.56817805846951
2858.468 -0.5629278214887
2858.477 -0.55775983665119
2858.486 -0.55267230258942
2858.495 -0.54766346673417
2858.504 -0.54273162379599
2858.513 -0.537875114302
2858.522 -0.53309232318068
2858.531 -0.52838167839495
2858.54 -0.52374164961989
2858.549 -0.51917074696861
2858.558 -0.51466751975609
2858.567 -0.51023055530808
2858.576 -0.50585847780841
2858.585 -0.50154994718531
2858.594 -0.49730365803341
2858.603 -0.49311833857505
2858.612 -0.48899274965149
2858.621 -0.48492568375098
2858.63 -0.48091596406768
2858.639 -0.47696244359092
2858.648 -0.47306400422614
2858.657 -0.46921955594376
2858.666 -0.46542803595474
2858.675 -0.46168840791506
2858.684 -0.45799966115514
2858.693 -0.45436080993361
2858.702 -0.45077089271695
2858.711 -0.44722897148149
2858.72 -0.44373413103692
2858.729 -0.44028547837329
2858.738 -0.43688214202819
2858.747 -0.43352327147339
2858.756 -0.43020803652275
2858.765 -0.42693562675799
2858.774 -0.42370525097184
2858.783 -0.42051613663039
2858.792 -0.41736752935164
2858.801 -0.41425869239984
2858.81 -0.41118890619721
2858.819 -0.40815746784998
2858.828 -0.40516369068857
2858.837 -0.4022069038234
2858.846 -0.39928645171384
2858.855 -0.39640169374998
2858.864 -0.39355200384848
2858.873 -0.39073677006028
2858.882 -0.38795539418943
2858.891 -0.38520729142497
2858.9 -0.38249188998346
2858.909 -0.37980863076171
2858.918 -0.3771569670014
2858.927 -0.37453636396299
2858.936 -0.37194629860887
2858.945 -0.36938625929725
2858.954 -0.36685574548451
2858.963 -0.36435426743607
2858.972 -0.36188134594695
2858.981 -0.35943651206996
2858.99 -0.3570193068513
2858.999 -0.35462928107506
2859.008 -0.35226599501473
2859.017 -0.3499290181915
2859.026 -0.34761792914068
2859.035 -0.34533231518433
2859.044 -0.34307177220987
2859.053 -0.34083590445615
2859.062 -0.33862432430521
2859.071 -0.33643665207953
2859.08 -0.3342725158462
2859.089 -0.33213155122601
2859.098 -0.33001340120742
2859.107 -0.32791771596686
2859.116 -0.3258441526936
2859.125 -0.32379237541916
2859.134 -0.32176205485245
2859.143 -0.319752868219
2859.152 -0.31776449910411
2859.161 -0.3157966373014
2859.17 -0.31384897866499
2859.179 -0.31192122496547
2859.188 -0.31001308375071
2859.197 -0.30812426820996
2859.206 -0.30625449704121
2859.215 -0.30440349432303
2859.224 -0.30257098938947
2859.233 -0.30075671670801
2859.242 -0.29896041576167
2859.251 -0.29718183093376
2859.26 -0.29542071139524
2859.269 -0.29367681099607
2859.278 -0.29194988815889
2859.287 -0.29023970577527
2859.296 -0.28854603110552
2859.305 -0.28686863568066
2859.314 -0.28520729520651
2859.323 -0.28356178947109
2859.332 -0.28193190225419
2859.341 -0.28031742123877
2859.35 -0.27871813792556
2859.359 -0.27713384754939
2859.368 -0.2755643489973
2859.377 -0.27400944472942
2859.386 -0.27246894070165
2859.395 -0.27094264628989
2859.404 -0.26943037421701
2859.413 -0.2679319404812
2859.422 -0.26644716428574
2859.431 -0.26497586797134
2859.44 -0.26351787694973
2859.449 -0.26207301963868
2859.458 -0.26064112739937
2859.467 -0.25922203447479
2859.476 -0.25781557792947
2859.485 -0.25642159759126
2859.494 -0.25503993599423
2859.503 -0.25367043832279
2859.512 -0.25231295235771
2859.521 -0.25096732842318
2859.53 -0.24963341933472
2859.539 -0.24831108034909
2859.548 -0.24700016911504
2859.557 -0.24570054562502
2859.566 -0.24441207216863
2859.575 -0.2431346132869
2859.584 -0.24186803572723
2859.593 -0.2406122084001
2859.602 -0.23936700233651
2859.611 -0.23813229064609
2859.62 -0.23690794847691
2859.629 -0.23569385297582
2859.638 -0.23448988324939
2859.647 -0.23329592032644
2859.656 -0.23211184712102
2859.665 -0.23093754839618
2859.674 -0.22977291072899
2859.683 -0.22861782247613
2859.692 -0.22747217373997
2859.701 -0.22633585633593
2859.71 -0.22520876376039
2859.719 -0.22409079115903
2859.728 -0.22298183529651
2859.737 -0.22188179452648
2859.746 -0.22079056876194
2859.755 -0.21970805944692
2859.764 -0.21863416952841
2859.773 -0.21756880342873
2859.782 -0.21651186701935
2859.791 -0.21546326759413
2859.8 -0.21442291384405
};
\addlegendentry{МКЭ}
\end{axis}

\end{tikzpicture}
