% This file was created by tikzplotlib v0.9.4.
\begin{tikzpicture}
\tikzstyle{every node}=[font=\small]

\definecolor{color0}{rgb}{0.12156862745098,0.466666666666667,0.705882352941177}
\definecolor{color1}{rgb}{1,0.498039215686275,0.0549019607843137}

\begin{axis}[
xtick distance=3,
height=3.5cm,
legend cell align={left},
legend style={fill opacity=1, draw opacity=1, text opacity=1, at={(0,-0.1)}, draw=white!80!black},
tick align=outside,
tick pos=left,
title={\(\displaystyle \lambda = 1/4\)},
width=4.8cm,
x grid style={white!69.0196078431373!black},
xlabel={\(\displaystyle f, \si{\MHz}\)},
xmajorgrids,
xmin=2851, xmax=2860,
xtick style={color=black},
y grid style={white!69.0196078431373!black},
ylabel={\(\displaystyle |S_{11}|, \si{\dB}\)},
ymajorgrids,
ymin=-50.8053931753573, ymax=2.29254348589914,
ytick style={color=black}
]
\addplot [line width=2pt, color0]
table {%
2851 -0.901617101526754
2851.02 -0.945994490212148
2851.04 -0.994200633523532
2851.06 -1.04673079012173
2851.08 -1.10403187690647
2851.1 -1.16666851168844
2851.12 -1.23535169585196
2851.14 -1.31073544417388
2851.16 -1.39375187590629
2851.18 -1.48523688349293
2851.2 -1.58648970588378
2851.22 -1.69864386597585
2851.24 -1.82293106665705
2851.26 -1.96104694133903
2851.28 -2.11487111548153
2851.3 -2.28626612194009
2851.32 -2.47732905322922
2851.34 -2.69057818064905
2851.36 -2.92880755052844
2851.38 -3.19461366953886
2851.4 -3.49113278396662
2851.42 -3.82090599225889
2851.44 -4.18789095612279
2851.46 -4.59384654093955
2851.48 -5.04171092294232
2851.5 -5.53251482069854
2851.52 -6.06845795061218
2851.54 -6.64590653231067
2851.56 -7.26471495792762
2851.58 -7.91670226692581
2851.6 -8.59323082719032
2851.62 -9.27904966428322
2851.64 -9.95492528376576
2851.66 -10.5994439306707
2851.68 -11.1868629320484
2851.7 -11.691291705331
2851.72 -12.0946685844209
2851.74 -12.3924963837789
2851.76 -12.5866491992621
2851.78 -12.6921265299399
2851.8 -12.7309053482125
2851.82 -12.7298751621399
2851.84 -12.7072805447503
2851.86 -12.6834390961184
2851.88 -12.672778263654
2851.9 -12.6885669418837
2851.92 -12.7347050310968
2851.94 -12.8206559593869
2851.96 -12.9518333863909
2851.98 -13.1314909908127
2852 -13.3649518831728
2852.02 -13.6577130676901
2852.04 -14.014589834079
2852.06 -14.4415536950555
2852.08 -14.9483201502105
2852.1 -15.5425948813526
2852.12 -16.2388232568265
2852.14 -17.0521804849591
2852.16 -17.9988469853928
2852.18 -19.1070103869895
2852.2 -20.3903738544871
2852.22 -21.8441567687505
2852.24 -23.3884007044082
2852.26 -24.7275086251358
2852.28 -25.2361675098083
2852.3 -24.5170506218515
2852.32 -22.9604074412105
2852.34 -21.1849860552458
2852.36 -19.4953789047135
2852.38 -17.9770785859977
2852.4 -16.6341597870382
2852.42 -15.4437892950694
2852.44 -14.3872618839188
2852.46 -13.4427539895362
2852.48 -12.5940266472753
2852.5 -11.8279823472865
2852.52 -11.1342395175683
2852.54 -10.5026571633477
2852.56 -9.92694308073654
2852.58 -9.39989429924825
2852.6 -8.91634732663072
2852.62 -8.47205371824764
2852.64 -8.06372465286824
2852.66 -7.68687227205689
2852.68 -7.33890873868908
2852.7 -7.01799273386498
2852.72 -6.72106341229061
2852.74 -6.44615149762012
2852.76 -6.19178493343848
2852.78 -5.95596936478676
2852.8 -5.73730074159033
2852.82 -5.53479881480787
2852.84 -5.34662577339516
2852.86 -5.17228467964419
2852.88 -5.01040568710761
2852.9 -4.86021989786065
2852.92 -4.72082528394331
2852.94 -4.59148181201988
2852.96 -4.47172352280481
2852.98 -4.36085311799275
2853 -4.25802476634518
2853.02 -4.16294625827485
2853.04 -4.07514610088307
2853.06 -3.99406930252187
2853.08 -3.91936370870386
2853.1 -3.85079341983425
2853.12 -3.78802847253568
2853.14 -3.73042878185174
2853.16 -3.67810417053855
2853.18 -3.63068913666047
2853.2 -3.58787476154871
2853.22 -3.54949689542618
2853.24 -3.51530877184356
2853.26 -3.48533987559295
2853.28 -3.45930226794431
2853.3 -3.43692660917235
2853.32 -3.41825451530639
2853.34 -3.40309824177942
2853.36 -3.39157957732846
2853.38 -3.38329754931537
2853.4 -3.37824932978382
2853.42 -3.37660077538039
2853.44 -3.37802021944213
2853.46 -3.38253483415333
2853.48 -3.39030791098916
2853.5 -3.40110238199606
2853.52 -3.41489187389922
2853.54 -3.43177909448496
2853.56 -3.4516209390469
2853.58 -3.47449099109395
2853.6 -3.50051279986484
2853.62 -3.52970086751872
2853.64 -3.56181185076741
2853.66 -3.59709102452148
2853.68 -3.63569093412687
2853.7 -3.67731762222177
2853.72 -3.72245582508265
2853.74 -3.77080713184997
2853.76 -3.82253720675111
2853.78 -3.87772631928271
2853.8 -3.9365624939263
2853.82 -3.99914149853725
2853.84 -4.06511368230067
2853.86 -4.13517908300471
2853.88 -4.20918795752878
2853.9 -4.28702428735591
2853.92 -4.36918704913645
2853.94 -4.45557245480356
2853.96 -4.54657188332352
2853.98 -4.64175655367472
2854 -4.74177799813014
2854.02 -4.84665170431895
2854.04 -4.95667165215294
2854.06 -5.07158454417148
2854.08 -5.19216704859699
2854.1 -5.31765716845409
2854.12 -5.4492561489069
2854.14 -5.58653304786918
2854.16 -5.7299978623172
2854.18 -5.87929965458868
2854.2 -6.03487753301234
2854.22 -6.19753112280735
2854.24 -6.3669257243051
2854.26 -6.54323400814589
2854.28 -6.72695518343885
2854.3 -6.91728401045052
2854.32 -7.11658184962942
2854.34 -7.32264534586805
2854.36 -7.53738928491116
2854.38 -7.75994148865275
2854.4 -7.99175311686151
2854.42 -8.23209626978679
2854.44 -8.48096202552878
2854.46 -8.73943008933606
2854.48 -9.0074092820739
2854.5 -9.28610465785749
2854.52 -9.57376970854661
2854.54 -9.87116295803298
2854.56 -10.1807957501548
2854.58 -10.5000203336645
2854.6 -10.8305531650943
2854.62 -11.1727300861983
2854.64 -11.5250281012538
2854.66 -11.8913133918914
2854.68 -12.2682954820384
2854.7 -12.6579679165735
2854.72 -13.0609440731733
2854.74 -13.4772362920846
2854.76 -13.906083166954
2854.78 -14.3476149605718
2854.8 -14.8037038017164
2854.82 -15.2738618489958
2854.84 -15.7591886538271
2854.86 -16.2568956288462
2854.88 -16.7711691964336
2854.9 -17.298712998554
2854.92 -17.8419508303217
2854.94 -18.3971042664789
2854.96 -18.968286006433
2854.98 -19.5537389479263
2855 -20.1497977784658
2855.02 -20.758828340594
2855.04 -21.3794169719798
2855.06 -22.0098098422636
2855.08 -22.6425175000838
2855.1 -23.2842157201276
2855.12 -23.9212354572068
2855.14 -24.5592755458811
2855.16 -25.1825724611973
2855.18 -25.7919408303436
2855.2 -26.3847446395674
2855.22 -26.9442870741797
2855.24 -27.4730787580875
2855.26 -27.9637641416241
2855.28 -28.4196098574866
2855.3 -28.8265579677596
2855.32 -29.2029182090665
2855.34 -29.5240324743137
2855.36 -29.8286696801032
2855.38 -30.0915115493168
2855.4 -30.3436720725238
2855.42 -30.5833621737277
2855.44 -30.8165697410064
2855.46 -31.0484787813108
2855.48 -31.285762490639
2855.5 -31.5339601549849
2855.52 -31.8087890803233
2855.54 -32.0891875888838
2855.56 -32.4231952081366
2855.58 -32.7727744823991
2855.6 -33.1578268049935
2855.62 -33.5801890381621
2855.64 -34.0458426710641
2855.66 -34.556391295419
2855.68 -35.1084904338617
2855.7 -35.7064950316405
2855.72 -36.3740831895829
2855.74 -37.0830368521704
2855.76 -37.8543617709783
2855.78 -38.6955091221345
2855.8 -39.5658886298151
2855.82 -40.5106031081299
2855.84 -41.54361174731
2855.86 -42.5713520830244
2855.88 -43.6255924090804
2855.9 -44.7318125920703
2855.92 -45.8309643147888
2855.94 -46.7783100229069
2855.96 -47.6050504507922
2855.98 -48.1213733751105
2856 -48.3918505998456
2856.02 -48.1260557701142
2856.04 -47.3916508062271
2856.06 -46.25815235715
2856.08 -44.8051195302321
2856.1 -43.1838923612923
2856.12 -41.4726542433257
2856.14 -39.8092553277825
2856.16 -38.1917179061385
2856.18 -36.5871478231575
2856.2 -35.0846056056435
2856.22 -33.6401221804881
2856.24 -32.2542126168639
2856.26 -30.9422567072745
2856.28 -29.688241004975
2856.3 -28.5068458558743
2856.32 -27.3572302665628
2856.34 -26.2718571147689
2856.36 -25.2286731527659
2856.38 -24.2354429168409
2856.4 -23.2747886756531
2856.42 -22.3583669122838
2856.44 -21.4752749080422
2856.46 -20.6271942794059
2856.48 -19.8120009562784
2856.5 -19.0223419032117
2856.52 -18.2649102068889
2856.54 -17.5352861479952
2856.56 -16.8317327602376
2856.58 -16.1511115981536
2856.6 -15.4945361882222
2856.62 -14.8640644024846
2856.64 -14.2533606711351
2856.66 -13.6634859536348
2856.68 -13.0964610089622
2856.7 -12.5496023330448
2856.72 -12.0209699659085
2856.74 -11.5123778826079
2856.76 -11.0207157091273
2856.78 -10.5488974778818
2856.8 -10.0936638659633
2856.82 -9.65602481748941
2856.84 -9.23610467420032
2856.86 -8.83111038239478
2856.88 -8.44369952724089
2856.9 -8.07120860102443
2856.92 -7.71413982670036
2856.94 -7.37197211353407
2856.96 -7.04467459486184
2856.98 -6.73166698801368
2857 -6.43206250733376
2857.02 -6.14580767874787
2857.04 -5.87352784460832
2857.06 -5.61319435724637
2857.08 -5.36471376432091
2857.1 -5.12833295502034
2857.12 -4.90286686386011
2857.14 -4.68854680882838
2857.16 -4.48489679251921
2857.18 -4.29166233625616
2857.2 -4.10755867844306
2857.22 -3.93279255849131
2857.24 -3.76654259668818
2857.26 -3.60951639500262
2857.28 -3.46017184884656
2857.3 -3.31854043605997
2857.32 -3.18438103227562
2857.34 -3.05693458712487
2857.36 -2.93661721073761
2857.38 -2.82232283472983
2857.4 -2.71357293846825
2857.42 -2.61115516834782
2857.44 -2.5138528464313
2857.46 -2.42169806108104
2857.48 -2.33420014310222
2857.5 -2.25135460920859
2857.52 -2.17307728848662
2857.54 -2.09864544158972
2857.56 -2.02787315891677
2857.58 -1.96136055962528
2857.6 -1.89781693091693
2857.62 -1.83773211579078
2857.64 -1.78101116559307
2857.66 -1.72711572850484
2857.68 -1.67589671491413
2857.7 -1.6275810810634
2857.72 -1.58170880788517
2857.74 -1.5381537815803
2857.76 -1.49714424424879
2857.78 -1.45825074854192
2857.8 -1.42138217514193
2857.82 -1.38646566783322
2857.84 -1.35341227090976
2857.86 -1.32215925389818
2857.88 -1.29294959663171
2857.9 -1.26511501472462
2857.92 -1.23921464710897
2857.94 -1.21487592440646
2857.96 -1.19178103279004
2857.98 -1.17049899446266
2858 -1.15040540371743
2858.02 -1.13178054673879
2858.04 -1.11487250357877
2858.06 -1.09910938898624
2858.08 -1.08479123833537
2858.1 -1.07157517412545
2858.12 -1.06012355685287
2858.14 -1.04985305136573
2858.16 -1.04110071463679
2858.18 -1.03384664775142
2858.2 -1.02820298378967
2858.22 -1.02391803103507
2858.24 -1.0213077006962
2858.26 -1.02020940087703
2858.28 -1.02106098971633
2858.3 -1.02390084927246
2858.32 -1.02862797241361
2858.34 -1.03577044741997
2858.36 -1.04555461304961
2858.38 -1.05773197975101
2858.4 -1.07270287860778
2858.42 -1.09103450744428
2858.44 -1.1132968287401
2858.46 -1.13957825922829
2858.48 -1.17066552546239
2858.5 -1.20725608718655
2858.52 -1.24970411109255
2858.54 -1.29940833636737
2858.56 -1.35786630415082
2858.58 -1.42607020332464
2858.6 -1.50581331712217
2858.62 -1.59879427077511
2858.64 -1.70866790075549
2858.66 -1.83877563375678
2858.68 -1.99118916942434
2858.7 -2.17311593531971
2858.72 -2.38848080791347
2858.74 -2.64380635430321
2858.76 -2.94781622108413
2858.78 -3.30272093142003
2858.8 -3.71679711729985
2858.82 -4.18282499671606
2858.84 -4.68522369827871
2858.86 -5.18123861443628
2858.88 -5.59669908154119
2858.9 -5.84147996790598
2858.92 -5.83307559289102
2858.94 -5.56997437245127
2858.96 -5.1110226153773
2858.98 -4.55830828879608
2859 -3.99408005157471
2859.02 -3.4677145346496
2859.04 -3.00306743804773
2859.06 -2.60431415126332
2859.08 -2.26759605409895
2859.1 -1.98530917627595
2859.12 -1.74995128886433
2859.14 -1.55281437817151
2859.16 -1.38715763754317
2859.18 -1.24767282381251
2859.2 -1.12917070454171
2859.22 -1.02814505469291
2859.24 -0.941585593438702
2859.26 -0.867031542578418
2859.28 -0.802271358340445
2859.3 -0.745739211983923
2859.32 -0.696113565967113
2859.34 -0.652436665744136
2859.36 -0.613791808125473
2859.38 -0.579286197926819
2859.4 -0.548476413102795
2859.42 -0.520786383005625
2859.44 -0.495848684322123
2859.46 -0.473275333575652
2859.48 -0.452788639792166
2859.5 -0.434038563904153
2859.52 -0.416924177784047
2859.54 -0.401205252448461
2859.56 -0.386748924245594
2859.58 -0.37340868787946
2859.6 -0.361031715015642
2859.62 -0.349534826991971
2859.64 -0.338860605470113
2859.66 -0.328909833596354
2859.68 -0.31955743142319
2859.7 -0.310827358736744
2859.72 -0.302623501793597
2859.74 -0.294899191778508
2859.76 -0.287612906331472
2859.78 -0.280755205540069
2859.8 -0.274243462527368
2859.82 -0.268061843132374
2859.84 -0.262214276781207
2859.86 -0.25663649250495
2859.88 -0.251343410663866
2859.9 -0.246288483355963
2859.92 -0.24146013816027
2859.94 -0.236846810653058
2859.96 -0.232429096048633
2859.98 -0.228193901000237
2860 -0.22412926628432
2860.02 -0.220224250039523
2860.04 -0.216471811722054
2860.06 -0.212864863278516
2860.08 -0.209383709631177
2860.1 -0.206026385765238
2860.12 -0.202792786236863
2860.14 -0.199661860827403
2860.16 -0.196641264962449
2860.18 -0.193720219838662
2860.2 -0.190889714916646
2860.22 -0.188143124320877
2860.24 -0.185485241444944
2860.26 -0.182906214839841
2860.28 -0.180402176487319
2860.3 -0.177969515902588
2860.32 -0.175604859219927
2860.34 -0.173305050245167
2860.36 -0.171068193098424
2860.38 -0.168893989286261
2860.4 -0.166771431950783
2860.42 -0.164703859688277
2860.44 -0.162691159833103
2860.46 -0.160724688370763
2860.48 -0.158805741458159
2860.5 -0.156935884098106
2860.52 -0.155106194055084
2860.54 -0.153321779853402
2860.56 -0.151576970661776
2860.58 -0.149869184013055
2860.6 -0.148201091340996
2860.62 -0.146568920798443
2860.64 -0.144969355008254
2860.66 -0.143405333341054
2860.68 -0.141873574593652
2860.7 -0.140373398421701
2860.72 -0.138902899422891
2860.74 -0.137461901350199
2860.76 -0.136048677738329
2860.78 -0.134661543927824
2860.8 -0.133302362475977
2860.82 -0.131970130324381
2860.84 -0.130661199795496
2860.86 -0.129376280829474
2860.88 -0.12811465484676
2860.9 -0.126875634048959
2860.92 -0.125658559728323
2860.94 -0.124463035587045
2860.96 -0.123289043705904
2860.98 -0.122134288835164
2861 -0.120999089612512
};
\addlegendentry{МЭС}
\addplot [line width=2pt, color1]
table {%
2850.8 -0.80717083858436
2850.809 -0.8218047673994
2850.818 -0.8369178616071
2850.827 -0.8525316041476
2850.836 -0.86866864501354
2850.845 -0.88535287311731
2850.854 -0.90260949293133
2850.863 -0.92046510622469
2850.872 -0.93894779924006
2850.881 -0.95808723567529
2850.89 -0.97791475585657
2850.899 -0.99846348251196
2850.908 -1.0197684335775
2850.917 -1.0418666424911
2850.926 -1.0647972864538
2850.935 -1.0886018231601
2850.944 -1.1133241365235
2850.953 -1.1390106919455
2850.962 -1.1657107016959
2850.971 -1.1934763009938
2850.98 -1.2223627353928
2850.989 -1.2524285600898
2850.998 -1.2837358517834
2851.007 -1.3163504337137
2851.016 -1.3503421145095
2851.025 -1.3857849414611
2851.034 -1.4227574688112
2851.043 -1.4613430416263
2851.052 -1.5016300957618
2851.061 -1.5437124743674
2851.07 -1.5876897612988
2851.079 -1.6336676316875
2851.088 -1.6817582197921
2851.097 -1.7320805040819
2851.106 -1.7847607093077
2851.115 -1.8399327250686
2851.124 -1.8977385400986
2851.133 -1.9583286911582
2851.142 -2.0218627250214
2851.151 -2.08850967159
2851.16 -2.1584485256423
2851.169 -2.2318687341204
2851.178 -2.3089706851795
2851.187 -2.3899661944504
2851.196 -2.4750789831058
2851.205 -2.5645451413569
2851.214 -2.6586135699393
2851.223 -2.7575463909663
2851.232 -2.8616193182285
2851.241 -2.9711219755836
2851.25 -3.0863581505038
2851.259 -3.2076459681035
2851.268 -3.3353179690182
2851.277 -3.4697210723177
2851.286 -3.6112164021172
2851.295 -3.7601789536221
2851.304 -3.9169970708361
2851.313 -4.0820717038973
2851.322 -4.2558154086773
2851.331 -4.4386510445159
2851.34 -4.6310101172343
2851.349 -4.8333307032009
2851.358 -5.0460548752929
2851.367 -5.2696255319679
2851.376 -5.5044825048265
2851.385 -5.751057786183
2851.394 -6.009769673978
2851.403 -6.2810155741515
2851.412 -6.5651631272086
2851.421 -6.862539232705
2851.43 -7.1734164293438
2851.439 -7.4979959466026
2851.448 -7.8363865755078
2851.457 -8.1885783147845
2851.466 -8.5544095456055
2851.475 -8.9335262992617
2851.484 -9.3253320570961
2851.493 -9.7289265491279
2851.502 -10.14303234291
2851.511 -10.565908863435
2851.52 -10.995255182892
2851.529 -11.42810588333
2851.538 -11.860728969447
2851.547 -12.288541471396
2851.556 -12.706066750105
2851.565 -13.106966140169
2851.574 -13.484183087075
2851.583 -13.83023485521
2851.592 -14.137668744009
2851.601 -14.399662788557
2851.61 -14.610699713726
2851.619 -14.767194378996
2851.628 -14.867934664874
2851.637 -14.914223788301
2851.646 -14.909686000494
2851.655 -14.859788329073
2851.664 -14.77119869004
2851.673 -14.651120015006
2851.682 -14.506713227321
2851.691 -14.344671244146
2851.7 -14.170956530223
2851.709 -13.990680907977
2851.718 -13.808091118634
2851.727 -13.626622450114
2851.736 -13.448989122292
2851.745 -13.277288879822
2851.754 -13.113107394077
2851.763 -12.957614408342
2851.772 -12.811647926662
2851.781 -12.675785473718
2851.79 -12.550402988786
2851.799 -12.435722665205
2851.808 -12.331851314931
2851.817 -12.238810836479
2851.826 -12.156562228433
2851.835 -12.085024399943
2851.844 -12.024088829095
2851.853 -11.97363093244
2851.862 -11.933518844138
2851.871 -11.903620163693
2851.88 -11.883807116106
2851.889 -11.873960474653
2851.898 -11.873972521267
2851.907 -11.883749259318
2851.916 -11.903212045631
2851.925 -11.932298770292
2851.934 -11.970964682058
2851.943 -12.019182932244
2851.952 -12.07694488938
2851.961 -12.144260259402
2851.97 -12.221157030724
2851.979 -12.30768124918
2851.988 -12.403896613732
2851.997 -12.509883869103
2852.006 -12.625739955176
2852.015 -12.75157685414
2852.024 -12.887520053705
2852.033 -13.033706516851
2852.042 -13.190282013814
2852.051 -13.357397628143
2852.06 -13.535205193124
2852.069 -13.723851344498
2852.078 -13.923469786428
2852.087 -14.134171255932
2852.096 -14.356030532077
2852.105 -14.58906966623
2852.114 -14.833236406602
2852.123 -15.088376556729
2852.132 -15.354198755057
2852.141 -15.630229919969
2852.15 -15.915759429283
2852.159 -16.209770101425
2852.168 -16.510854397557
2852.177 -16.817115256109
2852.186 -17.126053023116
2852.195 -17.434443604065
2852.204 -17.738218830409
2852.213 -18.032368483409
2852.222 -18.310894057647
2852.231 -18.566855128854
2852.24 -18.792555425662
2852.249 -18.979909807361
2852.258 -19.121006854236
2852.267 -19.208830967456
2852.276 -19.238041783728
2852.285 -19.205653251655
2852.294 -19.111444176096
2852.303 -18.957986713788
2852.312 -18.750284606898
2852.321 -18.495122077381
2852.33 -18.200287914234
2852.339 -17.873837348892
2852.348 -17.523503148037
2852.357 -17.156300832351
2852.366 -16.778319036318
2852.375 -16.394656121666
2852.384 -16.009455838567
2852.393 -15.625999869954
2852.402 -15.246825590133
2852.411 -14.873848203575
2852.42 -14.508475238645
2852.429 -14.151707589631
2852.438 -13.80422523845
2852.447 -13.466458030355
2852.456 -13.138642990729
2852.465 -12.820870092128
2852.474 -12.513118415722
2852.483 -12.215284492658
2852.492 -11.927204373172
2852.501 -11.648670718027
2852.51 -11.379445969675
2852.519 -11.119272453091
2852.528 -10.86788008182
2852.537 -10.624992202015
2852.546 -10.390329992362
2852.555 -10.163615746411
2852.564 -9.9445752918133
2852.573 -9.7329397444344
2852.582 -9.528446751191
2852.591 -9.3308413410401
2852.6 -9.1398764767883
2852.609 -8.9553133795713
2852.618 -8.7769216816775
2852.627 -8.6044794508143
2852.636 -8.4377731191495
2852.645 -8.2765973428548
2852.654 -8.120754811977
2852.663 -7.9700560258633
2852.672 -7.8243190457932
2852.681 -7.683369233693
2852.69 -7.5470389836454
2852.699 -7.4151674512332
2852.708 -7.2876002844525
2852.717 -7.1641893589259
2852.726 -7.0447925193678
2852.735 -6.9292733286574
2852.744 -6.8175008254145
2852.753 -6.7093492906279
2852.762 -6.604698023617
2852.771 -6.5034311274157
2852.78 -6.4054373035173
2852.789 -6.3106096558145
2852.798 -6.218845503494
2852.807 -6.1300462025922
2852.816 -6.0441169758863
2852.825 -5.9609667507758
2852.834 -5.8805080047988
2852.843 -5.802656618427
2852.852 -5.7273317347885
2852.861 -5.6544556259735
2852.87 -5.5839535655912
2852.879 -5.5157537072575
2852.888 -5.4497869687097
2852.897 -5.3859869212551
2852.906 -5.3242896842799
2852.915 -5.2646338245557
2852.924 -5.2069602600987
2852.933 -5.1512121683465
2852.942 -5.0973348984365
2852.951 -5.0452758873767
2852.96 -4.9949845799163
2852.969 -4.9464123519324
2852.978 -4.8995124371612
2852.987 -4.8542398571103
2852.996 -4.8105513540017
2853.005 -4.7684053265991
2853.014 -4.7277617687853
2853.023 -4.6885822107612
2853.032 -4.650829662746
2853.041 -4.6144685610631
2853.05 -4.5794647165059
2853.059 -4.5457852648786
2853.068 -4.5133986196177
2853.077 -4.4822744264008
2853.086 -4.4523835196572
2853.095 -4.4236978808958
2853.104 -4.396190598774
2853.113 -4.3698358308315
2853.122 -4.3446087668197
2853.131 -4.320485593557
2853.14 -4.2974434612487
2853.149 -4.2754604512076
2853.158 -4.2545155449185
2853.167 -4.2345885943917
2853.176 -4.2156602937495
2853.185 -4.1977121519991
2853.194 -4.1807264669397
2853.203 -4.1646863001604
2853.212 -4.1495754530829
2853.221 -4.1353784440083
2853.23 -4.1220804861256
2853.239 -4.1096674664459
2853.248 -4.0981259256225
2853.257 -4.0874430386236
2853.266 -4.0776065962228
2853.275 -4.068604987275
2853.284 -4.0604271817466
2853.293 -4.0530627144702
2853.302 -4.0465016695955
2853.311 -4.0407346657071
2853.32 -4.0357528415887
2853.329 -4.0315478425986
2853.338 -4.0281118076424
2853.347 -4.0254373567134
2853.356 -4.0235175789805
2853.365 -4.0223460214022
2853.374 -4.0219166778462
2853.383 -4.0222239786936
2853.392 -4.0232627809107
2853.401 -4.0250283585683
2853.41 -4.0275163937921
2853.419 -4.0307229681279
2853.428 -4.0346445543017
2853.437 -4.0392780083653
2853.446 -4.0446205622059
2853.455 -4.0506698164098
2853.464 -4.0574237334632
2853.473 -4.0648806312807
2853.482 -4.0730391770395
2853.491 -4.081898381321
2853.5 -4.0914575925337
2853.509 -4.1017164916135
2853.518 -4.1126750869878
2853.527 -4.1243337097956
2853.536 -4.1366930093425
2853.545 -4.1497539487984
2853.554 -4.1635178011096
2853.563 -4.1779861451275
2853.572 -4.1931608619384
2853.581 -4.2090441313938
2853.59 -4.2256384288128
2853.599 -4.2429465218789
2853.608 -4.260971467693
2853.617 -4.2797166099923
2853.626 -4.2991855765197
2853.635 -4.3193822765458
2853.644 -4.340310898512
2853.653 -4.3619759078267
2853.662 -4.3843820447682
2853.671 -4.4075343225118
2853.68 -4.4314380252644
2853.689 -4.4560987065115
2853.698 -4.4815221873414
2853.707 -4.5077145548881
2853.716 -4.5346821608397
2853.725 -4.5624316200348
2853.734 -4.5909698091307
2853.743 -4.6203038653498
2853.752 -4.6504411852671
2853.761 -4.6813894236873
2853.77 -4.7131564925528
2853.779 -4.745750559911
2853.788 -4.7791800489231
2853.797 -4.8134536369248
2853.806 -4.8485802544971
2853.815 -4.8845690846062
2853.824 -4.9214295617466
2853.833 -4.9591713711211
2853.842 -4.9978044478407
2853.851 -5.0373389761578
2853.86 -5.0777853886862
2853.869 -5.1191543656798
2853.878 -5.1614568342935
2853.887 -5.2047039678701
2853.896 -5.2489071852344
2853.905 -5.2940781500126
2853.914 -5.3402287699267
2853.923 -5.3873711961465
2853.932 -5.4355178226185
2853.941 -5.4846812854192
2853.95 -5.5348744621183
2853.959 -5.5861104711722
2853.968 -5.638402671295
2853.977 -5.6917646609046
2853.986 -5.7462102775514
2853.995 -5.8017535973916
2854.004 -5.8584089346877
2854.013 -5.9161908413653
2854.022 -5.9751141065681
2854.031 -6.0351937563249
2854.04 -6.0964450532284
2854.049 -6.1588834961995
2854.058 -6.2225248203195
2854.067 -6.287384996768
2854.076 -6.3534802328048
2854.085 -6.4208269719269
2854.094 -6.4894418940933
2854.103 -6.5593419161019
2854.112 -6.6305441921061
2854.121 -6.7030661143136
2854.13 -6.7769253138075
2854.139 -6.8521396616348
2854.148 -6.9287272700516
2854.157 -7.0067064940206
2854.166 -7.0860959329523
2854.175 -7.1669144327425
2854.184 -7.2491810880413
2854.193 -7.3329152449235
2854.202 -7.418136503838
2854.211 -7.5048647229495
2854.22 -7.5931200218662
2854.229 -7.682922785818
2854.238 -7.7742936702162
2854.247 -7.8672536057897
2854.256 -7.9618238041647
2854.265 -8.0580257640211
2854.274 -8.1558812778207
2854.283 -8.2554124391856
2854.292 -8.3566416508546
2854.301 -8.4595916334387
2854.31 -8.5642854348346
2854.319 -8.6707464404476
2854.328 -8.7789983842262
2854.337 -8.8890653605986
2854.346 -9.0009718372385
2854.355 -9.1147426689129
2854.364 -9.2304031122581
2854.373 -9.3479788416634
2854.382 -9.4674959662678
2854.391 -9.588981048182
2854.4 -9.7124611218598
2854.409 -9.8379637149088
2854.418 -9.9655168701821
2854.427 -10.095149169356
2854.436 -10.226889758013
2854.445 -10.360768372369
2854.454 -10.496815367567
2854.463 -10.635061747876
2854.472 -10.775539198645
2854.481 -10.91828012023
2854.49 -11.063317663966
2854.499 -11.210685770327
2854.508 -11.360419209238
2854.517 -11.51255362291
2854.526 -11.667125571069
2854.535 -11.824172578864
2854.544 -11.983733187523
2854.553 -12.145847007991
2854.562 -12.310554777503
2854.571 -12.477898419581
2854.58 -12.647921107314
2854.589 -12.820667330294
2854.598 -12.996182965341
2854.607 -13.17451535129
2854.616 -13.355713367881
2854.625 -13.539827519302
2854.634 -13.726910022312
2854.643 -13.917014899406
2854.652 -14.110198077216
2854.661 -14.306517490529
2854.67 -14.506033191998
2854.679 -14.708807468237
2854.688 -14.914904962256
2854.697 -15.124392802804
2854.706 -15.337340740859
2854.715 -15.553821293745
2854.724 -15.773909896936
2854.733 -15.997685064337
2854.742 -16.225228556928
2854.751 -16.456625560345
2854.76 -16.69196487154
2854.769 -16.93133909484
2854.778 -17.17484484725
2854.787 -17.422582973457
2854.796 -17.674658769962
2854.805 -17.931182218256
2854.814 -18.192268226371
2854.823 -18.458036877982
2854.832 -18.728613687429
2854.841 -19.004129859242
2854.85 -19.284722549096
2854.859 -19.570535122963
2854.868 -19.861717409716
2854.877 -20.15842594119
2854.886 -20.460824171385
2854.895 -20.769082665015
2854.904 -21.083379241491
2854.913 -21.403899057451
2854.922 -21.730834605624
2854.931 -22.064385601862
2854.94 -22.404758723722
2854.949 -22.752167154924
2854.958 -23.106829875871
2854.967 -23.468970625092
2854.976 -23.838816435053
2854.985 -24.2165956196
2854.994 -24.602535055983
2855.003 -24.996856562847
2855.012 -25.399772120193
2855.021 -25.811477610705
2855.03 -26.232144676744
2855.039 -26.661910183487
2855.048 -27.100862651607
2855.057 -27.549024874151
2855.066 -28.006331759013
2855.075 -28.472602253923
2855.084 -28.947504029047
2855.093 -29.430509452981
2855.102 -29.920841365984
2855.111 -30.417407345733
2855.12 -30.918721748885
2855.129 -31.422816065994
2855.138 -31.92714039674
2855.147 -32.428462551593
2855.156 -32.922776760116
2855.165 -33.405241227452
2855.174 -33.870172010943
2855.183 -34.31112761616
2855.192 -34.721120088253
2855.201 -35.092978379575
2855.21 -35.419863259607
2855.219 -35.6958900509
2855.228 -35.916766200243
2855.237 -36.08031600534
2855.246 -36.18676772811
2855.255 -36.238728280132
2855.264 -36.240852260436
2855.273 -36.199290762507
2855.282 -36.121048305562
2855.291 -36.013372110689
2855.3 -35.883259337991
2855.309 -35.737118458776
2855.318 -35.580580160042
2855.327 -35.418429443101
2855.336 -35.254622762609
2855.345 -35.092356656979
2855.354 -34.93416167922
2855.363 -34.782003622653
2855.372 -34.637381041977
2855.381 -34.501413253331
2855.39 -34.374916445268
2855.399 -34.258467616966
2855.408 -34.152457187884
2855.417 -34.05713163524
2855.426 -33.972627661253
2855.435 -33.898999337811
2855.444 -33.83623952662
2855.453 -33.784296689123
2855.462 -33.743088016143
2855.471 -33.712509638593
2855.48 -33.692444534355
2855.489 -33.682768623662
2855.498 -33.683355444499
2855.507 -33.694079717938
2855.516 -33.714820048053
2855.525 -33.745460949145
2855.534 -33.785894352034
2855.543 -33.836020708887
2855.552 -33.895749790778
2855.561 -33.965001252395
2855.57 -34.043705022899
2855.579 -34.131801570019
2855.588 -34.229242075247
2855.597 -34.335988551009
2855.606 -34.452013925404
2855.615 -34.577302116241
2855.624 -34.711848113407
2855.633 -34.855658086808
2855.642 -35.008749536144
2855.651 -35.171151498449
2855.66 -35.342904829517
2855.669 -35.524062575983
2855.678 -35.71469045581
2855.687 -35.914867466045
2855.696 -36.124686637899
2855.705 -36.344255960051
2855.714 -36.57369949134
2855.723 -36.813158683009
2855.732 -37.06279392768
2855.741 -37.322786345984
2855.75 -37.593339810492
2855.759 -37.874683187765
2855.768 -38.167072748978
2855.777 -38.470794652351
2855.786 -38.786167327994
2855.795 -39.113543485916
2855.804 -39.453311302671
2855.813 -39.805894094962
2855.822 -40.171747419903
2855.831 -40.551351992999
2855.84 -40.945199999637
2855.849 -41.353771167171
2855.858 -41.777493180453
2855.867 -42.216678410794
2855.876 -42.671425157878
2855.885 -43.141466305015
2855.894 -43.625941190785
2855.903 -44.123057850931
2855.912 -44.62960435641
2855.921 -45.140265246225
2855.93 -45.646715245015
2855.939 -46.136524135194
2855.948 -46.592055940934
2855.957 -46.989820979633
2855.966 -47.301099315061
2855.975 -47.49483007886
2855.984 -47.543200716103
2855.993 -47.428708042724
2856.002 -47.149566097992
2856.011 -46.720328455677
2856.02 -46.167330364355
2856.029 -45.521675303541
2856.038 -44.813131125799
2856.047 -44.066631203259
2856.056 -43.301225480162
2856.065 -42.5305259647
2856.074 -41.763757185514
2856.083 -41.006875409895
2856.092 -40.263523603285
2856.101 -39.53576420073
2856.11 -38.824608857501
2856.119 -38.130387783398
2856.128 -37.453001224192
2856.137 -36.792087832999
2856.146 -36.147135842494
2856.155 -35.517555466807
2856.164 -34.902725291556
2856.173 -34.302021348763
2856.182 -33.714834747772
2856.191 -33.140581806142
2856.2 -32.578709316787
2856.209 -32.028696709232
2856.218 -31.49005627171
2856.227 -30.962332205491
2856.236 -30.445099015643
2856.245 -29.937959566683
2856.254 -29.440543011195
2856.263 -28.952502721228
2856.272 -28.473514299512
2856.281 -28.003273713897
2856.29 -27.541495574724
2856.299 -27.087911562489
2856.308 -26.642269002995
2856.317 -26.20432958282
2856.326 -25.773868194796
2856.335 -25.350671902602
2856.344 -24.934539012089
2856.353 -24.525278238843
2856.362 -24.122707960919
2856.371 -23.726655547175
2856.38 -23.336956752196
2856.389 -22.95345517034
2856.398 -22.57600174113
2856.407 -22.204454300525
2856.416 -21.838677172148
2856.425 -21.478540793849
2856.434 -21.123921375262
2856.443 -20.774700583082
2856.452 -20.430765250209
2856.461 -20.092007106624
2856.47 -19.758322529169
2856.479 -19.429612308257
2856.488 -19.105781429514
2856.497 -18.786738869089
2856.506 -18.472397400623
2856.515 -18.162673413213
2856.524 -17.857486738955
2856.533 -17.556760489222
2856.542 -17.260420898724
2856.551 -16.968397176954
2856.56 -16.68062136582
2856.569 -16.39702820346
2856.578 -16.117554993417
2856.587 -15.842141478872
2856.596 -15.57072972146
2856.605 -15.303263984633
2856.614 -15.039690620808
2856.623 -14.779957962569
2856.632 -14.524016217414
2856.641 -14.271817366001
2856.65 -14.023315063651
2856.659 -13.77846454527
2856.668 -13.537222533129
2856.677 -13.299547147911
2856.686 -13.06539782267
2856.695 -12.834735219775
2856.704 -12.607521150705
2856.713 -12.383718498918
2856.722 -12.163291145352
2856.731 -11.946203896966
2856.74 -11.732422418039
2856.749 -11.521913164307
2856.758 -11.314643319834
2856.767 -11.110580736798
2856.776 -10.909693877799
2856.785 -10.711951761012
2856.794 -10.517323907923
2856.803 -10.325780293667
2856.812 -10.137291299839
2856.821 -9.9518276699041
2856.83 -9.7693604668048
2856.839 -9.589861033017
2856.848 -9.4133009527795
2856.857 -9.2396520164864
2856.866 -9.0688861870905
2856.875 -8.9009755686266
2856.884 -8.7358923764601
2856.893 -8.5736089095061
2856.902 -8.4140975241627
2856.911 -8.257330609969
2856.92 -8.1032805668707
2856.929 -7.9519197842224
2856.938 -7.8032206212027
2856.947 -7.6571553889048
2856.956 -7.5136963339113
2856.965 -7.372815623406
2856.974 -7.2344853317595
2856.983 -7.0986774287438
2856.992 -6.9653637691214
2857.001 -6.8345160838751
2857.01 -6.7061059729312
2857.019 -6.5801048994406
2857.028 -6.4564841855702
2857.037 -6.3352150099442
2857.046 -6.216268406501
2857.055 -6.0996152649859
2857.064 -5.9852263329273
2857.073 -5.8730722191203
2857.082 -5.7631233985416
2857.091 -5.6553502187752
2857.1 -5.5497229076951
2857.109 -5.446211582553
2857.118 -5.3447862602809
2857.127 -5.2454168689824
2857.136 -5.14807326049
2857.145 -5.0527252240107
2857.154 -4.9593425005876
2857.163 -4.8678947984626
2857.172 -4.7783518091333
2857.181 -4.6906832240436
2857.19 -4.6048587517679
2857.199 -4.5208481356845
2857.208 -4.4386211718739
2857.217 -4.3581477273053
2857.226 -4.2793977581149
2857.235 -4.2023413279201
2857.244 -4.1269486260459
2857.253 -4.0531899856618
2857.262 -3.9810359016086
2857.271 -3.91045704798
2857.28 -3.841424295305
2857.289 -3.7739087272983
2857.298 -3.7078816570939
2857.307 -3.6433146429827
2857.316 -3.5801795034855
2857.325 -3.5184483318462
2857.334 -3.4580935098361
2857.343 -3.3990877208709
2857.352 -3.3414039623918
2857.361 -3.2850155575589
2857.37 -3.2298961661372
2857.379 -3.176019794676
2857.388 -3.1233608059143
2857.397 -3.0718939274377
2857.406 -3.0215942595703
2857.415 -2.9724372825672
2857.424 -2.9243988630249
2857.433 -2.8774552596186
2857.442 -2.8315831281281
2857.451 -2.7867595257914
2857.46 -2.7429619149902
2857.469 -2.7001681663384
2857.478 -2.6583565611173
2857.487 -2.6175057931637
2857.496 -2.5775949701905
2857.505 -2.5386036145836
2857.514 -2.5005116636881
2857.523 -2.4632994696538
2857.532 -2.4269477987979
2857.541 -2.3914378305837
2857.55 -2.3567511562028
2857.559 -2.3228697768027
2857.568 -2.2897761013753
2857.577 -2.2574529443697
2857.586 -2.2258835229952
2857.595 -2.1950514543017
2857.604 -2.1649407520284
2857.613 -2.135535823257
2857.622 -2.1068214648846
2857.631 -2.0787828599697
2857.64 -2.0514055739228
2857.649 -2.0246755506166
2857.658 -1.9985791084056
2857.667 -1.9731029360893
2857.676 -1.9482340888265
2857.685 -1.9239599840507
2857.694 -1.9002683973574
2857.703 -1.8771474584293
2857.712 -1.8545856469896
2857.721 -1.8325717888104
2857.73 -1.8110950517849
2857.739 -1.7901449421033
2857.748 -1.7697113005088
2857.757 -1.7497842986895
2857.766 -1.7303544357976
2857.775 -1.7114125351212
2857.784 -1.692949740914
2857.793 -1.6749575154209
2857.802 -1.6574276360787
2857.811 -1.6403521929419
2857.82 -1.6237235863289
2857.829 -1.6075345247108
2857.838 -1.5917780228529
2857.847 -1.576447400242
2857.856 -1.5615362797873
2857.865 -1.5470385868414
2857.874 -1.5329485485418
2857.883 -1.519260693499
2857.892 -1.5059698518434
2857.901 -1.4930711556691
2857.91 -1.4805600398695
2857.919 -1.4684322434142
2857.928 -1.4566838110767
2857.937 -1.4453110956449
2857.946 -1.4343107606373
2857.955 -1.4236797835683
2857.964 -1.4134154597743
2857.973 -1.4035154068555
2857.982 -1.3939775697595
2857.991 -1.3848002265514
2858 -1.3759819949105
2858.009 -1.3675218394107
2858.018 -1.3594190796208
2858.027 -1.351673399094
2858.036 -1.3442848553009
2858.045 -1.3372538905718
2858.054 -1.3305813441192
2858.063 -1.3242684652243
2858.072 -1.3183169276592
2858.081 -1.3127288454505
2858.09 -1.3075067900759
2858.099 -1.3026538092063
2858.108 -1.298173447111
2858.117 -1.2940697668605
2858.126 -1.2903473744619
2858.135 -1.2870114450899
2858.144 -1.2840677515799
2858.153 -1.2815226953696
2858.162 -1.2793833400944
2858.171 -1.2776574480607
2858.18 -1.2763535198392
2858.189 -1.2754808372515
2858.198 -1.2750495100418
2858.207 -1.2750705265591
2858.216 -1.2755558088067
2858.225 -1.276518272248
2858.234 -1.2779718908012
2858.243 -1.2799317674945
2858.252 -1.2824142113026
2858.261 -1.2854368207368
2858.27 -1.2890185748211
2858.279 -1.2931799321444
2858.288 -1.2979429387581
2858.297 -1.3033313457568
2858.306 -1.3093707374692
2858.315 -1.3160886712793
2858.324 -1.3235148302027
2858.333 -1.3316811894422
2858.342 -1.3406221982939
2858.351 -1.3503749788782
2858.36 -1.3609795433375
2858.369 -1.3724790312839
2858.378 -1.3849199694574
2858.387 -1.3983525557096
2858.396 -1.4128309696535
2858.405 -1.4284137124625
2858.414 -1.4451639785378
2858.423 -1.4631500619341
2858.432 -1.4824458006346
2858.441 -1.5031310618991
2858.45 -1.5252922721007
2858.459 -1.5490229944699
2858.468 -1.5744245582211
2858.477 -1.6016067423894
2858.486 -1.6306885174414
2858.495 -1.6617988471755
2858.504 -1.6950775526849
2858.513 -1.7306762388131
2858.522 -1.7687592817955
2858.531 -1.8095048741589
2858.54 -1.8531061193858
2858.549 -1.8997721638405
2858.558 -1.9497293468575
2858.567 -2.0032223406814
2858.576 -2.0605152399539
2858.585 -2.1218925442822
2858.594 -2.1876599561978
2858.603 -2.2581448887828
2858.612 -2.3336965409381
2858.621 -2.4146853506652
2858.63 -2.5015015758398
2858.639 -2.5945526737862
2858.648 -2.6942590519867
2858.657 -2.8010476387062
2858.666 -2.9153425702077
2858.675 -3.0375521084229
2858.684 -3.1680506907194
2858.693 -3.3071547787932
2858.702 -3.4550909361721
2858.711 -3.6119543631514
2858.72 -3.777656025796
2858.729 -3.9518566542318
2858.738 -4.1338864485088
2858.747 -4.3226506019771
2858.756 -4.5165231147661
2858.765 -4.7132352658836
2858.774 -4.9097709103331
2858.783 -5.1022884677556
2858.792 -5.28609818433
2858.801 -5.4557305217869
2858.81 -5.6051328286355
2858.819 -5.7280206531678
2858.828 -5.8183819408407
2858.837 -5.8710874438228
2858.846 -5.8825102820465
2858.855 -5.8510239357737
2858.864 -5.7772544531057
2858.873 -5.6640173794531
2858.882 -5.5159547786978
2858.891 -5.338966042137
2858.9 -5.1395653857441
2858.909 -4.924289791797
2858.918 -4.6992386582441
2858.927 -4.4697753618224
2858.936 -4.2403805518225
2858.945 -4.0146246957267
2858.954 -3.7952212024896
2858.963 -3.5841253804573
2858.972 -3.3826527520639
2858.981 -3.1915989777083
2858.99 -3.0113509389154
2858.999 -2.8419838458643
2859.008 -2.6833427186956
2859.017 -2.5351086567333
2859.026 -2.3968513852729
2859.035 -2.2680700110311
2859.044 -2.1482239842464
2859.053 -2.0367561310388
2859.062 -1.9331093929673
2859.071 -1.8367386567885
2859.08 -1.7471188110981
2859.089 -1.6637499448453
2859.098 -1.5861604125723
2859.107 -1.5139083329346
2859.116 -1.4465819580227
2859.125 -1.3837992478872
2859.134 -1.3252069031894
2859.143 -1.2704790451022
2859.152 -1.2193156823374
2859.161 -1.1714410673545
2859.17 -1.1266020148946
2859.179 -1.0845662342419
2859.188 -1.0451207103109
2859.197 -1.0080701564601
2859.206 -0.9732355530521
2859.215 -0.94045277932003
2859.224 -0.90957134141058
2859.233 -0.88045319625061
2859.242 -0.85297166868364
2859.251 -0.82701045782171
2859.26 -0.80246272769011
2859.269 -0.77923027676876
2859.278 -0.75722278079652
2859.287 -0.736357103229
2859.296 -0.71655666789577
2859.305 -0.69775088860389
2859.314 -0.67987465074341
2859.323 -0.6628678402823
2859.332 -0.64667491584425
2859.341 -0.63124451991141
2859.35 -0.61652912552915
2859.359 -0.60248471517849
2859.368 -0.5890704887895
2859.377 -0.57624859815362
2859.386 -0.56398390522677
2859.395 -0.55224376206162
2859.404 -0.54099781032966
2859.413 -0.53021779857286
2859.422 -0.51987741551365
2859.431 -0.5099521379215
2859.44 -0.50041909166516
2859.449 -0.49125692472145
2859.458 -0.48244569103676
2859.467 -0.47396674423214
2859.476 -0.46580264024825
2859.485 -0.45793704811984
2859.494 -0.45035466813604
2859.503 -0.44304115672078
2859.512 -0.43598305743591
2859.521 -0.42916773755681
2859.53 -0.422583329728
2859.539 -0.41621867825787
2859.548 -0.41006328964365
2859.557 -0.40410728696059
2859.566 -0.39834136778785
2859.575 -0.39275676536495
2859.584 -0.38734521270579
2859.593 -0.38209890942575
2859.602 -0.37701049105218
2859.611 -0.372073000613
2859.62 -0.36727986231974
2859.629 -0.36262485717096
2859.638 -0.3581021003209
2859.647 -0.35370602007534
2859.656 -0.34943133838182
2859.665 -0.34527305269668
2859.674 -0.34122641912364
2859.683 -0.33728693672223
2859.692 -0.33345033289577
2859.701 -0.32971254977932
2859.71 -0.32606973154887
2859.719 -0.32251821258253
2859.728 -0.31905450641237
2859.737 -0.31567529540571
2859.746 -0.31237742112216
2859.755 -0.30915787529953
2859.764 -0.30601379142069
2859.773 -0.30294243681952
2859.782 -0.29994120529065
2859.791 -0.2970076101617
2859.8 -0.29413927780098
};
\addlegendentry{МКЭ}
\end{axis}

\end{tikzpicture}

